v 20131023 1
L 1500 1100 1500 700 3 0 0 0 -1 -1
L 1500 1000 1300 1100 3 0 0 0 -1 -1
L 1500 800 1300 700 3 0 0 0 -1 -1
L 1500 900 1700 900 3 0 0 0 -1 -1
L 1410 780 1360 730 3 0 0 0 -1 -1
L 1360 730 1430 740 3 0 0 0 -1 -1
L 1200 900 1200 500 3 0 0 0 -1 -1
L 1200 800 1000 900 3 0 0 0 -1 -1
L 1200 600 1000 500 3 0 0 0 -1 -1
L 1110 580 1060 530 3 0 0 0 -1 -1
L 1060 530 1130 540 3 0 0 0 -1 -1
L 1000 900 1000 1200 3 0 0 0 -1 -1
L 1000 1200 1300 1200 3 0 0 0 -1 -1
L 1300 1100 1300 1200 3 0 0 0 -1 -1
L 1000 500 1000 300 3 0 0 0 -1 -1
P 2000 900 1700 900 1 0 0
{
T 1900 900 5 10 0 1 0 6 1
pinseq=1
T 1795 945 5 8 0 1 0 0 1
pinnumber=3
T 1645 895 3 10 0 1 0 6 1
pinlabel=B
T 1900 600 5 10 0 1 0 6 1
pintype=pas
}
L 1300 700 1200 700 3 0 0 0 -1 -1
L 1000 1200 1000 1400 3 0 0 0 -1 -1
V 1200 900 500 3 0 0 0 -1 -1 0 -1 -1 -1 -1 -1
T 1400 1100 5 10 0 0 0 0 1
device=darlington, NPN
T 1400 900 5 10 0 0 0 0 1
description=darlington, NPN
P 1000 1700 1000 1400 1 0 0
{
T 1000 1600 5 10 0 1 270 2 1
pinseq=2
T 950 1495 5 8 0 1 90 0 1
pinnumber=2
T 1000 1345 3 10 0 1 90 6 1
pinlabel=C
T 1300 1600 5 10 0 1 270 2 1
pintype=pas
}
P 1000 0 1000 300 1 0 0
{
T 1000 100 5 10 0 1 90 2 1
pinseq=3
T 950 205 5 8 0 1 90 6 1
pinnumber=1
T 1000 355 3 10 0 1 90 0 1
pinlabel=E
T 700 100 5 10 0 1 90 2 1
pintype=pas
}
T 1500 170 5 10 1 1 0 6 1
refdes=Q?
T 1400 500 5 10 0 0 0 0 1
numslots=0
T 700 -5 8 10 0 1 0 0 1
footprint=TO126
T 295 6700 5 10 0 0 0 0 1
author=gEDA authors, pin labeling and footprint association by dllud <dllud@riseup.net>
T 295 6500 5 10 0 0 0 0 1
dist-license=GPL 3
T 295 6300 5 10 0 0 0 0 1
use-license=unlimited
