v 20131023 1
P 2000 1000 2000 800 1 0 0
{
T 2100 850 5 6 0 0 0 6 1
pinseq=2
T 2000 745 5 6 0 1 90 6 1
pinlabel=C
T 2100 850 5 6 0 1 0 6 1
pintype=pas
T 2000 1000 5 10 0 0 0 0 1
pinnumber=2
}
P 2000 200 2000 0 1 0 1
{
T 2100 50 5 6 0 0 0 6 1
pinseq=3
T 2000 255 5 6 0 1 90 0 1
pinlabel=E
T 2100 50 5 6 0 1 0 6 1
pintype=pas
T 2000 200 5 10 0 0 0 0 1
pinnumber=3
}
V 2100 501 316 3 0 0 0 -1 -1 0 -1 -1 -1 -1 -1
T 900 500 5 10 0 0 0 0 1
device=NPN_TRANSISTOR
L 2000 200 2200 400 3 0 0 0 -1 -1
L 2000 800 2200 600 3 0 0 0 -1 -1
L 2200 700 2200 300 3 0 0 0 -1 -1
P 2600 500 2416 500 1 0 0
{
T 2500 550 5 6 0 0 0 6 1
pinseq=1
T 2361 495 5 6 0 1 0 6 1
pinlabel=B
T 2500 550 5 6 0 1 0 6 1
pintype=pas
T 2600 500 5 10 0 0 0 0 1
pinnumber=1
}
L 2200 500 2416 500 3 0 0 0 -1 -1
T 2600 100 8 10 1 1 0 6 1
refdes=Q?
H 3 0 0 0 -1 -1 1 -1 -1 -1 -1 -1 5
M 2090,240
L 1999,200
L 2045,295
L 2065,265
z
T 1784 -5 8 10 0 1 0 0 1
footprint=TO220
T 295 6700 5 10 0 0 0 0 1
author=gEDA authors, pin labeling and footprint association by dllud <dllud@riseup.net>
T 295 6500 5 10 0 0 0 0 1
dist-license=GPL 3
T 295 6300 5 10 0 0 0 0 1
use-license=unlimited
