v 20130925 2
B 2700 1900 2100 3300 3 0 0 0 -1 -1 0 -1 -1 -1 -1 -1
P 2200 4600 2700 4600 1 0 0
{
T 2200 4600 5 10 0 0 0 0 1
pintype=in
T 2755 4595 5 10 1 1 0 0 1
pinlabel=CB1
T 2605 4645 5 10 1 1 0 6 1
pinnumber=2
T 2200 4600 5 10 0 0 0 0 1
pinseq=2
}
P 2200 4300 2700 4300 1 0 0
{
T 2200 4300 5 10 0 0 0 0 1
pintype=in
T 2755 4295 5 10 1 1 0 0 1
pinlabel=RBY
T 2605 4345 5 10 1 1 0 6 1
pinnumber=3
T 2200 4300 5 10 0 0 0 0 1
pinseq=3
}
P 2200 4000 2700 4000 1 0 0
{
T 2200 4000 5 10 0 0 0 0 1
pintype=in
T 2755 3995 5 10 1 1 0 0 1
pinlabel=VDD
T 2605 4045 5 10 1 1 0 6 1
pinnumber=4
T 2200 4000 5 10 0 0 0 0 1
pinseq=4
}
P 2200 4900 2700 4900 1 0 0
{
T 2200 4900 5 10 0 0 0 0 1
pintype=pwr
T 2755 4895 5 10 1 1 0 0 1
pinlabel=GNDBUS
T 2605 4945 5 10 1 1 0 6 1
pinnumber=1
T 2200 4900 5 10 0 0 0 0 1
pinseq=1
}
P 5300 4000 4800 4000 1 0 0
{
T 5300 4000 5 10 0 0 180 0 1
pintype=out
T 4745 3995 5 10 1 1 0 6 1
pinlabel=TEMP
T 4895 4045 5 10 1 1 0 0 1
pinnumber=17
T 5300 4000 5 10 0 0 180 0 1
pinseq=17
}
P 5300 4300 4800 4300 1 0 0
{
T 5300 4300 5 10 0 0 180 0 1
pintype=out
T 4745 4295 5 10 1 1 0 6 1
pinlabel=CREC
T 4895 4345 5 10 1 1 0 0 1
pinnumber=18
T 5300 4300 5 10 0 0 180 0 1
pinseq=18
}
P 5300 4600 4800 4600 1 0 0
{
T 5300 4600 5 10 0 0 180 0 1
pintype=out
T 4745 4595 5 10 1 1 0 6 1
pinlabel=IAST
T 4895 4645 5 10 1 1 0 0 1
pinnumber=19
T 5300 4600 5 10 0 0 180 0 1
pinseq=19
}
P 5300 4900 4800 4900 1 0 0
{
T 5300 4900 5 10 0 0 180 0 1
pintype=out
T 4745 4895 5 10 1 1 0 6 1
pinlabel=ABUS
T 4895 4945 5 10 1 1 0 0 1
pinnumber=20
T 5300 4900 5 10 0 0 180 0 1
pinseq=20
}
P 2200 3700 2700 3700 1 0 0
{
T 2200 3700 5 10 0 0 0 6 1
pintype=out
T 2755 3695 5 10 1 1 0 0 1
pinlabel=KOLL
T 2605 3745 5 10 1 1 0 6 1
pinnumber=5
T 2200 3700 5 10 0 0 0 6 1
pinseq=5
}
P 2200 3400 2700 3400 1 0 0
{
T 2200 3400 5 10 0 0 0 6 1
pintype=out
T 2755 3395 5 10 1 1 0 0 1
pinlabel=EMI
T 2605 3445 5 10 1 1 0 6 1
pinnumber=6
T 2200 3400 5 10 0 0 0 6 1
pinseq=6
}
P 2200 3100 2700 3100 1 0 0
{
T 2200 3100 5 10 0 0 0 6 1
pintype=out
T 2755 3095 5 10 1 1 0 0 1
pinlabel=DFB
T 2605 3145 5 10 1 1 0 6 1
pinnumber=7
T 2200 3100 5 10 0 0 0 6 1
pinseq=7
}
P 2200 2800 2700 2800 1 0 0
{
T 2200 2800 5 10 0 0 0 6 1
pintype=out
T 2755 2795 5 10 1 1 0 0 1
pinlabel=VCC
T 2605 2845 5 10 1 1 0 6 1
pinnumber=8
T 2200 2800 5 10 0 0 0 6 1
pinseq=8
}
P 2200 2500 2700 2500 1 0 0
{
T 2200 2500 5 10 0 0 0 6 1
pintype=out
T 2755 2495 5 10 1 1 0 0 1
pinlabel=SEND
T 2605 2545 5 10 1 1 0 6 1
pinnumber=9
T 2200 2500 5 10 0 0 0 6 1
pinseq=9
}
P 2200 2200 2700 2200 1 0 0
{
T 2200 2200 5 10 0 0 0 6 1
pintype=out
T 2755 2195 5 10 1 1 0 0 1
pinlabel=#SAVE
T 2605 2245 5 10 1 1 0 6 1
pinnumber=10
T 2200 2200 5 10 0 0 0 6 1
pinseq=10
}
P 5300 2200 4800 2200 1 0 0
{
T 5300 2200 5 10 0 0 180 6 1
pintype=out
T 4745 2195 5 10 1 1 0 6 1
pinlabel=#RESET
T 4895 2245 5 10 1 1 0 0 1
pinnumber=11
T 5300 2200 5 10 0 0 180 6 1
pinseq=11
}
P 5300 2500 4800 2500 1 0 0
{
T 5300 2500 5 10 0 0 180 6 1
pintype=out
T 4745 2495 5 10 1 1 0 6 1
pinlabel=QREC
T 4895 2545 5 10 1 1 0 0 1
pinnumber=12
T 5300 2500 5 10 0 0 180 6 1
pinseq=12
}
P 5300 2800 4800 2800 1 0 0
{
T 5300 2800 5 10 0 0 180 6 1
pintype=out
T 4745 2795 5 10 1 1 0 6 1
pinlabel=ABUS/8
T 4895 2845 5 10 1 1 0 0 1
pinnumber=13
T 5300 2800 5 10 0 0 180 6 1
pinseq=13
}
P 5300 3100 4800 3100 1 0 0
{
T 5300 3100 5 10 0 0 180 6 1
pintype=out
T 4745 3095 5 10 1 1 0 6 1
pinlabel=VAST
T 4895 3145 5 10 1 1 0 0 1
pinnumber=14
T 5300 3100 5 10 0 0 180 6 1
pinseq=14
}
P 5300 3400 4800 3400 1 0 0
{
T 5300 3400 5 10 0 0 180 6 1
pintype=out
T 4745 3395 5 10 1 1 0 6 1
pinlabel=GNDLOG
T 4895 3445 5 10 1 1 0 0 1
pinnumber=15
T 5300 3400 5 10 0 0 180 6 1
pinseq=15
}
P 5300 3700 4800 3700 1 0 0
{
T 5300 3700 5 10 0 0 180 6 1
pintype=out
T 4745 3695 5 10 1 1 0 6 1
pinlabel=CAST
T 4895 3745 5 10 1 1 0 0 1
pinnumber=16
T 5300 3700 5 10 0 0 180 6 1
pinseq=16
}
T 1600 5400 8 10 0 1 0 0 1
device=FZE1066
T 1300 5300 8 10 0 1 0 0 1
footprint=SOP20S
T 4100 5300 9 10 1 0 0 0 1
FZE1066
T 3000 5300 8 10 1 1 0 0 1
refdes=U?
T 2600 5600 8 10 0 1 0 0 1
numslots=0
T -5 0 8 10 0 1 0 0 1
author=Alessandro Mauro alez(at)maetech.it
T -5 0 8 10 0 1 0 0 1
dist-license=GNU GPLv3
