v 20130319 1
P 100 6000 400 6000 1 0 0
{
T 300 6050 5 8 1 1 0 6 1
pinnumber=30
T 300 5950 5 8 0 1 0 8 1
pinseq=1
T 450 6000 9 8 1 1 0 0 1
pinlabel=INM1
T 450 6000 5 8 0 1 0 2 1
pintype=pas
}
P 100 5600 400 5600 1 0 0
{
T 300 5650 5 8 1 1 0 6 1
pinnumber=31
T 300 5550 5 8 0 1 0 8 1
pinseq=2
T 450 5600 9 8 1 1 0 0 1
pinlabel=INP1
T 450 5600 5 8 0 1 0 2 1
pintype=pas
}
P 100 4800 400 4800 1 0 0
{
T 300 4850 5 8 1 1 0 6 1
pinnumber=10
T 300 4750 5 8 0 1 0 8 1
pinseq=3
T 450 4800 9 8 1 1 0 0 1
pinlabel=INP2
T 450 4800 5 8 0 1 0 2 1
pintype=pas
}
P 100 4400 400 4400 1 0 0
{
T 300 4450 5 8 1 1 0 6 1
pinnumber=11
T 300 4350 5 8 0 1 0 8 1
pinseq=4
T 450 4400 9 8 1 1 0 0 1
pinlabel=INM2
T 450 4400 5 8 0 1 0 2 1
pintype=pas
}
P 100 3600 400 3600 1 0 0
{
T 300 3650 5 8 1 1 0 6 1
pinnumber=27
T 300 3550 5 8 0 1 0 8 1
pinseq=5
T 450 3600 9 8 1 1 0 0 1
pinlabel=VICM
T 450 3600 5 8 0 1 0 2 1
pintype=in
}
P 100 2800 400 2800 1 0 0
{
T 300 2850 5 8 1 1 0 6 1
pinnumber=32
T 300 2750 5 8 0 1 0 8 1
pinseq=6
T 450 2800 9 8 1 1 0 0 1
pinlabel=ENBL
T 450 2800 5 8 0 1 0 2 1
pintype=in
}
P 100 2000 400 2000 1 0 0
{
T 300 2050 5 8 1 1 0 6 1
pinnumber=3
T 300 1950 5 8 0 1 0 8 1
pinseq=7
T 450 2000 9 8 1 1 0 0 1
pinlabel=SLE
T 450 2000 5 8 0 1 0 2 1
pintype=in
}
P 100 1600 400 1600 1 0 0
{
T 300 1650 5 8 1 1 0 6 1
pinnumber=4
T 300 1550 5 8 0 1 0 8 1
pinseq=8
T 450 1600 9 8 1 1 0 0 1
pinlabel=SCLK
T 450 1600 5 8 0 1 0 2 1
pintype=in
}
P 100 1200 400 1200 1 0 0
{
T 300 1250 5 8 1 1 0 6 1
pinnumber=5
T 300 1150 5 8 0 1 0 8 1
pinseq=9
T 450 1200 9 8 1 1 0 0 1
pinlabel=SDI
T 450 1200 5 8 0 1 0 2 1
pintype=in
}
P 100 800 400 800 1 0 0
{
T 300 850 5 8 1 1 0 6 1
pinnumber=6
T 300 750 5 8 0 1 0 8 1
pinseq=10
T 450 800 9 8 1 1 0 0 1
pinlabel=SDO
T 450 800 5 8 0 1 0 2 1
pintype=out
}
P 4700 6000 4400 6000 1 0 0
{
T 4500 6050 5 8 1 1 0 0 1
pinnumber=24
T 4500 5950 5 8 0 1 0 2 1
pinseq=11
T 4350 6000 9 8 1 1 0 6 1
pinlabel=OPP1
T 4350 6000 5 8 0 1 0 8 1
pintype=out
}
P 4700 5600 4400 5600 1 0 0
{
T 4500 5650 5 8 1 1 0 0 1
pinnumber=23
T 4500 5550 5 8 0 1 0 2 1
pinseq=12
T 4350 5600 9 8 1 1 0 6 1
pinlabel=OPM1
T 4350 5600 5 8 0 1 0 8 1
pintype=out
}
P 4700 4800 4400 4800 1 0 0
{
T 4500 4850 5 8 1 1 0 0 1
pinnumber=18
T 4500 4750 5 8 0 1 0 2 1
pinseq=13
T 4350 4800 9 8 1 1 0 6 1
pinlabel=OPM2
T 4350 4800 5 8 0 1 0 8 1
pintype=out
}
P 4700 4400 4400 4400 1 0 0
{
T 4500 4450 5 8 1 1 0 0 1
pinnumber=17
T 4500 4350 5 8 0 1 0 2 1
pinseq=14
T 4350 4400 9 8 1 1 0 6 1
pinlabel=OPP2
T 4350 4400 5 8 0 1 0 8 1
pintype=out
}
P 4700 3600 4400 3600 1 0 0
{
T 4500 3650 5 8 1 1 0 0 1
pinnumber=20
T 4500 3550 5 8 0 1 0 2 1
pinseq=15
T 4350 3600 9 8 1 1 0 6 1
pinlabel=VOCM
T 4350 3600 5 8 0 1 0 8 1
pintype=in
}
P 4700 2800 4400 2800 1 0 0
{
T 4500 2850 5 8 1 1 0 0 1
pinnumber=21
T 4500 2750 5 8 0 1 0 2 1
pinseq=16
T 4350 2800 9 8 1 1 0 6 1
pinlabel=GAIN
T 4350 2800 5 8 0 1 0 8 1
pintype=in
}
P 4700 2000 4400 2000 1 0 0
{
T 4500 2050 5 8 1 1 0 0 1
pinnumber=14
T 4500 1950 5 8 0 1 0 2 1
pinseq=17
T 4350 2000 9 8 1 1 0 6 1
pinlabel=OFDS
T 4350 2000 5 8 0 1 0 8 1
pintype=out
}
P 4700 1600 4400 1600 1 0 0
{
T 4500 1650 5 8 1 1 0 0 1
pinnumber=26
T 4500 1550 5 8 0 1 0 2 1
pinseq=18
T 4350 1600 9 8 1 1 0 6 1
pinlabel=OFS1
T 4350 1600 5 8 0 1 0 8 1
pintype=pas
}
P 4700 1200 4400 1200 1 0 0
{
T 4500 1250 5 8 1 1 0 0 1
pinnumber=15
T 4500 1150 5 8 0 1 0 2 1
pinseq=19
T 4350 1200 9 8 1 1 0 6 1
pinlabel=OFS2
T 4350 1200 5 8 0 1 0 8 1
pintype=out
}
P 1200 6700 1200 6400 1 0 0
{
T 1250 6500 5 8 1 1 0 0 1
pinnumber=8
T 1150 6500 5 8 0 1 0 6 1
pinseq=20
T 1200 6350 9 8 1 1 0 5 1
pinlabel=VPS
T 1200 6200 5 8 0 1 0 5 1
pintype=pwr
}
P 1600 6700 1600 6400 1 0 0
{
T 1650 6500 5 8 1 1 0 0 1
pinnumber=12
T 1550 6500 5 8 0 1 0 6 1
pinseq=21
T 1600 6350 9 8 1 1 0 5 1
pinlabel=VPS
T 1600 6200 5 8 0 1 0 5 1
pintype=pwr
}
P 2000 6700 2000 6400 1 0 0
{
T 2050 6500 5 8 1 1 0 0 1
pinnumber=16
T 1950 6500 5 8 0 1 0 6 1
pinseq=22
T 2000 6350 9 8 1 1 0 5 1
pinlabel=VPS
T 2000 6200 5 8 0 1 0 5 1
pintype=pwr
}
P 2400 6700 2400 6400 1 0 0
{
T 2450 6500 5 8 1 1 0 0 1
pinnumber=25
T 2350 6500 5 8 0 1 0 6 1
pinseq=23
T 2400 6350 9 8 1 1 0 5 1
pinlabel=VPS
T 2400 6200 5 8 0 1 0 5 1
pintype=pwr
}
P 2800 6700 2800 6400 1 0 0
{
T 2850 6500 5 8 1 1 0 0 1
pinnumber=29
T 2750 6500 5 8 0 1 0 6 1
pinseq=24
T 2800 6350 9 8 1 1 0 5 1
pinlabel=VPS
T 2800 6200 5 8 0 1 0 5 1
pintype=pwr
}
P 3600 6700 3600 6400 1 0 0
{
T 3650 6500 5 8 1 1 0 0 1
pinnumber=1
T 3550 6500 5 8 0 1 0 6 1
pinseq=25
T 3600 6350 9 8 1 1 0 5 1
pinlabel=VPSD
T 3600 6200 5 8 0 1 0 5 1
pintype=pwr
}
P 600 100 600 400 1 0 0
{
T 650 300 5 8 1 1 0 2 1
pinnumber=7
T 550 300 5 8 0 1 0 8 1
pinseq=26
T 600 450 9 8 1 1 0 3 1
pinlabel=COM
T 600 600 5 8 0 1 0 3 1
pintype=in
}
P 1000 100 1000 400 1 0 0
{
T 1050 300 5 8 1 1 0 2 1
pinnumber=9
T 950 300 5 8 0 1 0 8 1
pinseq=27
T 1000 450 9 8 1 1 0 3 1
pinlabel=COM
T 1000 600 5 8 0 1 0 3 1
pintype=in
}
P 1400 100 1400 400 1 0 0
{
T 1450 300 5 8 1 1 0 2 1
pinnumber=13
T 1350 300 5 8 0 1 0 8 1
pinseq=28
T 1400 450 9 8 1 1 0 3 1
pinlabel=COM
T 1400 600 5 8 0 1 0 3 1
pintype=in
}
P 1800 100 1800 400 1 0 0
{
T 1850 300 5 8 1 1 0 2 1
pinnumber=19
T 1750 300 5 8 0 1 0 8 1
pinseq=29
T 1800 450 9 8 1 1 0 3 1
pinlabel=COM
T 1800 600 5 8 0 1 0 3 1
pintype=in
}
P 2200 100 2200 400 1 0 0
{
T 2250 300 5 8 1 1 0 2 1
pinnumber=22
T 2150 300 5 8 0 1 0 8 1
pinseq=30
T 2200 450 9 8 1 1 0 3 1
pinlabel=COM
T 2200 600 5 8 0 1 0 3 1
pintype=in
}
P 2600 100 2600 400 1 0 0
{
T 2650 300 5 8 1 1 0 2 1
pinnumber=28
T 2550 300 5 8 0 1 0 8 1
pinseq=31
T 2600 450 9 8 1 1 0 3 1
pinlabel=COM
T 2600 600 5 8 0 1 0 3 1
pintype=in
}
P 3400 100 3400 400 1 0 0
{
T 3450 300 5 8 1 1 0 2 1
pinnumber=2
T 3350 300 5 8 0 1 0 8 1
pinseq=32
T 3400 450 9 8 1 1 0 3 1
pinlabel=COMD
T 3400 600 5 8 0 1 0 3 1
pintype=in
}
P 4200 100 4200 400 1 0 0
{
T 4250 300 5 8 1 1 0 2 1
pinnumber=33
T 4150 300 5 8 0 1 0 8 1
pinseq=33
T 4200 450 9 8 1 1 0 3 1
pinlabel=EP
T 4200 600 5 8 0 1 0 3 1
pintype=pwr
}
B 400 400 4000 6000 3 0 0 0 -1 -1 0 -1 -1 -1 -1 -1
T 4400 6500 8 10 1 1 0 6 1
refdes=U?
T 2200 3300 9 10 1 0 0 0 1
ADRF6516
T 2200 3600 5 10 0 0 0 0 1
device=ADRF6516
T 2200 3800 5 10 0 0 0 0 1
footprint=QFN32_5_EP
T 2200 4000 5 10 0 0 0 0 1
author=Evgeny Ivanov
T 2200 4200 5 10 0 0 0 0 1
documentation=www.analog.com/en/products/rf-microwave/variable-gain-amplifiers/all-vgas/adrf6516.html
T 2200 4400 5 10 0 0 0 0 1
description=31 MHz, Dual Programmable Filters and Variable Gain Amplifiers
T 2200 4600 5 10 0 0 0 0 1
numslots=0
T 2200 4800 5 10 0 0 0 0 1
dist-license=GPL
T 2200 5000 5 10 0 0 0 0 1
use-license=unlimited
T 2200 5200 5 10 0 0 0 0 1
comment=ADRF6516ACPZ
