v 20150930 2
B 500 0 3200 2000 3 10 1 0 -1 -1 0 -1 -1 -1 -1 -1
P 0 1900 500 1900 1 0 0
{
T 100 1950 5 12 0 0 0 0 1
pintype=unknown
T 558 1792 9 12 1 1 0 0 1
pinlabel=GND
T 408 1942 5 12 1 1 0 6 1
pinnumber=1
T 100 1950 5 12 0 0 0 0 1
pinseq=0
}
P 0 1600 500 1600 1 0 0
{
T 100 1650 5 12 0 0 0 0 1
pintype=unknown
T 558 1592 9 12 1 1 0 0 1
pinlabel=ALC T. const.
T 408 1642 5 12 1 1 0 6 1
pinnumber=2
T 100 1650 5 12 0 0 0 0 1
pinseq=0
}
P 0 1300 500 1300 1 0 0
{
T 100 1350 5 12 0 0 0 0 1
pintype=unknown
T 558 1292 9 12 1 1 0 0 1
pinlabel=ALC in. Ch 1
T 408 1342 5 12 1 1 0 6 1
pinnumber=3
T 100 1350 5 12 0 0 0 0 1
pinseq=0
}
P 0 1000 500 1000 1 0 0
{
T 100 1050 5 12 0 0 0 0 1
pintype=unknown
T 558 992 9 12 1 1 0 0 1
pinlabel=Out. 1
T 408 1042 5 12 1 1 0 6 1
pinnumber=4
T 100 1050 5 12 0 0 0 0 1
pinseq=0
}
P 0 700 500 700 1 0 0
{
T 100 750 5 12 0 0 0 0 1
pintype=unknown
T 558 692 9 12 1 1 0 0 1
pinlabel=Ph.comp. ch. 1
T 408 742 5 12 1 1 0 6 1
pinnumber=5
T 100 750 5 12 0 0 0 0 1
pinseq=0
}
P 0 400 500 400 1 0 0
{
T 100 450 5 12 0 0 0 0 1
pintype=unknown
T 558 392 9 12 1 1 0 0 1
pinlabel=NFofCH1
T 408 442 5 12 1 1 0 6 1
pinnumber=6
T 100 450 5 12 0 0 0 0 1
pinseq=0
}
P 0 100 500 100 1 0 0
{
T 100 150 5 12 0 0 0 0 1
pintype=unknown
T 558 92 9 12 1 1 0 0 1
pinlabel=In Ch. 1
T 408 142 5 12 1 1 0 6 1
pinnumber=7
T 100 150 5 12 0 0 0 0 1
pinseq=0
}
P 4200 1900 3700 1900 1 0 0
{
T 4100 1950 5 12 0 0 0 6 1
pintype=unknown
T 3642 1792 9 12 1 1 0 6 1
pinlabel=VCC
T 3792 1942 5 12 1 1 0 0 1
pinnumber=14
T 4100 1950 5 12 0 0 0 6 1
pinseq=0
}
P 4200 1600 3700 1600 1 0 0
{
T 4100 1650 5 12 0 0 0 6 1
pintype=unknown
T 3642 1592 9 12 1 1 0 6 1
pinlabel=Rippli Filter
T 3792 1642 5 12 1 1 0 0 1
pinnumber=13
T 4100 1650 5 12 0 0 0 6 1
pinseq=0
}
P 4200 1300 3700 1300 1 0 0
{
T 4100 1350 5 12 0 0 0 6 1
pintype=unknown
T 3642 1292 9 12 1 1 0 6 1
pinlabel=ALC in. Ch. 2
T 3792 1342 5 12 1 1 0 0 1
pinnumber=12
T 4100 1350 5 12 0 0 0 6 1
pinseq=0
}
P 4200 1000 3700 1000 1 0 0
{
T 4100 1050 5 12 0 0 0 6 1
pintype=unknown
T 3642 992 9 12 1 1 0 6 1
pinlabel=Out. 2
T 3792 1042 5 12 1 1 0 0 1
pinnumber=11
T 4100 1050 5 12 0 0 0 6 1
pinseq=0
}
P 4200 700 3700 700 1 0 0
{
T 4100 750 5 12 0 0 0 6 1
pintype=unknown
T 3642 692 9 12 1 1 0 6 1
pinlabel=Ph. comp. Ch. 2
T 3792 742 5 12 1 1 0 0 1
pinnumber=10
T 4100 750 5 12 0 0 0 6 1
pinseq=0
}
P 4200 400 3700 400 1 0 0
{
T 4100 450 5 12 0 0 0 6 1
pintype=unknown
T 3642 392 9 12 1 1 0 6 1
pinlabel=NF Ch. 2
T 3792 442 5 12 1 1 0 0 1
pinnumber=9
T 4100 450 5 12 0 0 0 6 1
pinseq=0
}
P 4200 100 3700 100 1 0 0
{
T 4100 150 5 12 0 0 0 6 1
pintype=unknown
T 3642 92 9 12 1 1 0 6 1
pinlabel=In Ch. 2
T 3792 142 5 12 1 1 0 0 1
pinnumber=8
T 4100 150 5 12 0 0 0 6 1
pinseq=0
}
T 1700 2100 8 12 1 1 0 0 1
device=AN7312
T 2000 2300 8 12 1 1 0 0 1
refdes=U?
T 900 2500 8 12 0 1 0 0 1
numslots=0
T 1100 2600 8 12 0 1 0 0 1
dist-license=MIT
T 600 2900 8 12 0 1 0 0 1
use-license=MIT
T 1200 2400 8 12 0 1 0 0 1
footprint=DIP14.fp
T 100 2200 8 12 0 1 0 0 1
documentation=../datasheets/ICs/AN7312.pdf
