v 20150930 2
B 26500 31200 2000 4800 3 10 1 0 -1 -1 0 -1 -1 -1 -1 -1
P 26000 35700 26500 35700 1 0 0
{
T 26100 35750 5 12 0 0 0 0 1
pintype=unknown
T 26558 35692 9 12 1 1 0 0 1
pinlabel=RFI
T 26408 35742 5 12 1 1 0 6 1
pinnumber=1
T 26100 35750 5 12 0 0 0 0 1
pinseq=0
}
P 26000 35400 26500 35400 1 0 0
{
T 26100 35450 5 12 0 0 0 0 1
pintype=unknown
T 26558 35392 9 12 1 1 0 0 1
pinlabel=RFO
T 26408 35442 5 12 1 1 0 6 1
pinnumber=2
T 26100 35450 5 12 0 0 0 0 1
pinseq=0
}
P 26000 35100 26500 35100 1 0 0
{
T 26100 35150 5 12 0 0 0 0 1
pintype=unknown
T 26558 35092 9 12 1 1 0 0 1
pinlabel=RF-
T 26408 35142 5 12 1 1 0 6 1
pinnumber=3
T 26100 35150 5 12 0 0 0 0 1
pinseq=0
}
P 26000 34800 26500 34800 1 0 0
{
T 26100 34850 5 12 0 0 0 0 1
pintype=unknown
T 26558 34792 9 12 1 1 0 0 1
pinlabel=P/N
T 26408 34842 5 12 1 1 0 6 1
pinnumber=4
T 26100 34850 5 12 0 0 0 0 1
pinseq=0
}
P 26000 34500 26500 34500 1 0 0
{
T 26100 34550 5 12 0 0 0 0 1
pintype=unknown
T 26558 34492 9 12 1 1 0 0 1
pinlabel=LD
T 26408 34542 5 12 1 1 0 6 1
pinnumber=5
T 26100 34550 5 12 0 0 0 0 1
pinseq=0
}
P 26000 34200 26500 34200 1 0 0
{
T 26100 34250 5 12 0 0 0 0 1
pintype=unknown
T 26558 34192 9 12 1 1 0 0 1
pinlabel=PD
T 26408 34242 5 12 1 1 0 6 1
pinnumber=6
T 26100 34250 5 12 0 0 0 0 1
pinseq=0
}
P 26000 33900 26500 33900 1 0 0
{
T 26100 33950 5 12 0 0 0 0 1
pintype=unknown
T 26558 33892 9 12 1 1 0 0 1
pinlabel=PD1
T 26408 33942 5 12 1 1 0 6 1
pinnumber=7
T 26100 33950 5 12 0 0 0 0 1
pinseq=0
}
P 26000 33600 26500 33600 1 0 0
{
T 26100 33650 5 12 0 0 0 0 1
pintype=unknown
T 26558 33592 9 12 1 1 0 0 1
pinlabel=PD2
T 26408 33642 5 12 1 1 0 6 1
pinnumber=8
T 26100 33650 5 12 0 0 0 0 1
pinseq=0
}
P 26000 33300 26500 33300 1 0 0
{
T 26100 33350 5 12 0 0 0 0 1
pintype=unknown
T 26558 33292 9 12 1 1 0 0 1
pinlabel=VC
T 26408 33342 5 12 1 1 0 6 1
pinnumber=9
T 26100 33350 5 12 0 0 0 0 1
pinseq=0
}
P 26000 33000 26500 33000 1 0 0
{
T 26100 33050 5 12 0 0 0 0 1
pintype=unknown
T 26558 32992 9 12 1 1 0 0 1
pinlabel=F
T 26408 33042 5 12 1 1 0 6 1
pinnumber=10
T 26100 33050 5 12 0 0 0 0 1
pinseq=0
}
P 26000 32700 26500 32700 1 0 0
{
T 26100 32750 5 12 0 0 0 0 1
pintype=unknown
T 26558 32692 9 12 1 1 0 0 1
pinlabel=E
T 26408 32742 5 12 1 1 0 6 1
pinnumber=11
T 26100 32750 5 12 0 0 0 0 1
pinseq=0
}
P 26000 32400 26500 32400 1 0 0
{
T 26100 32450 5 12 0 0 0 0 1
pintype=unknown
T 26558 32392 9 12 1 1 0 0 1
pinlabel=ED
T 26408 32442 5 12 1 1 0 6 1
pinnumber=12
T 26100 32450 5 12 0 0 0 0 1
pinseq=0
}
P 26000 32100 26500 32100 1 0 0
{
T 26100 32150 5 12 0 0 0 0 1
pintype=unknown
T 26558 32092 9 12 1 1 0 0 1
pinlabel=EI
T 26408 32142 5 12 1 1 0 6 1
pinnumber=13
T 26100 32150 5 12 0 0 0 0 1
pinseq=0
}
P 26000 31800 26500 31800 1 0 0
{
T 26100 31850 5 12 0 0 0 0 1
pintype=unknown
T 26558 31792 9 12 1 1 0 0 1
pinlabel=VR
T 26408 31842 5 12 1 1 0 6 1
pinnumber=14
T 26100 31850 5 12 0 0 0 0 1
pinseq=0
}
P 26000 31500 26500 31500 1 0 0
{
T 26100 31550 5 12 0 0 0 0 1
pintype=unknown
T 26558 31492 9 12 1 1 0 0 1
pinlabel=CC2
T 26408 31542 5 12 1 1 0 6 1
pinnumber=15
T 26100 31550 5 12 0 0 0 0 1
pinseq=0
}
P 29000 31500 28500 31500 1 0 0
{
T 28900 31450 5 12 0 0 180 0 1
pintype=unknown
T 28900 31450 5 12 0 0 180 0 1
pinseq=0
T 28442 31492 9 12 1 1 0 6 1
pinlabel=CC1
T 28592 31542 5 12 1 1 0 0 1
pinnumber=16
}
P 29000 31800 28500 31800 1 0 0
{
T 28900 31750 5 12 0 0 180 0 1
pintype=unknown
T 28900 31750 5 12 0 0 180 0 1
pinseq=0
T 28442 31792 9 12 1 1 0 6 1
pinlabel=VEE
T 28592 31842 5 12 1 1 0 0 1
pinnumber=17
}
P 29000 32100 28500 32100 1 0 0
{
T 28900 32050 5 12 0 0 180 0 1
pintype=unknown
T 28900 32050 5 12 0 0 180 0 1
pinseq=0
T 28442 32092 9 12 1 1 0 6 1
pinlabel=FE BIAS
T 28592 32142 5 12 1 1 0 0 1
pinnumber=18
}
P 29000 32400 28500 32400 1 0 0
{
T 28900 32350 5 12 0 0 180 0 1
pintype=unknown
T 28900 32350 5 12 0 0 180 0 1
pinseq=0
T 28442 32392 9 12 1 1 0 6 1
pinlabel=FE
T 28592 32442 5 12 1 1 0 0 1
pinnumber=19
}
P 29000 32700 28500 32700 1 0 0
{
T 28900 32650 5 12 0 0 180 0 1
pintype=unknown
T 28900 32650 5 12 0 0 180 0 1
pinseq=0
T 28442 32692 9 12 1 1 0 6 1
pinlabel=TE
T 28592 32742 5 12 1 1 0 0 1
pinnumber=20
}
P 29000 33000 28500 33000 1 0 0
{
T 28900 32950 5 12 0 0 180 0 1
pintype=unknown
T 28900 32950 5 12 0 0 180 0 1
pinseq=0
T 28442 32992 9 12 1 1 0 6 1
pinlabel=DEFECT
T 28592 33042 5 12 1 1 0 0 1
pinnumber=21
}
P 29000 33300 28500 33300 1 0 0
{
T 28900 33250 5 12 0 0 180 0 1
pintype=unknown
T 28900 33250 5 12 0 0 180 0 1
pinseq=0
T 28442 33292 9 12 1 1 0 6 1
pinlabel=MIRROR
T 28592 33342 5 12 1 1 0 0 1
pinnumber=22
}
P 29000 33600 28500 33600 1 0 0
{
T 28900 33550 5 12 0 0 180 0 1
pintype=unknown
T 28900 33550 5 12 0 0 180 0 1
pinseq=0
T 28442 33592 9 12 1 1 0 6 1
pinlabel=CP
T 28592 33642 5 12 1 1 0 0 1
pinnumber=23
}
P 29000 33900 28500 33900 1 0 0
{
T 28900 33850 5 12 0 0 180 0 1
pintype=unknown
T 28900 33850 5 12 0 0 180 0 1
pinseq=0
T 28442 33892 9 12 1 1 0 6 1
pinlabel=CB
T 28592 33942 5 12 1 1 0 0 1
pinnumber=24
}
P 29000 34200 28500 34200 1 0 0
{
T 28900 34150 5 12 0 0 180 0 1
pintype=unknown
T 28900 34150 5 12 0 0 180 0 1
pinseq=0
T 28442 34192 9 12 1 1 0 6 1
pinlabel=DGND
T 28592 34242 5 12 1 1 0 0 1
pinnumber=25
}
P 29000 34500 28500 34500 1 0 0
{
T 28900 34450 5 12 0 0 180 0 1
pintype=unknown
T 28900 34450 5 12 0 0 180 0 1
pinseq=0
T 28442 34492 9 12 1 1 0 6 1
pinlabel=ASY
T 28592 34542 5 12 1 1 0 0 1
pinnumber=26
}
P 29000 34800 28500 34800 1 0 0
{
T 28900 34750 5 12 0 0 180 0 1
pintype=unknown
T 28900 34750 5 12 0 0 180 0 1
pinseq=0
T 28442 34792 9 12 1 1 0 6 1
pinlabel=EFM
T 28592 34842 5 12 1 1 0 0 1
pinnumber=27
}
P 29000 35100 28500 35100 1 0 0
{
T 28900 35050 5 12 0 0 180 0 1
pintype=unknown
T 28900 35050 5 12 0 0 180 0 1
pinseq=0
T 28442 35092 9 12 1 1 0 6 1
pinlabel=FOK
T 28592 35142 5 12 1 1 0 0 1
pinnumber=28
}
P 29000 35400 28500 35400 1 0 0
{
T 28900 35350 5 12 0 0 180 0 1
pintype=unknown
T 28900 35350 5 12 0 0 180 0 1
pinseq=0
T 28442 35392 9 12 1 1 0 6 1
pinlabel=LD ON
T 28592 35442 5 12 1 1 0 0 1
pinnumber=29
}
P 29000 35700 28500 35700 1 0 0
{
T 28900 35650 5 12 0 0 180 0 1
pintype=unknown
T 28900 35650 5 12 0 0 180 0 1
pinseq=0
T 28442 35692 9 12 1 1 0 6 1
pinlabel=VCC
T 28592 35742 5 12 1 1 0 0 1
pinnumber=30
}
T 27100 36100 8 12 1 1 0 0 1
device=KA9201
T 27400 36400 8 12 1 1 0 0 1
refdes=U?
T 25900 36200 8 12 0 1 0 0 1
dist-license=MIT
T 29700 34700 8 12 0 1 0 0 1
use-license=MIT
T 30200 32300 8 12 0 1 0 0 1
documentation=../datasheets/ICs/KA9201.pdf
T 26900 30900 8 12 0 1 0 0 1
numslots=0
