%!PS-Adobe-3.0
%%Title: SMA-edge.pcb
%%CreationDate: Fri Jul 29 17:31:43 2016
%%Creator: PCB release: pcb 20140316
%%Version: (PCB pcb 20140316) 0.0 0
%%PageOrder: Ascend
%%Pages: (atend)
%%DocumentMedia: Letter 612.00000 792.00000 0 "" ""
%%DocumentPaperSizes: Letter
%%EndComments

%%Page: TableOfContents 1
/Times-Roman findfont 24 scalefont setfont
/rightshow { /s exch def s stringwidth pop -1 mul 0 rmoveto s show } def
/y 72 9 mul def /toc { 100 y moveto show /y y 24 sub def } bind def
/tocp { /y y 12 sub def 90 y moveto rightshow } bind def
30 30 moveto (SMA-edge.pcb) show
(1.) tocp
(Table of Contents \(This Page\)) toc
(Created on Fri Jul 29 17:31:43 2016
) toc
( ) tocp
(2.) tocp
(component) toc
(3.) tocp
(solder) toc
(4.) tocp
(componentmask) toc
(5.) tocp
(soldermask) toc
(6.) tocp
(topsilk) toc
(7.) tocp
(bottomsilk) toc
(8.) tocp
(toppaste) toc
(9.) tocp
(bottompaste) toc
(10.) tocp
(topassembly) toc
(11.) tocp
(bottomassembly) toc
(12.) tocp
(fab) toc
showpage
%%Page: top 2
/Helvetica findfont 10 scalefont setfont
30 30 moveto (SMA-edge.pcb) show
30 41 moveto (SMA-edge, top) show
(, scale = 1:1.000) show
newpath
72 72 scale 4.25000 5.50000 translate
1 1 scale % calibration
1 dup neg scale
-0.29035 -0.38386 translate
/gray { setgray } bind def
/rgb { setrgbcolor } bind def
0 setgray 0 setlinewidth 0 0 moveto 0 0.76772 lineto 0.58071 0.76772 lineto 0.58071 0 lineto closepath stroke
gsave 0.00000 setlinewidth 0.00000 0.00000 translate -1 -1 scale
2.00000 0.00000 moveto 0.00000 0.00000 0.20000 0 90 arc 0.00000 2.00000 lineto
0.40000 0.00000 moveto 0 -0.20000 rlineto
stroke grestore
gsave 0.00000 setlinewidth 0.58071 0.00000 translate 1 -1 scale
2.00000 0.00000 moveto 0.00000 0.00000 0.20000 0 90 arc 0.00000 2.00000 lineto
stroke grestore
gsave 0.00000 setlinewidth 0.58071 0.76772 translate 1 1 scale
2.00000 0.00000 moveto 0.00000 0.00000 0.20000 0 90 arc 0.00000 2.00000 lineto
stroke grestore
gsave 0.00000 setlinewidth 0.00000 0.76772 translate -1 1 scale
2.00000 0.00000 moveto 0.00000 0.00000 0.20000 0 90 arc 0.00000 2.00000 lineto
stroke grestore
/ts 1 def
/ty ts neg def /tx 0 def /Helvetica findfont ts scalefont setfont
/t { moveto lineto stroke } bind def
/dr { /y2 exch def /x2 exch def /y1 exch def /x1 exch def
      x1 y1 moveto x1 y2 lineto x2 y2 lineto x2 y1 lineto closepath stroke } bind def
/r { /y2 exch def /x2 exch def /y1 exch def /x1 exch def
     x1 y1 moveto x1 y2 lineto x2 y2 lineto x2 y1 lineto closepath fill } bind def
/c { 0 360 arc fill } bind def
/a { gsave setlinewidth translate scale 0 0 1 5 3 roll arc stroke grestore} bind def
0.04000 setlinewidth
2 setlinecap 2 setlinejoin
0 gray
0.01969 0.01969 0.15748 0.01969 t
0.01969 0.35433 0.15748 0.35433 t
0.01969 0.17717 0.15748 0.17717 t
0.41339 0.68898 0.55118 0.68898 t
0.43307 0.43307 0.55118 0.43307 t
0.53118 0.37370 0.57118 0.41370 r
0.53118 0.62961 0.57118 0.66961 r
0.43307 0.61024 0.55118 0.61024 t
0.41339 0.53150 0.55118 0.53150 t
0.41339 0.35433 0.55118 0.35433 t
showpage
%%Page: bottom 3
/Helvetica findfont 10 scalefont setfont
30 30 moveto (SMA-edge.pcb) show
30 41 moveto (SMA-edge, bottom) show
( \(mirrored\)) show
(, scale = 1:1.000) show
newpath
72 72 scale 4.25000 5.50000 translate
1 1 scale % calibration
1 -1 scale
1 dup neg scale
-0.29035 -0.38386 translate
/gray { setgray } bind def
/rgb { setrgbcolor } bind def
0 setgray 0 setlinewidth 0 0 moveto 0 0.76772 lineto 0.58071 0.76772 lineto 0.58071 0 lineto closepath stroke
gsave 0.00000 setlinewidth 0.00000 0.00000 translate -1 -1 scale
2.00000 0.00000 moveto 0.00000 0.00000 0.20000 0 90 arc 0.00000 2.00000 lineto
0.40000 0.00000 moveto 0 -0.20000 rlineto
stroke grestore
gsave 0.00000 setlinewidth 0.58071 0.00000 translate 1 -1 scale
2.00000 0.00000 moveto 0.00000 0.00000 0.20000 0 90 arc 0.00000 2.00000 lineto
stroke grestore
gsave 0.00000 setlinewidth 0.58071 0.76772 translate 1 1 scale
2.00000 0.00000 moveto 0.00000 0.00000 0.20000 0 90 arc 0.00000 2.00000 lineto
stroke grestore
gsave 0.00000 setlinewidth 0.00000 0.76772 translate -1 1 scale
2.00000 0.00000 moveto 0.00000 0.00000 0.20000 0 90 arc 0.00000 2.00000 lineto
stroke grestore
/ts 1 def
/ty ts neg def /tx 0 def /Helvetica findfont ts scalefont setfont
/t { moveto lineto stroke } bind def
/dr { /y2 exch def /x2 exch def /y1 exch def /x1 exch def
      x1 y1 moveto x1 y2 lineto x2 y2 lineto x2 y1 lineto closepath stroke } bind def
/r { /y2 exch def /x2 exch def /y1 exch def /x1 exch def
     x1 y1 moveto x1 y2 lineto x2 y2 lineto x2 y1 lineto closepath fill } bind def
/c { 0 360 arc fill } bind def
/a { gsave setlinewidth translate scale 0 0 1 5 3 roll arc stroke grestore} bind def
0.04000 setlinewidth
2 setlinecap 2 setlinejoin
0 gray
0.08858 0.76772 moveto
0.08858 0.38428 lineto
0.17905 0.38424 lineto
0.18058 0.38387 lineto
0.18203 0.38327 lineto
0.18338 0.38245 lineto
0.18457 0.38142 lineto
0.18560 0.38023 lineto
0.18642 0.37888 lineto
0.18702 0.37743 lineto
0.18739 0.37590 lineto
0.18748 0.37433 lineto
0.18739 0.33276 lineto
0.18702 0.33123 lineto
0.18642 0.32978 lineto
0.18560 0.32843 lineto
0.18457 0.32724 lineto
0.18338 0.32622 lineto
0.18203 0.32539 lineto
0.18058 0.32479 lineto
0.17905 0.32442 lineto
0.17748 0.32433 lineto
0.08858 0.32438 lineto
0.08858 0.04964 lineto
0.17905 0.04959 lineto
0.18058 0.04922 lineto
0.18203 0.04862 lineto
0.18338 0.04780 lineto
0.18457 0.04678 lineto
0.18560 0.04558 lineto
0.18642 0.04424 lineto
0.18702 0.04278 lineto
0.18739 0.04125 lineto
0.18748 0.03969 lineto
0.18744 0.01969 lineto
0.57087 0.01969 lineto
0.57087 0.76772 lineto
fill
0.58071 0.76772 moveto
0.00000 0.76772 lineto
0.00000 0.38433 lineto
0.17905 0.38424 lineto
0.18058 0.38387 lineto
0.18203 0.38327 lineto
0.18338 0.38245 lineto
0.18457 0.38142 lineto
0.18560 0.38023 lineto
0.18642 0.37888 lineto
0.18702 0.37743 lineto
0.18739 0.37590 lineto
0.18748 0.37433 lineto
0.18739 0.33276 lineto
0.18702 0.33123 lineto
0.18642 0.32978 lineto
0.18560 0.32843 lineto
0.18457 0.32724 lineto
0.18338 0.32622 lineto
0.18203 0.32539 lineto
0.18058 0.32479 lineto
0.17905 0.32442 lineto
0.17748 0.32433 lineto
0.00000 0.32442 lineto
0.00000 0.04968 lineto
0.17905 0.04959 lineto
0.18058 0.04922 lineto
0.18203 0.04862 lineto
0.18338 0.04780 lineto
0.18457 0.04678 lineto
0.18560 0.04558 lineto
0.18642 0.04424 lineto
0.18702 0.04278 lineto
0.18739 0.04125 lineto
0.18748 0.03969 lineto
0.18739 0.00000 lineto
0.58071 0.00000 lineto
fill
0.01969 0.35433 0.15748 0.35433 t
0.01969 0.01969 0.15748 0.01969 t
0.41339 0.68898 0.55118 0.68898 t
0.43307 0.43307 0.55118 0.43307 t
0.53118 0.37370 0.57118 0.41370 r
0.53118 0.62961 0.57118 0.66961 r
0.43307 0.61024 0.55118 0.61024 t
0.41339 0.35433 0.55118 0.35433 t
showpage
%%Page: topmask 4
/Helvetica findfont 10 scalefont setfont
30 30 moveto (SMA-edge.pcb) show
30 41 moveto (SMA-edge, topmask) show
(, scale = 1:1.000) show
newpath
72 72 scale 4.25000 5.50000 translate
1 1 scale % calibration
1 dup neg scale
-0.29035 -0.38386 translate
/gray { setgray } bind def
/rgb { setrgbcolor } bind def
0 setgray 0 setlinewidth 0 0 moveto 0 0.76772 lineto 0.58071 0.76772 lineto 0.58071 0 lineto closepath stroke
gsave 0.00000 setlinewidth 0.00000 0.00000 translate -1 -1 scale
2.00000 0.00000 moveto 0.00000 0.00000 0.20000 0 90 arc 0.00000 2.00000 lineto
0.40000 0.00000 moveto 0 -0.20000 rlineto
stroke grestore
gsave 0.00000 setlinewidth 0.58071 0.00000 translate 1 -1 scale
2.00000 0.00000 moveto 0.00000 0.00000 0.20000 0 90 arc 0.00000 2.00000 lineto
stroke grestore
gsave 0.00000 setlinewidth 0.58071 0.76772 translate 1 1 scale
2.00000 0.00000 moveto 0.00000 0.00000 0.20000 0 90 arc 0.00000 2.00000 lineto
stroke grestore
gsave 0.00000 setlinewidth 0.00000 0.76772 translate -1 1 scale
2.00000 0.00000 moveto 0.00000 0.00000 0.20000 0 90 arc 0.00000 2.00000 lineto
stroke grestore
/ts 1 def
/ty ts neg def /tx 0 def /Helvetica findfont ts scalefont setfont
/t { moveto lineto stroke } bind def
/dr { /y2 exch def /x2 exch def /y1 exch def /x1 exch def
      x1 y1 moveto x1 y2 lineto x2 y2 lineto x2 y1 lineto closepath stroke } bind def
/r { /y2 exch def /x2 exch def /y1 exch def /x1 exch def
     x1 y1 moveto x1 y2 lineto x2 y2 lineto x2 y1 lineto closepath fill } bind def
/c { 0 360 arc fill } bind def
/a { gsave setlinewidth translate scale 0 0 1 5 3 roll arc stroke grestore} bind def
0.04000 setlinewidth
2 setlinecap 2 setlinejoin
1 gray
0.00000 0.00000 0.58071 0.76772 r
0.06000 setlinewidth
0 gray
0.01969 0.01969 0.15748 0.01969 t
0 gray
0.01969 0.35433 0.15748 0.35433 t
0 gray
0.01969 0.17717 0.15748 0.17717 t
0 gray
0.41339 0.68898 0.55118 0.68898 t
0 gray
0.43307 0.43307 0.55118 0.43307 t
0 gray
0.52118 0.36370 0.58118 0.42370 r
0 gray
0.52118 0.61961 0.58118 0.67961 r
0 gray
0.43307 0.61024 0.55118 0.61024 t
0 gray
0.41339 0.53150 0.55118 0.53150 t
0 gray
0.41339 0.35433 0.55118 0.35433 t
showpage
%%Page: bottommask 5
/Helvetica findfont 10 scalefont setfont
30 30 moveto (SMA-edge.pcb) show
30 41 moveto (SMA-edge, bottommask) show
( \(mirrored\)) show
(, scale = 1:1.000) show
newpath
72 72 scale 4.25000 5.50000 translate
1 1 scale % calibration
1 -1 scale
1 dup neg scale
-0.29035 -0.38386 translate
/gray { setgray } bind def
/rgb { setrgbcolor } bind def
0 setgray 0 setlinewidth 0 0 moveto 0 0.76772 lineto 0.58071 0.76772 lineto 0.58071 0 lineto closepath stroke
gsave 0.00000 setlinewidth 0.00000 0.00000 translate -1 -1 scale
2.00000 0.00000 moveto 0.00000 0.00000 0.20000 0 90 arc 0.00000 2.00000 lineto
0.40000 0.00000 moveto 0 -0.20000 rlineto
stroke grestore
gsave 0.00000 setlinewidth 0.58071 0.00000 translate 1 -1 scale
2.00000 0.00000 moveto 0.00000 0.00000 0.20000 0 90 arc 0.00000 2.00000 lineto
stroke grestore
gsave 0.00000 setlinewidth 0.58071 0.76772 translate 1 1 scale
2.00000 0.00000 moveto 0.00000 0.00000 0.20000 0 90 arc 0.00000 2.00000 lineto
stroke grestore
gsave 0.00000 setlinewidth 0.00000 0.76772 translate -1 1 scale
2.00000 0.00000 moveto 0.00000 0.00000 0.20000 0 90 arc 0.00000 2.00000 lineto
stroke grestore
/ts 1 def
/ty ts neg def /tx 0 def /Helvetica findfont ts scalefont setfont
/t { moveto lineto stroke } bind def
/dr { /y2 exch def /x2 exch def /y1 exch def /x1 exch def
      x1 y1 moveto x1 y2 lineto x2 y2 lineto x2 y1 lineto closepath stroke } bind def
/r { /y2 exch def /x2 exch def /y1 exch def /x1 exch def
     x1 y1 moveto x1 y2 lineto x2 y2 lineto x2 y1 lineto closepath fill } bind def
/c { 0 360 arc fill } bind def
/a { gsave setlinewidth translate scale 0 0 1 5 3 roll arc stroke grestore} bind def
0.04000 setlinewidth
2 setlinecap 2 setlinejoin
1 gray
0.00000 0.00000 0.58071 0.76772 r
0.06000 setlinewidth
0 gray
0.01969 0.35433 0.15748 0.35433 t
0 gray
0.01969 0.01969 0.15748 0.01969 t
0 gray
0.41339 0.68898 0.55118 0.68898 t
0 gray
0.43307 0.43307 0.55118 0.43307 t
0 gray
0.52118 0.36370 0.58118 0.42370 r
0 gray
0.52118 0.61961 0.58118 0.67961 r
0 gray
0.43307 0.61024 0.55118 0.61024 t
0 gray
0.41339 0.35433 0.55118 0.35433 t
showpage
%%Page: topsilk 6
/Helvetica findfont 10 scalefont setfont
30 30 moveto (SMA-edge.pcb) show
30 41 moveto (SMA-edge, topsilk) show
(, scale = 1:1.000) show
newpath
72 72 scale 4.25000 5.50000 translate
1 1 scale % calibration
1 dup neg scale
-0.29035 -0.38386 translate
/gray { setgray } bind def
/rgb { setrgbcolor } bind def
0 setgray 0 setlinewidth 0 0 moveto 0 0.76772 lineto 0.58071 0.76772 lineto 0.58071 0 lineto closepath stroke
gsave 0.00000 setlinewidth 0.00000 0.00000 translate -1 -1 scale
2.00000 0.00000 moveto 0.00000 0.00000 0.20000 0 90 arc 0.00000 2.00000 lineto
0.40000 0.00000 moveto 0 -0.20000 rlineto
stroke grestore
gsave 0.00000 setlinewidth 0.58071 0.00000 translate 1 -1 scale
2.00000 0.00000 moveto 0.00000 0.00000 0.20000 0 90 arc 0.00000 2.00000 lineto
stroke grestore
gsave 0.00000 setlinewidth 0.58071 0.76772 translate 1 1 scale
2.00000 0.00000 moveto 0.00000 0.00000 0.20000 0 90 arc 0.00000 2.00000 lineto
stroke grestore
gsave 0.00000 setlinewidth 0.00000 0.76772 translate -1 1 scale
2.00000 0.00000 moveto 0.00000 0.00000 0.20000 0 90 arc 0.00000 2.00000 lineto
stroke grestore
/ts 1 def
/ty ts neg def /tx 0 def /Helvetica findfont ts scalefont setfont
/t { moveto lineto stroke } bind def
/dr { /y2 exch def /x2 exch def /y1 exch def /x1 exch def
      x1 y1 moveto x1 y2 lineto x2 y2 lineto x2 y1 lineto closepath stroke } bind def
/r { /y2 exch def /x2 exch def /y1 exch def /x1 exch def
     x1 y1 moveto x1 y2 lineto x2 y2 lineto x2 y1 lineto closepath fill } bind def
/c { 0 360 arc fill } bind def
/a { gsave setlinewidth translate scale 0 0 1 5 3 roll arc stroke grestore} bind def
0.01000 setlinewidth
1 setlinecap 1 setlinejoin
0 gray
0.00000 0.37402 0.17717 0.37402 t
0.17717 0.00000 0.00000 0.00000 t
0.18425 0.37402 0.18425 0.00000 t
0.39370 0.33465 0.57087 0.33465 t
0.39370 0.70866 0.57087 0.70866 t
0.38661 0.33465 0.38661 0.70866 t
showpage
%%Page: bottomsilk 7
/Helvetica findfont 10 scalefont setfont
30 30 moveto (SMA-edge.pcb) show
30 41 moveto (SMA-edge, bottomsilk) show
( \(mirrored\)) show
(, scale = 1:1.000) show
newpath
72 72 scale 4.25000 5.50000 translate
1 1 scale % calibration
1 -1 scale
1 dup neg scale
-0.29035 -0.38386 translate
/gray { setgray } bind def
/rgb { setrgbcolor } bind def
0 setgray 0 setlinewidth 0 0 moveto 0 0.76772 lineto 0.58071 0.76772 lineto 0.58071 0 lineto closepath stroke
gsave 0.00000 setlinewidth 0.00000 0.00000 translate -1 -1 scale
2.00000 0.00000 moveto 0.00000 0.00000 0.20000 0 90 arc 0.00000 2.00000 lineto
0.40000 0.00000 moveto 0 -0.20000 rlineto
stroke grestore
gsave 0.00000 setlinewidth 0.58071 0.00000 translate 1 -1 scale
2.00000 0.00000 moveto 0.00000 0.00000 0.20000 0 90 arc 0.00000 2.00000 lineto
stroke grestore
gsave 0.00000 setlinewidth 0.58071 0.76772 translate 1 1 scale
2.00000 0.00000 moveto 0.00000 0.00000 0.20000 0 90 arc 0.00000 2.00000 lineto
stroke grestore
gsave 0.00000 setlinewidth 0.00000 0.76772 translate -1 1 scale
2.00000 0.00000 moveto 0.00000 0.00000 0.20000 0 90 arc 0.00000 2.00000 lineto
stroke grestore
/ts 1 def
/ty ts neg def /tx 0 def /Helvetica findfont ts scalefont setfont
/t { moveto lineto stroke } bind def
/dr { /y2 exch def /x2 exch def /y1 exch def /x1 exch def
      x1 y1 moveto x1 y2 lineto x2 y2 lineto x2 y1 lineto closepath stroke } bind def
/r { /y2 exch def /x2 exch def /y1 exch def /x1 exch def
     x1 y1 moveto x1 y2 lineto x2 y2 lineto x2 y1 lineto closepath fill } bind def
/c { 0 360 arc fill } bind def
/a { gsave setlinewidth translate scale 0 0 1 5 3 roll arc stroke grestore} bind def
showpage
%%Page: toppaste 8
/Helvetica findfont 10 scalefont setfont
30 30 moveto (SMA-edge.pcb) show
30 41 moveto (SMA-edge, toppaste) show
(, scale = 1:1.000) show
newpath
72 72 scale 4.25000 5.50000 translate
1 1 scale % calibration
1 dup neg scale
-0.29035 -0.38386 translate
/gray { setgray } bind def
/rgb { setrgbcolor } bind def
0 setgray 0 setlinewidth 0 0 moveto 0 0.76772 lineto 0.58071 0.76772 lineto 0.58071 0 lineto closepath stroke
gsave 0.00000 setlinewidth 0.00000 0.00000 translate -1 -1 scale
2.00000 0.00000 moveto 0.00000 0.00000 0.20000 0 90 arc 0.00000 2.00000 lineto
0.40000 0.00000 moveto 0 -0.20000 rlineto
stroke grestore
gsave 0.00000 setlinewidth 0.58071 0.00000 translate 1 -1 scale
2.00000 0.00000 moveto 0.00000 0.00000 0.20000 0 90 arc 0.00000 2.00000 lineto
stroke grestore
gsave 0.00000 setlinewidth 0.58071 0.76772 translate 1 1 scale
2.00000 0.00000 moveto 0.00000 0.00000 0.20000 0 90 arc 0.00000 2.00000 lineto
stroke grestore
gsave 0.00000 setlinewidth 0.00000 0.76772 translate -1 1 scale
2.00000 0.00000 moveto 0.00000 0.00000 0.20000 0 90 arc 0.00000 2.00000 lineto
stroke grestore
/ts 1 def
/ty ts neg def /tx 0 def /Helvetica findfont ts scalefont setfont
/t { moveto lineto stroke } bind def
/dr { /y2 exch def /x2 exch def /y1 exch def /x1 exch def
      x1 y1 moveto x1 y2 lineto x2 y2 lineto x2 y1 lineto closepath stroke } bind def
/r { /y2 exch def /x2 exch def /y1 exch def /x1 exch def
     x1 y1 moveto x1 y2 lineto x2 y2 lineto x2 y1 lineto closepath fill } bind def
/c { 0 360 arc fill } bind def
/a { gsave setlinewidth translate scale 0 0 1 5 3 roll arc stroke grestore} bind def
0.04000 setlinewidth
2 setlinecap 2 setlinejoin
0 gray
0.01969 0.01969 0.15748 0.01969 t
0.01969 0.35433 0.15748 0.35433 t
0.01969 0.17717 0.15748 0.17717 t
0.41339 0.68898 0.55118 0.68898 t
0.43307 0.43307 0.55118 0.43307 t
0.53118 0.62961 0.57118 0.66961 r
0.41339 0.35433 0.55118 0.35433 t
0.43307 0.61024 0.55118 0.61024 t
0.41339 0.53150 0.55118 0.53150 t
0.53118 0.37370 0.57118 0.41370 r
showpage
%%Page: bottompaste 9
/Helvetica findfont 10 scalefont setfont
30 30 moveto (SMA-edge.pcb) show
30 41 moveto (SMA-edge, bottompaste) show
( \(mirrored\)) show
(, scale = 1:1.000) show
newpath
72 72 scale 4.25000 5.50000 translate
1 1 scale % calibration
1 -1 scale
1 dup neg scale
-0.29035 -0.38386 translate
/gray { setgray } bind def
/rgb { setrgbcolor } bind def
0 setgray 0 setlinewidth 0 0 moveto 0 0.76772 lineto 0.58071 0.76772 lineto 0.58071 0 lineto closepath stroke
gsave 0.00000 setlinewidth 0.00000 0.00000 translate -1 -1 scale
2.00000 0.00000 moveto 0.00000 0.00000 0.20000 0 90 arc 0.00000 2.00000 lineto
0.40000 0.00000 moveto 0 -0.20000 rlineto
stroke grestore
gsave 0.00000 setlinewidth 0.58071 0.00000 translate 1 -1 scale
2.00000 0.00000 moveto 0.00000 0.00000 0.20000 0 90 arc 0.00000 2.00000 lineto
stroke grestore
gsave 0.00000 setlinewidth 0.58071 0.76772 translate 1 1 scale
2.00000 0.00000 moveto 0.00000 0.00000 0.20000 0 90 arc 0.00000 2.00000 lineto
stroke grestore
gsave 0.00000 setlinewidth 0.00000 0.76772 translate -1 1 scale
2.00000 0.00000 moveto 0.00000 0.00000 0.20000 0 90 arc 0.00000 2.00000 lineto
stroke grestore
/ts 1 def
/ty ts neg def /tx 0 def /Helvetica findfont ts scalefont setfont
/t { moveto lineto stroke } bind def
/dr { /y2 exch def /x2 exch def /y1 exch def /x1 exch def
      x1 y1 moveto x1 y2 lineto x2 y2 lineto x2 y1 lineto closepath stroke } bind def
/r { /y2 exch def /x2 exch def /y1 exch def /x1 exch def
     x1 y1 moveto x1 y2 lineto x2 y2 lineto x2 y1 lineto closepath fill } bind def
/c { 0 360 arc fill } bind def
/a { gsave setlinewidth translate scale 0 0 1 5 3 roll arc stroke grestore} bind def
0.04000 setlinewidth
2 setlinecap 2 setlinejoin
0 gray
0.01969 0.01969 0.15748 0.01969 t
0.01969 0.35433 0.15748 0.35433 t
0.53118 0.62961 0.57118 0.66961 r
0.41339 0.68898 0.55118 0.68898 t
0.43307 0.43307 0.55118 0.43307 t
0.41339 0.35433 0.55118 0.35433 t
0.43307 0.61024 0.55118 0.61024 t
0.53118 0.37370 0.57118 0.41370 r
showpage
%%Page: topassembly 10
/Helvetica findfont 10 scalefont setfont
30 30 moveto (SMA-edge.pcb) show
30 41 moveto (SMA-edge, topassembly) show
(, scale = 1:1.000) show
newpath
72 72 scale 4.25000 5.50000 translate
1 1 scale % calibration
1 dup neg scale
-0.29035 -0.38386 translate
/gray { setgray } bind def
/rgb { setrgbcolor } bind def
0 setgray 0 setlinewidth 0 0 moveto 0 0.76772 lineto 0.58071 0.76772 lineto 0.58071 0 lineto closepath stroke
gsave 0.00000 setlinewidth 0.00000 0.00000 translate -1 -1 scale
2.00000 0.00000 moveto 0.00000 0.00000 0.20000 0 90 arc 0.00000 2.00000 lineto
0.40000 0.00000 moveto 0 -0.20000 rlineto
stroke grestore
gsave 0.00000 setlinewidth 0.58071 0.00000 translate 1 -1 scale
2.00000 0.00000 moveto 0.00000 0.00000 0.20000 0 90 arc 0.00000 2.00000 lineto
stroke grestore
gsave 0.00000 setlinewidth 0.58071 0.76772 translate 1 1 scale
2.00000 0.00000 moveto 0.00000 0.00000 0.20000 0 90 arc 0.00000 2.00000 lineto
stroke grestore
gsave 0.00000 setlinewidth 0.00000 0.76772 translate -1 1 scale
2.00000 0.00000 moveto 0.00000 0.00000 0.20000 0 90 arc 0.00000 2.00000 lineto
stroke grestore
/ts 1 def
/ty ts neg def /tx 0 def /Helvetica findfont ts scalefont setfont
/t { moveto lineto stroke } bind def
/dr { /y2 exch def /x2 exch def /y1 exch def /x1 exch def
      x1 y1 moveto x1 y2 lineto x2 y2 lineto x2 y1 lineto closepath stroke } bind def
/r { /y2 exch def /x2 exch def /y1 exch def /x1 exch def
     x1 y1 moveto x1 y2 lineto x2 y2 lineto x2 y1 lineto closepath fill } bind def
/c { 0 360 arc fill } bind def
/a { gsave setlinewidth translate scale 0 0 1 5 3 roll arc stroke grestore} bind def
0.04000 setlinewidth
2 setlinecap 2 setlinejoin
0.6 gray
0.01969 0.01969 0.15748 0.01969 t
0.01969 0.35433 0.15748 0.35433 t
0.01969 0.17717 0.15748 0.17717 t
0.41339 0.68898 0.55118 0.68898 t
0.43307 0.43307 0.55118 0.43307 t
0.53118 0.37370 0.57118 0.41370 r
0.53118 0.62961 0.57118 0.66961 r
0.43307 0.61024 0.55118 0.61024 t
0.41339 0.53150 0.55118 0.53150 t
0.41339 0.35433 0.55118 0.35433 t
0.01000 setlinewidth
1 setlinecap 1 setlinejoin
0 gray
0.00000 0.37402 0.17717 0.37402 t
0.17717 0.00000 0.00000 0.00000 t
0.18425 0.37402 0.18425 0.00000 t
0.39370 0.33465 0.57087 0.33465 t
0.39370 0.70866 0.57087 0.70866 t
0.38661 0.33465 0.38661 0.70866 t
showpage
%%Page: bottomassembly 11
/Helvetica findfont 10 scalefont setfont
30 30 moveto (SMA-edge.pcb) show
30 41 moveto (SMA-edge, bottomassembly) show
( \(mirrored\)) show
(, scale = 1:1.000) show
newpath
72 72 scale 4.25000 5.50000 translate
1 1 scale % calibration
1 -1 scale
1 dup neg scale
-0.29035 -0.38386 translate
/gray { setgray } bind def
/rgb { setrgbcolor } bind def
0 setgray 0 setlinewidth 0 0 moveto 0 0.76772 lineto 0.58071 0.76772 lineto 0.58071 0 lineto closepath stroke
gsave 0.00000 setlinewidth 0.00000 0.00000 translate -1 -1 scale
2.00000 0.00000 moveto 0.00000 0.00000 0.20000 0 90 arc 0.00000 2.00000 lineto
0.40000 0.00000 moveto 0 -0.20000 rlineto
stroke grestore
gsave 0.00000 setlinewidth 0.58071 0.00000 translate 1 -1 scale
2.00000 0.00000 moveto 0.00000 0.00000 0.20000 0 90 arc 0.00000 2.00000 lineto
stroke grestore
gsave 0.00000 setlinewidth 0.58071 0.76772 translate 1 1 scale
2.00000 0.00000 moveto 0.00000 0.00000 0.20000 0 90 arc 0.00000 2.00000 lineto
stroke grestore
gsave 0.00000 setlinewidth 0.00000 0.76772 translate -1 1 scale
2.00000 0.00000 moveto 0.00000 0.00000 0.20000 0 90 arc 0.00000 2.00000 lineto
stroke grestore
/ts 1 def
/ty ts neg def /tx 0 def /Helvetica findfont ts scalefont setfont
/t { moveto lineto stroke } bind def
/dr { /y2 exch def /x2 exch def /y1 exch def /x1 exch def
      x1 y1 moveto x1 y2 lineto x2 y2 lineto x2 y1 lineto closepath stroke } bind def
/r { /y2 exch def /x2 exch def /y1 exch def /x1 exch def
     x1 y1 moveto x1 y2 lineto x2 y2 lineto x2 y1 lineto closepath fill } bind def
/c { 0 360 arc fill } bind def
/a { gsave setlinewidth translate scale 0 0 1 5 3 roll arc stroke grestore} bind def
0.01000 setlinewidth
1 setlinecap 1 setlinejoin
0.6 gray
0.08858 0.76772 moveto
0.08858 0.38428 lineto
0.17905 0.38424 lineto
0.18058 0.38387 lineto
0.18203 0.38327 lineto
0.18338 0.38245 lineto
0.18457 0.38142 lineto
0.18560 0.38023 lineto
0.18642 0.37888 lineto
0.18702 0.37743 lineto
0.18739 0.37590 lineto
0.18748 0.37433 lineto
0.18739 0.33276 lineto
0.18702 0.33123 lineto
0.18642 0.32978 lineto
0.18560 0.32843 lineto
0.18457 0.32724 lineto
0.18338 0.32622 lineto
0.18203 0.32539 lineto
0.18058 0.32479 lineto
0.17905 0.32442 lineto
0.17748 0.32433 lineto
0.08858 0.32438 lineto
0.08858 0.04964 lineto
0.17905 0.04959 lineto
0.18058 0.04922 lineto
0.18203 0.04862 lineto
0.18338 0.04780 lineto
0.18457 0.04678 lineto
0.18560 0.04558 lineto
0.18642 0.04424 lineto
0.18702 0.04278 lineto
0.18739 0.04125 lineto
0.18748 0.03969 lineto
0.18744 0.01969 lineto
0.57087 0.01969 lineto
0.57087 0.76772 lineto
fill
0.58071 0.76772 moveto
0.00000 0.76772 lineto
0.00000 0.38433 lineto
0.17905 0.38424 lineto
0.18058 0.38387 lineto
0.18203 0.38327 lineto
0.18338 0.38245 lineto
0.18457 0.38142 lineto
0.18560 0.38023 lineto
0.18642 0.37888 lineto
0.18702 0.37743 lineto
0.18739 0.37590 lineto
0.18748 0.37433 lineto
0.18739 0.33276 lineto
0.18702 0.33123 lineto
0.18642 0.32978 lineto
0.18560 0.32843 lineto
0.18457 0.32724 lineto
0.18338 0.32622 lineto
0.18203 0.32539 lineto
0.18058 0.32479 lineto
0.17905 0.32442 lineto
0.17748 0.32433 lineto
0.00000 0.32442 lineto
0.00000 0.04968 lineto
0.17905 0.04959 lineto
0.18058 0.04922 lineto
0.18203 0.04862 lineto
0.18338 0.04780 lineto
0.18457 0.04678 lineto
0.18560 0.04558 lineto
0.18642 0.04424 lineto
0.18702 0.04278 lineto
0.18739 0.04125 lineto
0.18748 0.03969 lineto
0.18739 0.00000 lineto
0.58071 0.00000 lineto
fill
0.04000 setlinewidth
2 setlinecap 2 setlinejoin
0.01969 0.35433 0.15748 0.35433 t
0.01969 0.01969 0.15748 0.01969 t
0.41339 0.68898 0.55118 0.68898 t
0.43307 0.43307 0.55118 0.43307 t
0.53118 0.37370 0.57118 0.41370 r
0.53118 0.62961 0.57118 0.66961 r
0.43307 0.61024 0.55118 0.61024 t
0.41339 0.35433 0.55118 0.35433 t
showpage
%%Page: fab 12
/Helvetica findfont 10 scalefont setfont
30 30 moveto (SMA-edge.pcb) show
30 41 moveto (SMA-edge, fab) show
(, scale = 1:1.000) show
newpath
72 72 scale 4.25000 5.50000 translate
1 1 scale % calibration
1 dup neg scale
-0.29035 -0.38386 translate
% PrintFab overhang natural 4.61614, needed 0.90000
/gray { setgray } bind def
/rgb { setrgbcolor } bind def
0 setgray 0 setlinewidth 0 0 moveto 0 0.76772 lineto 0.58071 0.76772 lineto 0.58071 0 lineto closepath stroke
gsave 0.00000 setlinewidth 0.00000 0.00000 translate -1 -1 scale
2.00000 0.00000 moveto 0.00000 0.00000 0.20000 0 90 arc 0.00000 2.00000 lineto
0.40000 0.00000 moveto 0 -0.20000 rlineto
stroke grestore
gsave 0.00000 setlinewidth 0.58071 0.00000 translate 1 -1 scale
2.00000 0.00000 moveto 0.00000 0.00000 0.20000 0 90 arc 0.00000 2.00000 lineto
stroke grestore
gsave 0.00000 setlinewidth 0.58071 0.76772 translate 1 1 scale
2.00000 0.00000 moveto 0.00000 0.00000 0.20000 0 90 arc 0.00000 2.00000 lineto
stroke grestore
gsave 0.00000 setlinewidth 0.00000 0.76772 translate -1 1 scale
2.00000 0.00000 moveto 0.00000 0.00000 0.20000 0 90 arc 0.00000 2.00000 lineto
stroke grestore
/ts 1 def
/ty ts neg def /tx 0 def /Helvetica findfont ts scalefont setfont
/t { moveto lineto stroke } bind def
/dr { /y2 exch def /x2 exch def /y1 exch def /x1 exch def
      x1 y1 moveto x1 y2 lineto x2 y2 lineto x2 y1 lineto closepath stroke } bind def
/r { /y2 exch def /x2 exch def /y1 exch def /x1 exch def
     x1 y1 moveto x1 y2 lineto x2 y2 lineto x2 y1 lineto closepath fill } bind def
/c { 0 360 arc fill } bind def
/a { gsave setlinewidth translate scale 0 0 1 5 3 roll arc stroke grestore} bind def
0.00600 setlinewidth
1 setlinecap 1 setlinejoin
0 gray
0.03000 -0.73500 0.03750 -0.72750 t
0.00750 -0.73500 0.03000 -0.73500 t
0.00000 -0.72750 0.00750 -0.73500 t
0.00000 -0.72750 0.00000 -0.71250 t
0.00000 -0.71250 0.00750 -0.70500 t
0.00750 -0.70500 0.03000 -0.70500 t
0.03000 -0.70500 0.03750 -0.69750 t
0.03750 -0.69750 0.03750 -0.68250 t
0.03000 -0.67500 0.03750 -0.68250 t
0.00750 -0.67500 0.03000 -0.67500 t
0.00000 -0.68250 0.00750 -0.67500 t
0.05550 -0.70500 0.05550 -0.68250 t
0.05550 -0.68250 0.06300 -0.67500 t
0.08550 -0.70500 0.08550 -0.66000 t
0.07800 -0.65250 0.08550 -0.66000 t
0.06300 -0.65250 0.07800 -0.65250 t
0.05550 -0.66000 0.06300 -0.65250 t
0.06300 -0.67500 0.07800 -0.67500 t
0.07800 -0.67500 0.08550 -0.68250 t
0.11100 -0.69750 0.11100 -0.67500 t
0.11100 -0.69750 0.11850 -0.70500 t
0.11850 -0.70500 0.12600 -0.70500 t
0.12600 -0.70500 0.13350 -0.69750 t
0.13350 -0.69750 0.13350 -0.67500 t
0.13350 -0.69750 0.14100 -0.70500 t
0.14100 -0.70500 0.14850 -0.70500 t
0.14850 -0.70500 0.15600 -0.69750 t
0.15600 -0.69750 0.15600 -0.67500 t
0.10350 -0.70500 0.11100 -0.69750 t
0.17400 -0.73500 0.17400 -0.67500 t
0.17400 -0.68250 0.18150 -0.67500 t
0.18150 -0.67500 0.19650 -0.67500 t
0.19650 -0.67500 0.20400 -0.68250 t
0.20400 -0.69750 0.20400 -0.68250 t
0.19650 -0.70500 0.20400 -0.69750 t
0.18150 -0.70500 0.19650 -0.70500 t
0.17400 -0.69750 0.18150 -0.70500 t
0.22200 -0.69750 0.22200 -0.68250 t
0.22200 -0.69750 0.22950 -0.70500 t
0.22950 -0.70500 0.24450 -0.70500 t
0.24450 -0.70500 0.25200 -0.69750 t
0.25200 -0.69750 0.25200 -0.68250 t
0.24450 -0.67500 0.25200 -0.68250 t
0.22950 -0.67500 0.24450 -0.67500 t
0.22200 -0.68250 0.22950 -0.67500 t
0.27000 -0.73500 0.27000 -0.68250 t
0.27000 -0.68250 0.27750 -0.67500 t
0.00000 -0.64250 0.29250 -0.64250 t
0.41750 -0.73500 0.41750 -0.67500 t
0.43700 -0.73500 0.44750 -0.72450 t
0.44750 -0.72450 0.44750 -0.68550 t
0.43700 -0.67500 0.44750 -0.68550 t
0.41000 -0.67500 0.43700 -0.67500 t
0.41000 -0.73500 0.43700 -0.73500 t
0.00750 setlinewidth
0.46550 -0.72000 0.46550 -0.71850 t
0.00600 setlinewidth
0.46550 -0.69750 0.46550 -0.67500 t
0.50300 -0.70500 0.51050 -0.69750 t
0.48800 -0.70500 0.50300 -0.70500 t
0.48050 -0.69750 0.48800 -0.70500 t
0.48050 -0.69750 0.48050 -0.68250 t
0.48050 -0.68250 0.48800 -0.67500 t
0.51050 -0.70500 0.51050 -0.68250 t
0.51050 -0.68250 0.51800 -0.67500 t
0.48800 -0.67500 0.50300 -0.67500 t
0.50300 -0.67500 0.51050 -0.68250 t
0.54350 -0.69750 0.54350 -0.67500 t
0.54350 -0.69750 0.55100 -0.70500 t
0.55100 -0.70500 0.55850 -0.70500 t
0.55850 -0.70500 0.56600 -0.69750 t
0.56600 -0.69750 0.56600 -0.67500 t
0.56600 -0.69750 0.57350 -0.70500 t
0.57350 -0.70500 0.58100 -0.70500 t
0.58100 -0.70500 0.58850 -0.69750 t
0.58850 -0.69750 0.58850 -0.67500 t
0.53600 -0.70500 0.54350 -0.69750 t
0.60650 -0.67500 0.61400 -0.67500 t
0.65900 -0.68250 0.66650 -0.67500 t
0.65900 -0.72750 0.66650 -0.73500 t
0.65900 -0.72750 0.65900 -0.68250 t
0.68450 -0.73500 0.69950 -0.73500 t
0.69200 -0.73500 0.69200 -0.67500 t
0.68450 -0.67500 0.69950 -0.67500 t
0.72500 -0.69750 0.72500 -0.67500 t
0.72500 -0.69750 0.73250 -0.70500 t
0.73250 -0.70500 0.74000 -0.70500 t
0.74000 -0.70500 0.74750 -0.69750 t
0.74750 -0.69750 0.74750 -0.67500 t
0.71750 -0.70500 0.72500 -0.69750 t
0.77300 -0.70500 0.79550 -0.70500 t
0.76550 -0.69750 0.77300 -0.70500 t
0.76550 -0.69750 0.76550 -0.68250 t
0.76550 -0.68250 0.77300 -0.67500 t
0.77300 -0.67500 0.79550 -0.67500 t
0.81350 -0.73500 0.81350 -0.67500 t
0.81350 -0.69750 0.82100 -0.70500 t
0.82100 -0.70500 0.83600 -0.70500 t
0.83600 -0.70500 0.84350 -0.69750 t
0.84350 -0.69750 0.84350 -0.67500 t
0.86150 -0.73500 0.86900 -0.72750 t
0.86900 -0.72750 0.86900 -0.68250 t
0.86150 -0.67500 0.86900 -0.68250 t
0.41000 -0.64250 0.88700 -0.64250 t
0.96050 -0.67500 0.98000 -0.67500 t
0.95000 -0.68550 0.96050 -0.67500 t
0.95000 -0.72450 0.95000 -0.68550 t
0.95000 -0.72450 0.96050 -0.73500 t
0.96050 -0.73500 0.98000 -0.73500 t
0.99800 -0.69750 0.99800 -0.68250 t
0.99800 -0.69750 1.00550 -0.70500 t
1.00550 -0.70500 1.02050 -0.70500 t
1.02050 -0.70500 1.02800 -0.69750 t
1.02800 -0.69750 1.02800 -0.68250 t
1.02050 -0.67500 1.02800 -0.68250 t
1.00550 -0.67500 1.02050 -0.67500 t
0.99800 -0.68250 1.00550 -0.67500 t
1.04600 -0.70500 1.04600 -0.68250 t
1.04600 -0.68250 1.05350 -0.67500 t
1.05350 -0.67500 1.06850 -0.67500 t
1.06850 -0.67500 1.07600 -0.68250 t
1.07600 -0.70500 1.07600 -0.68250 t
1.10150 -0.69750 1.10150 -0.67500 t
1.10150 -0.69750 1.10900 -0.70500 t
1.10900 -0.70500 1.11650 -0.70500 t
1.11650 -0.70500 1.12400 -0.69750 t
1.12400 -0.69750 1.12400 -0.67500 t
1.09400 -0.70500 1.10150 -0.69750 t
1.14950 -0.73500 1.14950 -0.68250 t
1.14950 -0.68250 1.15700 -0.67500 t
1.14200 -0.71250 1.15700 -0.71250 t
0.95000 -0.64250 1.17200 -0.64250 t
1.30750 -0.73500 1.30750 -0.67500 t
1.30000 -0.73500 1.33000 -0.73500 t
1.33000 -0.73500 1.33750 -0.72750 t
1.33750 -0.72750 1.33750 -0.71250 t
1.33000 -0.70500 1.33750 -0.71250 t
1.30750 -0.70500 1.33000 -0.70500 t
1.35550 -0.73500 1.35550 -0.68250 t
1.35550 -0.68250 1.36300 -0.67500 t
1.40050 -0.70500 1.40800 -0.69750 t
1.38550 -0.70500 1.40050 -0.70500 t
1.37800 -0.69750 1.38550 -0.70500 t
1.37800 -0.69750 1.37800 -0.68250 t
1.37800 -0.68250 1.38550 -0.67500 t
1.40800 -0.70500 1.40800 -0.68250 t
1.40800 -0.68250 1.41550 -0.67500 t
1.38550 -0.67500 1.40050 -0.67500 t
1.40050 -0.67500 1.40800 -0.68250 t
1.44100 -0.73500 1.44100 -0.68250 t
1.44100 -0.68250 1.44850 -0.67500 t
1.43350 -0.71250 1.44850 -0.71250 t
1.47100 -0.67500 1.49350 -0.67500 t
1.46350 -0.68250 1.47100 -0.67500 t
1.46350 -0.69750 1.46350 -0.68250 t
1.46350 -0.69750 1.47100 -0.70500 t
1.47100 -0.70500 1.48600 -0.70500 t
1.48600 -0.70500 1.49350 -0.69750 t
1.46350 -0.69000 1.49350 -0.69000 t
1.49350 -0.69750 1.49350 -0.69000 t
1.54150 -0.73500 1.54150 -0.67500 t
1.53400 -0.67500 1.54150 -0.68250 t
1.51900 -0.67500 1.53400 -0.67500 t
1.51150 -0.68250 1.51900 -0.67500 t
1.51150 -0.69750 1.51150 -0.68250 t
1.51150 -0.69750 1.51900 -0.70500 t
1.51900 -0.70500 1.53400 -0.70500 t
1.53400 -0.70500 1.54150 -0.69750 t
1.57450 -0.70500 1.57450 -0.69750 t
1.57450 -0.68250 1.57450 -0.67500 t
1.55950 -0.72750 1.55950 -0.72000 t
1.55950 -0.72750 1.56700 -0.73500 t
1.56700 -0.73500 1.58200 -0.73500 t
1.58200 -0.73500 1.58950 -0.72750 t
1.58950 -0.72750 1.58950 -0.72000 t
1.57450 -0.70500 1.58950 -0.72000 t
1.30000 -0.64250 1.60750 -0.64250 t
0.00000 -0.88500 0.03000 -0.88500 t
0.01500 -0.88500 0.01500 -0.82500 t
0.04800 -0.88500 0.04800 -0.82500 t
0.04800 -0.84750 0.05550 -0.85500 t
0.05550 -0.85500 0.07050 -0.85500 t
0.07050 -0.85500 0.07800 -0.84750 t
0.07800 -0.84750 0.07800 -0.82500 t
0.10350 -0.82500 0.12600 -0.82500 t
0.09600 -0.83250 0.10350 -0.82500 t
0.09600 -0.84750 0.09600 -0.83250 t
0.09600 -0.84750 0.10350 -0.85500 t
0.10350 -0.85500 0.11850 -0.85500 t
0.11850 -0.85500 0.12600 -0.84750 t
0.09600 -0.84000 0.12600 -0.84000 t
0.12600 -0.84750 0.12600 -0.84000 t
0.15150 -0.84750 0.15150 -0.82500 t
0.15150 -0.84750 0.15900 -0.85500 t
0.15900 -0.85500 0.17400 -0.85500 t
0.14400 -0.85500 0.15150 -0.84750 t
0.19950 -0.82500 0.22200 -0.82500 t
0.19200 -0.83250 0.19950 -0.82500 t
0.19200 -0.84750 0.19200 -0.83250 t
0.19200 -0.84750 0.19950 -0.85500 t
0.19950 -0.85500 0.21450 -0.85500 t
0.21450 -0.85500 0.22200 -0.84750 t
0.19200 -0.84000 0.22200 -0.84000 t
0.22200 -0.84750 0.22200 -0.84000 t
0.28950 -0.85500 0.29700 -0.84750 t
0.27450 -0.85500 0.28950 -0.85500 t
0.26700 -0.84750 0.27450 -0.85500 t
0.26700 -0.84750 0.26700 -0.83250 t
0.26700 -0.83250 0.27450 -0.82500 t
0.29700 -0.85500 0.29700 -0.83250 t
0.29700 -0.83250 0.30450 -0.82500 t
0.27450 -0.82500 0.28950 -0.82500 t
0.28950 -0.82500 0.29700 -0.83250 t
0.33000 -0.84750 0.33000 -0.82500 t
0.33000 -0.84750 0.33750 -0.85500 t
0.33750 -0.85500 0.35250 -0.85500 t
0.32250 -0.85500 0.33000 -0.84750 t
0.37800 -0.82500 0.40050 -0.82500 t
0.37050 -0.83250 0.37800 -0.82500 t
0.37050 -0.84750 0.37050 -0.83250 t
0.37050 -0.84750 0.37800 -0.85500 t
0.37800 -0.85500 0.39300 -0.85500 t
0.39300 -0.85500 0.40050 -0.84750 t
0.37050 -0.84000 0.40050 -0.84000 t
0.40050 -0.84750 0.40050 -0.84000 t
0.44550 -0.83250 0.45300 -0.82500 t
0.44550 -0.87750 0.44550 -0.83250 t
0.44550 -0.87750 0.45300 -0.88500 t
0.45300 -0.88500 0.46800 -0.88500 t
0.46800 -0.88500 0.47550 -0.87750 t
0.47550 -0.87750 0.47550 -0.83250 t
0.46800 -0.82500 0.47550 -0.83250 t
0.45300 -0.82500 0.46800 -0.82500 t
0.44550 -0.84000 0.47550 -0.87000 t
0.55050 -0.88500 0.55050 -0.82500 t
0.54300 -0.82500 0.55050 -0.83250 t
0.52800 -0.82500 0.54300 -0.82500 t
0.52050 -0.83250 0.52800 -0.82500 t
0.52050 -0.84750 0.52050 -0.83250 t
0.52050 -0.84750 0.52800 -0.85500 t
0.52800 -0.85500 0.54300 -0.85500 t
0.54300 -0.85500 0.55050 -0.84750 t
0.00750 setlinewidth
0.56850 -0.87000 0.56850 -0.86850 t
0.00600 setlinewidth
0.56850 -0.84750 0.56850 -0.82500 t
0.59100 -0.87750 0.59100 -0.82500 t
0.59100 -0.87750 0.59850 -0.88500 t
0.59850 -0.88500 0.60600 -0.88500 t
0.58350 -0.85500 0.59850 -0.85500 t
0.62850 -0.87750 0.62850 -0.82500 t
0.62850 -0.87750 0.63600 -0.88500 t
0.63600 -0.88500 0.64350 -0.88500 t
0.62100 -0.85500 0.63600 -0.85500 t
0.66600 -0.82500 0.68850 -0.82500 t
0.65850 -0.83250 0.66600 -0.82500 t
0.65850 -0.84750 0.65850 -0.83250 t
0.65850 -0.84750 0.66600 -0.85500 t
0.66600 -0.85500 0.68100 -0.85500 t
0.68100 -0.85500 0.68850 -0.84750 t
0.65850 -0.84000 0.68850 -0.84000 t
0.68850 -0.84750 0.68850 -0.84000 t
0.71400 -0.84750 0.71400 -0.82500 t
0.71400 -0.84750 0.72150 -0.85500 t
0.72150 -0.85500 0.73650 -0.85500 t
0.70650 -0.85500 0.71400 -0.84750 t
0.76200 -0.82500 0.78450 -0.82500 t
0.75450 -0.83250 0.76200 -0.82500 t
0.75450 -0.84750 0.75450 -0.83250 t
0.75450 -0.84750 0.76200 -0.85500 t
0.76200 -0.85500 0.77700 -0.85500 t
0.77700 -0.85500 0.78450 -0.84750 t
0.75450 -0.84000 0.78450 -0.84000 t
0.78450 -0.84750 0.78450 -0.84000 t
0.81000 -0.84750 0.81000 -0.82500 t
0.81000 -0.84750 0.81750 -0.85500 t
0.81750 -0.85500 0.82500 -0.85500 t
0.82500 -0.85500 0.83250 -0.84750 t
0.83250 -0.84750 0.83250 -0.82500 t
0.80250 -0.85500 0.81000 -0.84750 t
0.85800 -0.88500 0.85800 -0.83250 t
0.85800 -0.83250 0.86550 -0.82500 t
0.85050 -0.86250 0.86550 -0.86250 t
0.93750 -0.88500 0.93750 -0.82500 t
0.93000 -0.82500 0.93750 -0.83250 t
0.91500 -0.82500 0.93000 -0.82500 t
0.90750 -0.83250 0.91500 -0.82500 t
0.90750 -0.84750 0.90750 -0.83250 t
0.90750 -0.84750 0.91500 -0.85500 t
0.91500 -0.85500 0.93000 -0.85500 t
0.93000 -0.85500 0.93750 -0.84750 t
0.96300 -0.84750 0.96300 -0.82500 t
0.96300 -0.84750 0.97050 -0.85500 t
0.97050 -0.85500 0.98550 -0.85500 t
0.95550 -0.85500 0.96300 -0.84750 t
0.00750 setlinewidth
1.00350 -0.87000 1.00350 -0.86850 t
0.00600 setlinewidth
1.00350 -0.84750 1.00350 -0.82500 t
1.01850 -0.88500 1.01850 -0.83250 t
1.01850 -0.83250 1.02600 -0.82500 t
1.04100 -0.88500 1.04100 -0.83250 t
1.04100 -0.83250 1.04850 -0.82500 t
1.09800 -0.82500 1.12050 -0.82500 t
1.12050 -0.82500 1.12800 -0.83250 t
1.12050 -0.84000 1.12800 -0.83250 t
1.09800 -0.84000 1.12050 -0.84000 t
1.09050 -0.84750 1.09800 -0.84000 t
1.09050 -0.84750 1.09800 -0.85500 t
1.09800 -0.85500 1.12050 -0.85500 t
1.12050 -0.85500 1.12800 -0.84750 t
1.09050 -0.83250 1.09800 -0.82500 t
0.00750 setlinewidth
1.14600 -0.87000 1.14600 -0.86850 t
0.00600 setlinewidth
1.14600 -0.84750 1.14600 -0.82500 t
1.16100 -0.85500 1.19100 -0.85500 t
1.16100 -0.82500 1.19100 -0.85500 t
1.16100 -0.82500 1.19100 -0.82500 t
1.21650 -0.82500 1.23900 -0.82500 t
1.20900 -0.83250 1.21650 -0.82500 t
1.20900 -0.84750 1.20900 -0.83250 t
1.20900 -0.84750 1.21650 -0.85500 t
1.21650 -0.85500 1.23150 -0.85500 t
1.23150 -0.85500 1.23900 -0.84750 t
1.20900 -0.84000 1.23900 -0.84000 t
1.23900 -0.84750 1.23900 -0.84000 t
1.26450 -0.82500 1.28700 -0.82500 t
1.28700 -0.82500 1.29450 -0.83250 t
1.28700 -0.84000 1.29450 -0.83250 t
1.26450 -0.84000 1.28700 -0.84000 t
1.25700 -0.84750 1.26450 -0.84000 t
1.25700 -0.84750 1.26450 -0.85500 t
1.26450 -0.85500 1.28700 -0.85500 t
1.28700 -0.85500 1.29450 -0.84750 t
1.25700 -0.83250 1.26450 -0.82500 t
1.33950 -0.85500 1.33950 -0.83250 t
1.33950 -0.83250 1.34700 -0.82500 t
1.34700 -0.82500 1.36200 -0.82500 t
1.36200 -0.82500 1.36950 -0.83250 t
1.36950 -0.85500 1.36950 -0.83250 t
1.39500 -0.82500 1.41750 -0.82500 t
1.41750 -0.82500 1.42500 -0.83250 t
1.41750 -0.84000 1.42500 -0.83250 t
1.39500 -0.84000 1.41750 -0.84000 t
1.38750 -0.84750 1.39500 -0.84000 t
1.38750 -0.84750 1.39500 -0.85500 t
1.39500 -0.85500 1.41750 -0.85500 t
1.41750 -0.85500 1.42500 -0.84750 t
1.38750 -0.83250 1.39500 -0.82500 t
1.45050 -0.82500 1.47300 -0.82500 t
1.44300 -0.83250 1.45050 -0.82500 t
1.44300 -0.84750 1.44300 -0.83250 t
1.44300 -0.84750 1.45050 -0.85500 t
1.45050 -0.85500 1.46550 -0.85500 t
1.46550 -0.85500 1.47300 -0.84750 t
1.44300 -0.84000 1.47300 -0.84000 t
1.47300 -0.84750 1.47300 -0.84000 t
1.52100 -0.88500 1.52100 -0.82500 t
1.51350 -0.82500 1.52100 -0.83250 t
1.49850 -0.82500 1.51350 -0.82500 t
1.49100 -0.83250 1.49850 -0.82500 t
1.49100 -0.84750 1.49100 -0.83250 t
1.49100 -0.84750 1.49850 -0.85500 t
1.49850 -0.85500 1.51350 -0.85500 t
1.51350 -0.85500 1.52100 -0.84750 t
0.00750 setlinewidth
1.56600 -0.87000 1.56600 -0.86850 t
0.00600 setlinewidth
1.56600 -0.84750 1.56600 -0.82500 t
1.58850 -0.84750 1.58850 -0.82500 t
1.58850 -0.84750 1.59600 -0.85500 t
1.59600 -0.85500 1.60350 -0.85500 t
1.60350 -0.85500 1.61100 -0.84750 t
1.61100 -0.84750 1.61100 -0.82500 t
1.58100 -0.85500 1.58850 -0.84750 t
1.66350 -0.88500 1.66350 -0.83250 t
1.66350 -0.83250 1.67100 -0.82500 t
1.65600 -0.86250 1.67100 -0.86250 t
1.68600 -0.88500 1.68600 -0.82500 t
1.68600 -0.84750 1.69350 -0.85500 t
1.69350 -0.85500 1.70850 -0.85500 t
1.70850 -0.85500 1.71600 -0.84750 t
1.71600 -0.84750 1.71600 -0.82500 t
0.00750 setlinewidth
1.73400 -0.87000 1.73400 -0.86850 t
0.00600 setlinewidth
1.73400 -0.84750 1.73400 -0.82500 t
1.75650 -0.82500 1.77900 -0.82500 t
1.77900 -0.82500 1.78650 -0.83250 t
1.77900 -0.84000 1.78650 -0.83250 t
1.75650 -0.84000 1.77900 -0.84000 t
1.74900 -0.84750 1.75650 -0.84000 t
1.74900 -0.84750 1.75650 -0.85500 t
1.75650 -0.85500 1.77900 -0.85500 t
1.77900 -0.85500 1.78650 -0.84750 t
1.74900 -0.83250 1.75650 -0.82500 t
1.83150 -0.88500 1.83150 -0.83250 t
1.83150 -0.83250 1.83900 -0.82500 t
1.87650 -0.85500 1.88400 -0.84750 t
1.86150 -0.85500 1.87650 -0.85500 t
1.85400 -0.84750 1.86150 -0.85500 t
1.85400 -0.84750 1.85400 -0.83250 t
1.85400 -0.83250 1.86150 -0.82500 t
1.88400 -0.85500 1.88400 -0.83250 t
1.88400 -0.83250 1.89150 -0.82500 t
1.86150 -0.82500 1.87650 -0.82500 t
1.87650 -0.82500 1.88400 -0.83250 t
1.90950 -0.85500 1.90950 -0.83250 t
1.90950 -0.83250 1.91700 -0.82500 t
1.93950 -0.85500 1.93950 -0.81000 t
1.93200 -0.80250 1.93950 -0.81000 t
1.91700 -0.80250 1.93200 -0.80250 t
1.90950 -0.81000 1.91700 -0.80250 t
1.91700 -0.82500 1.93200 -0.82500 t
1.93200 -0.82500 1.93950 -0.83250 t
1.95750 -0.84750 1.95750 -0.83250 t
1.95750 -0.84750 1.96500 -0.85500 t
1.96500 -0.85500 1.98000 -0.85500 t
1.98000 -0.85500 1.98750 -0.84750 t
1.98750 -0.84750 1.98750 -0.83250 t
1.98000 -0.82500 1.98750 -0.83250 t
1.96500 -0.82500 1.98000 -0.82500 t
1.95750 -0.83250 1.96500 -0.82500 t
2.00550 -0.85500 2.00550 -0.83250 t
2.00550 -0.83250 2.01300 -0.82500 t
2.01300 -0.82500 2.02800 -0.82500 t
2.02800 -0.82500 2.03550 -0.83250 t
2.03550 -0.85500 2.03550 -0.83250 t
2.06100 -0.88500 2.06100 -0.83250 t
2.06100 -0.83250 2.06850 -0.82500 t
2.05350 -0.86250 2.06850 -0.86250 t
2.08350 -0.81000 2.09850 -0.82500 t
2.14350 -0.83250 2.15100 -0.82500 t
2.14350 -0.87750 2.14350 -0.83250 t
2.14350 -0.87750 2.15100 -0.88500 t
2.15100 -0.88500 2.16600 -0.88500 t
2.16600 -0.88500 2.17350 -0.87750 t
2.17350 -0.87750 2.17350 -0.83250 t
2.16600 -0.82500 2.17350 -0.83250 t
2.15100 -0.82500 2.16600 -0.82500 t
2.14350 -0.84000 2.17350 -0.87000 t
2.21850 -0.88500 2.21850 -0.82500 t
2.21850 -0.84750 2.22600 -0.85500 t
2.22600 -0.85500 2.24100 -0.85500 t
2.24100 -0.85500 2.24850 -0.84750 t
2.24850 -0.84750 2.24850 -0.82500 t
2.26650 -0.84750 2.26650 -0.83250 t
2.26650 -0.84750 2.27400 -0.85500 t
2.27400 -0.85500 2.28900 -0.85500 t
2.28900 -0.85500 2.29650 -0.84750 t
2.29650 -0.84750 2.29650 -0.83250 t
2.28900 -0.82500 2.29650 -0.83250 t
2.27400 -0.82500 2.28900 -0.82500 t
2.26650 -0.83250 2.27400 -0.82500 t
2.31450 -0.88500 2.31450 -0.83250 t
2.31450 -0.83250 2.32200 -0.82500 t
2.34450 -0.82500 2.36700 -0.82500 t
2.33700 -0.83250 2.34450 -0.82500 t
2.33700 -0.84750 2.33700 -0.83250 t
2.33700 -0.84750 2.34450 -0.85500 t
2.34450 -0.85500 2.35950 -0.85500 t
2.35950 -0.85500 2.36700 -0.84750 t
2.33700 -0.84000 2.36700 -0.84000 t
2.36700 -0.84750 2.36700 -0.84000 t
2.39250 -0.82500 2.41500 -0.82500 t
2.41500 -0.82500 2.42250 -0.83250 t
2.41500 -0.84000 2.42250 -0.83250 t
2.39250 -0.84000 2.41500 -0.84000 t
2.38500 -0.84750 2.39250 -0.84000 t
2.38500 -0.84750 2.39250 -0.85500 t
2.39250 -0.85500 2.41500 -0.85500 t
2.41500 -0.85500 2.42250 -0.84750 t
2.38500 -0.83250 2.39250 -0.82500 t
2.47500 -0.88500 2.47500 -0.83250 t
2.47500 -0.83250 2.48250 -0.82500 t
2.46750 -0.86250 2.48250 -0.86250 t
2.49750 -0.84750 2.49750 -0.83250 t
2.49750 -0.84750 2.50500 -0.85500 t
2.50500 -0.85500 2.52000 -0.85500 t
2.52000 -0.85500 2.52750 -0.84750 t
2.52750 -0.84750 2.52750 -0.83250 t
2.52000 -0.82500 2.52750 -0.83250 t
2.50500 -0.82500 2.52000 -0.82500 t
2.49750 -0.83250 2.50500 -0.82500 t
2.55300 -0.88500 2.55300 -0.83250 t
2.55300 -0.83250 2.56050 -0.82500 t
2.54550 -0.86250 2.56050 -0.86250 t
2.59800 -0.85500 2.60550 -0.84750 t
2.58300 -0.85500 2.59800 -0.85500 t
2.57550 -0.84750 2.58300 -0.85500 t
2.57550 -0.84750 2.57550 -0.83250 t
2.57550 -0.83250 2.58300 -0.82500 t
2.60550 -0.85500 2.60550 -0.83250 t
2.60550 -0.83250 2.61300 -0.82500 t
2.58300 -0.82500 2.59800 -0.82500 t
2.59800 -0.82500 2.60550 -0.83250 t
2.63100 -0.88500 2.63100 -0.83250 t
2.63100 -0.83250 2.63850 -0.82500 t
0.01000 setlinewidth
0.00000 0.00000 0.58071 0.00000 t
0.00000 0.00000 0.00000 0.76772 t
0.58071 0.00000 0.58071 0.76772 t
0.00000 0.76772 0.58071 0.76772 t
0.00600 setlinewidth
2.00000 -0.13500 2.00000 -0.07500 t
2.00000 -0.13500 2.02250 -0.10500 t
2.02250 -0.10500 2.04500 -0.13500 t
2.04500 -0.13500 2.04500 -0.07500 t
2.08550 -0.10500 2.09300 -0.09750 t
2.07050 -0.10500 2.08550 -0.10500 t
2.06300 -0.09750 2.07050 -0.10500 t
2.06300 -0.09750 2.06300 -0.08250 t
2.06300 -0.08250 2.07050 -0.07500 t
2.09300 -0.10500 2.09300 -0.08250 t
2.09300 -0.08250 2.10050 -0.07500 t
2.07050 -0.07500 2.08550 -0.07500 t
2.08550 -0.07500 2.09300 -0.08250 t
2.11850 -0.10500 2.14850 -0.07500 t
2.11850 -0.07500 2.14850 -0.10500 t
0.00750 setlinewidth
2.16650 -0.12000 2.16650 -0.11850 t
0.00600 setlinewidth
2.16650 -0.09750 2.16650 -0.07500 t
2.18900 -0.09750 2.18900 -0.07500 t
2.18900 -0.09750 2.19650 -0.10500 t
2.19650 -0.10500 2.20400 -0.10500 t
2.20400 -0.10500 2.21150 -0.09750 t
2.21150 -0.09750 2.21150 -0.07500 t
2.21150 -0.09750 2.21900 -0.10500 t
2.21900 -0.10500 2.22650 -0.10500 t
2.22650 -0.10500 2.23400 -0.09750 t
2.23400 -0.09750 2.23400 -0.07500 t
2.18150 -0.10500 2.18900 -0.09750 t
2.25200 -0.10500 2.25200 -0.08250 t
2.25200 -0.08250 2.25950 -0.07500 t
2.25950 -0.07500 2.27450 -0.07500 t
2.27450 -0.07500 2.28200 -0.08250 t
2.28200 -0.10500 2.28200 -0.08250 t
2.30750 -0.09750 2.30750 -0.07500 t
2.30750 -0.09750 2.31500 -0.10500 t
2.31500 -0.10500 2.32250 -0.10500 t
2.32250 -0.10500 2.33000 -0.09750 t
2.33000 -0.09750 2.33000 -0.07500 t
2.33000 -0.09750 2.33750 -0.10500 t
2.33750 -0.10500 2.34500 -0.10500 t
2.34500 -0.10500 2.35250 -0.09750 t
2.35250 -0.09750 2.35250 -0.07500 t
2.30000 -0.10500 2.30750 -0.09750 t
2.40500 -0.13500 2.40500 -0.07500 t
2.42450 -0.13500 2.43500 -0.12450 t
2.43500 -0.12450 2.43500 -0.08550 t
2.42450 -0.07500 2.43500 -0.08550 t
2.39750 -0.07500 2.42450 -0.07500 t
2.39750 -0.13500 2.42450 -0.13500 t
0.00750 setlinewidth
2.45300 -0.12000 2.45300 -0.11850 t
0.00600 setlinewidth
2.45300 -0.09750 2.45300 -0.07500 t
2.47550 -0.09750 2.47550 -0.07500 t
2.47550 -0.09750 2.48300 -0.10500 t
2.48300 -0.10500 2.49050 -0.10500 t
2.49050 -0.10500 2.49800 -0.09750 t
2.49800 -0.09750 2.49800 -0.07500 t
2.49800 -0.09750 2.50550 -0.10500 t
2.50550 -0.10500 2.51300 -0.10500 t
2.51300 -0.10500 2.52050 -0.09750 t
2.52050 -0.09750 2.52050 -0.07500 t
2.46800 -0.10500 2.47550 -0.09750 t
2.54600 -0.07500 2.56850 -0.07500 t
2.53850 -0.08250 2.54600 -0.07500 t
2.53850 -0.09750 2.53850 -0.08250 t
2.53850 -0.09750 2.54600 -0.10500 t
2.54600 -0.10500 2.56100 -0.10500 t
2.56100 -0.10500 2.56850 -0.09750 t
2.53850 -0.09000 2.56850 -0.09000 t
2.56850 -0.09750 2.56850 -0.09000 t
2.59400 -0.09750 2.59400 -0.07500 t
2.59400 -0.09750 2.60150 -0.10500 t
2.60150 -0.10500 2.60900 -0.10500 t
2.60900 -0.10500 2.61650 -0.09750 t
2.61650 -0.09750 2.61650 -0.07500 t
2.58650 -0.10500 2.59400 -0.09750 t
2.64200 -0.07500 2.66450 -0.07500 t
2.66450 -0.07500 2.67200 -0.08250 t
2.66450 -0.09000 2.67200 -0.08250 t
2.64200 -0.09000 2.66450 -0.09000 t
2.63450 -0.09750 2.64200 -0.09000 t
2.63450 -0.09750 2.64200 -0.10500 t
2.64200 -0.10500 2.66450 -0.10500 t
2.66450 -0.10500 2.67200 -0.09750 t
2.63450 -0.08250 2.64200 -0.07500 t
0.00750 setlinewidth
2.69000 -0.12000 2.69000 -0.11850 t
0.00600 setlinewidth
2.69000 -0.09750 2.69000 -0.07500 t
2.70500 -0.09750 2.70500 -0.08250 t
2.70500 -0.09750 2.71250 -0.10500 t
2.71250 -0.10500 2.72750 -0.10500 t
2.72750 -0.10500 2.73500 -0.09750 t
2.73500 -0.09750 2.73500 -0.08250 t
2.72750 -0.07500 2.73500 -0.08250 t
2.71250 -0.07500 2.72750 -0.07500 t
2.70500 -0.08250 2.71250 -0.07500 t
2.76050 -0.09750 2.76050 -0.07500 t
2.76050 -0.09750 2.76800 -0.10500 t
2.76800 -0.10500 2.77550 -0.10500 t
2.77550 -0.10500 2.78300 -0.09750 t
2.78300 -0.09750 2.78300 -0.07500 t
2.75300 -0.10500 2.76050 -0.09750 t
2.80850 -0.07500 2.83100 -0.07500 t
2.83100 -0.07500 2.83850 -0.08250 t
2.83100 -0.09000 2.83850 -0.08250 t
2.80850 -0.09000 2.83100 -0.09000 t
2.80100 -0.09750 2.80850 -0.09000 t
2.80100 -0.09750 2.80850 -0.10500 t
2.80850 -0.10500 2.83100 -0.10500 t
2.83100 -0.10500 2.83850 -0.09750 t
2.80100 -0.08250 2.80850 -0.07500 t
2.85650 -0.11250 2.86400 -0.11250 t
2.85650 -0.09750 2.86400 -0.09750 t
2.90900 -0.13500 2.93900 -0.13500 t
2.90900 -0.13500 2.90900 -0.10500 t
2.90900 -0.10500 2.91650 -0.11250 t
2.91650 -0.11250 2.93150 -0.11250 t
2.93150 -0.11250 2.93900 -0.10500 t
2.93900 -0.10500 2.93900 -0.08250 t
2.93150 -0.07500 2.93900 -0.08250 t
2.91650 -0.07500 2.93150 -0.07500 t
2.90900 -0.08250 2.91650 -0.07500 t
2.95700 -0.08250 2.96450 -0.07500 t
2.95700 -0.09450 2.95700 -0.08250 t
2.95700 -0.09450 2.96750 -0.10500 t
2.96750 -0.10500 2.97650 -0.10500 t
2.97650 -0.10500 2.98700 -0.09450 t
2.98700 -0.09450 2.98700 -0.08250 t
2.97950 -0.07500 2.98700 -0.08250 t
2.96450 -0.07500 2.97950 -0.07500 t
2.95700 -0.11550 2.96750 -0.10500 t
2.95700 -0.12750 2.95700 -0.11550 t
2.95700 -0.12750 2.96450 -0.13500 t
2.96450 -0.13500 2.97950 -0.13500 t
2.97950 -0.13500 2.98700 -0.12750 t
2.98700 -0.12750 2.98700 -0.11550 t
2.97650 -0.10500 2.98700 -0.11550 t
3.00500 -0.08250 3.01250 -0.07500 t
3.00500 -0.12750 3.00500 -0.08250 t
3.00500 -0.12750 3.01250 -0.13500 t
3.01250 -0.13500 3.02750 -0.13500 t
3.02750 -0.13500 3.03500 -0.12750 t
3.03500 -0.12750 3.03500 -0.08250 t
3.02750 -0.07500 3.03500 -0.08250 t
3.01250 -0.07500 3.02750 -0.07500 t
3.00500 -0.09000 3.03500 -0.12000 t
3.05300 -0.07500 3.06050 -0.07500 t
3.08600 -0.07500 3.11600 -0.13500 t
3.07850 -0.13500 3.11600 -0.13500 t
3.13400 -0.08250 3.14150 -0.07500 t
3.13400 -0.12750 3.13400 -0.08250 t
3.13400 -0.12750 3.14150 -0.13500 t
3.14150 -0.13500 3.15650 -0.13500 t
3.15650 -0.13500 3.16400 -0.12750 t
3.16400 -0.12750 3.16400 -0.08250 t
3.15650 -0.07500 3.16400 -0.08250 t
3.14150 -0.07500 3.15650 -0.07500 t
3.13400 -0.09000 3.16400 -0.12000 t
3.18200 -0.08250 3.18950 -0.07500 t
3.18200 -0.09450 3.18200 -0.08250 t
3.18200 -0.09450 3.19250 -0.10500 t
3.19250 -0.10500 3.20150 -0.10500 t
3.20150 -0.10500 3.21200 -0.09450 t
3.21200 -0.09450 3.21200 -0.08250 t
3.20450 -0.07500 3.21200 -0.08250 t
3.18950 -0.07500 3.20450 -0.07500 t
3.18200 -0.11550 3.19250 -0.10500 t
3.18200 -0.12750 3.18200 -0.11550 t
3.18200 -0.12750 3.18950 -0.13500 t
3.18950 -0.13500 3.20450 -0.13500 t
3.20450 -0.13500 3.21200 -0.12750 t
3.21200 -0.12750 3.21200 -0.11550 t
3.20150 -0.10500 3.21200 -0.11550 t
3.25250 -0.13500 3.26000 -0.12750 t
3.23750 -0.13500 3.25250 -0.13500 t
3.23000 -0.12750 3.23750 -0.13500 t
3.23000 -0.12750 3.23000 -0.08250 t
3.23000 -0.08250 3.23750 -0.07500 t
3.25250 -0.10800 3.26000 -0.10050 t
3.23000 -0.10800 3.25250 -0.10800 t
3.23750 -0.07500 3.25250 -0.07500 t
3.25250 -0.07500 3.26000 -0.08250 t
3.26000 -0.10050 3.26000 -0.08250 t
3.30050 -0.13500 3.30800 -0.12750 t
3.28550 -0.13500 3.30050 -0.13500 t
3.27800 -0.12750 3.28550 -0.13500 t
3.27800 -0.12750 3.27800 -0.08250 t
3.27800 -0.08250 3.28550 -0.07500 t
3.30050 -0.10800 3.30800 -0.10050 t
3.27800 -0.10800 3.30050 -0.10800 t
3.28550 -0.07500 3.30050 -0.07500 t
3.30050 -0.07500 3.30800 -0.08250 t
3.30800 -0.10050 3.30800 -0.08250 t
3.32600 -0.12300 3.33800 -0.13500 t
3.33800 -0.13500 3.33800 -0.07500 t
3.32600 -0.07500 3.34850 -0.07500 t
3.40100 -0.09750 3.40100 -0.07500 t
3.40100 -0.09750 3.40850 -0.10500 t
3.40850 -0.10500 3.41600 -0.10500 t
3.41600 -0.10500 3.42350 -0.09750 t
3.42350 -0.09750 3.42350 -0.07500 t
3.42350 -0.09750 3.43100 -0.10500 t
3.43100 -0.10500 3.43850 -0.10500 t
3.43850 -0.10500 3.44600 -0.09750 t
3.44600 -0.09750 3.44600 -0.07500 t
3.39350 -0.10500 3.40100 -0.09750 t
0.00750 setlinewidth
3.46400 -0.12000 3.46400 -0.11850 t
0.00600 setlinewidth
3.46400 -0.09750 3.46400 -0.07500 t
3.47900 -0.13500 3.47900 -0.08250 t
3.47900 -0.08250 3.48650 -0.07500 t
3.50900 -0.07500 3.53150 -0.07500 t
3.53150 -0.07500 3.53900 -0.08250 t
3.53150 -0.09000 3.53900 -0.08250 t
3.50900 -0.09000 3.53150 -0.09000 t
3.50150 -0.09750 3.50900 -0.09000 t
3.50150 -0.09750 3.50900 -0.10500 t
3.50900 -0.10500 3.53150 -0.10500 t
3.53150 -0.10500 3.53900 -0.09750 t
3.50150 -0.08250 3.50900 -0.07500 t
3.58400 -0.10500 3.58400 -0.08250 t
3.58400 -0.08250 3.59150 -0.07500 t
3.59150 -0.07500 3.59900 -0.07500 t
3.59900 -0.07500 3.60650 -0.08250 t
3.60650 -0.10500 3.60650 -0.08250 t
3.60650 -0.08250 3.61400 -0.07500 t
3.61400 -0.07500 3.62150 -0.07500 t
3.62150 -0.07500 3.62900 -0.08250 t
3.62900 -0.10500 3.62900 -0.08250 t
0.00750 setlinewidth
3.64700 -0.12000 3.64700 -0.11850 t
0.00600 setlinewidth
3.64700 -0.09750 3.64700 -0.07500 t
3.69200 -0.13500 3.69200 -0.07500 t
3.68450 -0.07500 3.69200 -0.08250 t
3.66950 -0.07500 3.68450 -0.07500 t
3.66200 -0.08250 3.66950 -0.07500 t
3.66200 -0.09750 3.66200 -0.08250 t
3.66200 -0.09750 3.66950 -0.10500 t
3.66950 -0.10500 3.68450 -0.10500 t
3.68450 -0.10500 3.69200 -0.09750 t
3.71750 -0.07500 3.74000 -0.07500 t
3.71000 -0.08250 3.71750 -0.07500 t
3.71000 -0.09750 3.71000 -0.08250 t
3.71000 -0.09750 3.71750 -0.10500 t
3.71750 -0.10500 3.73250 -0.10500 t
3.73250 -0.10500 3.74000 -0.09750 t
3.71000 -0.09000 3.74000 -0.09000 t
3.74000 -0.09750 3.74000 -0.09000 t
3.75800 -0.06000 3.77300 -0.07500 t
3.82550 -0.07500 3.85550 -0.13500 t
3.81800 -0.13500 3.85550 -0.13500 t
3.89600 -0.13500 3.90350 -0.12750 t
3.88100 -0.13500 3.89600 -0.13500 t
3.87350 -0.12750 3.88100 -0.13500 t
3.87350 -0.12750 3.87350 -0.08250 t
3.87350 -0.08250 3.88100 -0.07500 t
3.89600 -0.10800 3.90350 -0.10050 t
3.87350 -0.10800 3.89600 -0.10800 t
3.88100 -0.07500 3.89600 -0.07500 t
3.89600 -0.07500 3.90350 -0.08250 t
3.90350 -0.10050 3.90350 -0.08250 t
3.92900 -0.07500 3.95900 -0.13500 t
3.92150 -0.13500 3.95900 -0.13500 t
3.97700 -0.07500 3.98450 -0.07500 t
4.01000 -0.07500 4.04000 -0.13500 t
4.00250 -0.13500 4.04000 -0.13500 t
4.05800 -0.12300 4.07000 -0.13500 t
4.07000 -0.13500 4.07000 -0.07500 t
4.05800 -0.07500 4.08050 -0.07500 t
4.12100 -0.13500 4.12850 -0.12750 t
4.10600 -0.13500 4.12100 -0.13500 t
4.09850 -0.12750 4.10600 -0.13500 t
4.09850 -0.12750 4.09850 -0.08250 t
4.09850 -0.08250 4.10600 -0.07500 t
4.12100 -0.10800 4.12850 -0.10050 t
4.09850 -0.10800 4.12100 -0.10800 t
4.10600 -0.07500 4.12100 -0.07500 t
4.12100 -0.07500 4.12850 -0.08250 t
4.12850 -0.10050 4.12850 -0.08250 t
4.14650 -0.13500 4.17650 -0.13500 t
4.14650 -0.13500 4.14650 -0.10500 t
4.14650 -0.10500 4.15400 -0.11250 t
4.15400 -0.11250 4.16900 -0.11250 t
4.16900 -0.11250 4.17650 -0.10500 t
4.17650 -0.10500 4.17650 -0.08250 t
4.16900 -0.07500 4.17650 -0.08250 t
4.15400 -0.07500 4.16900 -0.07500 t
4.14650 -0.08250 4.15400 -0.07500 t
4.19450 -0.12750 4.20200 -0.13500 t
4.20200 -0.13500 4.21700 -0.13500 t
4.21700 -0.13500 4.22450 -0.12750 t
4.21700 -0.07500 4.22450 -0.08250 t
4.20200 -0.07500 4.21700 -0.07500 t
4.19450 -0.08250 4.20200 -0.07500 t
4.20200 -0.10800 4.21700 -0.10800 t
4.22450 -0.12750 4.22450 -0.11550 t
4.22450 -0.10050 4.22450 -0.08250 t
4.22450 -0.10050 4.21700 -0.10800 t
4.22450 -0.11550 4.21700 -0.10800 t
4.24250 -0.13500 4.27250 -0.13500 t
4.24250 -0.13500 4.24250 -0.10500 t
4.24250 -0.10500 4.25000 -0.11250 t
4.25000 -0.11250 4.26500 -0.11250 t
4.26500 -0.11250 4.27250 -0.10500 t
4.27250 -0.10500 4.27250 -0.08250 t
4.26500 -0.07500 4.27250 -0.08250 t
4.25000 -0.07500 4.26500 -0.07500 t
4.24250 -0.08250 4.25000 -0.07500 t
4.32500 -0.09750 4.32500 -0.07500 t
4.32500 -0.09750 4.33250 -0.10500 t
4.33250 -0.10500 4.34000 -0.10500 t
4.34000 -0.10500 4.34750 -0.09750 t
4.34750 -0.09750 4.34750 -0.07500 t
4.34750 -0.09750 4.35500 -0.10500 t
4.35500 -0.10500 4.36250 -0.10500 t
4.36250 -0.10500 4.37000 -0.09750 t
4.37000 -0.09750 4.37000 -0.07500 t
4.31750 -0.10500 4.32500 -0.09750 t
0.00750 setlinewidth
4.38800 -0.12000 4.38800 -0.11850 t
0.00600 setlinewidth
4.38800 -0.09750 4.38800 -0.07500 t
4.40300 -0.13500 4.40300 -0.08250 t
4.40300 -0.08250 4.41050 -0.07500 t
4.43300 -0.07500 4.45550 -0.07500 t
4.45550 -0.07500 4.46300 -0.08250 t
4.45550 -0.09000 4.46300 -0.08250 t
4.43300 -0.09000 4.45550 -0.09000 t
4.42550 -0.09750 4.43300 -0.09000 t
4.42550 -0.09750 4.43300 -0.10500 t
4.43300 -0.10500 4.45550 -0.10500 t
4.45550 -0.10500 4.46300 -0.09750 t
4.42550 -0.08250 4.43300 -0.07500 t
4.50800 -0.13500 4.50800 -0.07500 t
4.50800 -0.09750 4.51550 -0.10500 t
4.51550 -0.10500 4.53050 -0.10500 t
4.53050 -0.10500 4.53800 -0.09750 t
4.53800 -0.09750 4.53800 -0.07500 t
0.00750 setlinewidth
4.55600 -0.12000 4.55600 -0.11850 t
0.00600 setlinewidth
4.55600 -0.09750 4.55600 -0.07500 t
4.59350 -0.10500 4.60100 -0.09750 t
4.57850 -0.10500 4.59350 -0.10500 t
4.57100 -0.09750 4.57850 -0.10500 t
4.57100 -0.09750 4.57100 -0.08250 t
4.57100 -0.08250 4.57850 -0.07500 t
4.57850 -0.07500 4.59350 -0.07500 t
4.59350 -0.07500 4.60100 -0.08250 t
4.57100 -0.06000 4.57850 -0.05250 t
4.57850 -0.05250 4.59350 -0.05250 t
4.59350 -0.05250 4.60100 -0.06000 t
4.60100 -0.10500 4.60100 -0.06000 t
4.61900 -0.13500 4.61900 -0.07500 t
4.61900 -0.09750 4.62650 -0.10500 t
4.62650 -0.10500 4.64150 -0.10500 t
4.64150 -0.10500 4.64900 -0.09750 t
4.64900 -0.09750 4.64900 -0.07500 t
0.00000 0.86272 0.03000 0.86272 t
0.03000 0.86272 0.03750 0.85522 t
0.03750 0.83722 0.03750 0.85522 t
0.03000 0.82972 0.03750 0.83722 t
0.00750 0.82972 0.03000 0.82972 t
0.00750 0.80272 0.00750 0.86272 t
0.00000 0.80272 0.03000 0.80272 t
0.03000 0.80272 0.03750 0.81022 t
0.03750 0.81022 0.03750 0.82222 t
0.03000 0.82972 0.03750 0.82222 t
0.05550 0.84022 0.05550 0.85522 t
0.05550 0.84022 0.06300 0.83272 t
0.06300 0.83272 0.07800 0.83272 t
0.07800 0.83272 0.08550 0.84022 t
0.08550 0.84022 0.08550 0.85522 t
0.07800 0.86272 0.08550 0.85522 t
0.06300 0.86272 0.07800 0.86272 t
0.05550 0.85522 0.06300 0.86272 t
0.12600 0.83272 0.13350 0.84022 t
0.11100 0.83272 0.12600 0.83272 t
0.10350 0.84022 0.11100 0.83272 t
0.10350 0.84022 0.10350 0.85522 t
0.10350 0.85522 0.11100 0.86272 t
0.13350 0.83272 0.13350 0.85522 t
0.13350 0.85522 0.14100 0.86272 t
0.11100 0.86272 0.12600 0.86272 t
0.12600 0.86272 0.13350 0.85522 t
0.16650 0.84022 0.16650 0.86272 t
0.16650 0.84022 0.17400 0.83272 t
0.17400 0.83272 0.18900 0.83272 t
0.15900 0.83272 0.16650 0.84022 t
0.23700 0.80272 0.23700 0.86272 t
0.22950 0.86272 0.23700 0.85522 t
0.21450 0.86272 0.22950 0.86272 t
0.20700 0.85522 0.21450 0.86272 t
0.20700 0.84022 0.20700 0.85522 t
0.20700 0.84022 0.21450 0.83272 t
0.21450 0.83272 0.22950 0.83272 t
0.22950 0.83272 0.23700 0.84022 t
0.28200 0.84022 0.28200 0.85522 t
0.28200 0.84022 0.28950 0.83272 t
0.28950 0.83272 0.30450 0.83272 t
0.30450 0.83272 0.31200 0.84022 t
0.31200 0.84022 0.31200 0.85522 t
0.30450 0.86272 0.31200 0.85522 t
0.28950 0.86272 0.30450 0.86272 t
0.28200 0.85522 0.28950 0.86272 t
0.33000 0.83272 0.33000 0.85522 t
0.33000 0.85522 0.33750 0.86272 t
0.33750 0.86272 0.35250 0.86272 t
0.35250 0.86272 0.36000 0.85522 t
0.36000 0.83272 0.36000 0.85522 t
0.38550 0.80272 0.38550 0.85522 t
0.38550 0.85522 0.39300 0.86272 t
0.37800 0.82522 0.39300 0.82522 t
0.40800 0.80272 0.40800 0.85522 t
0.40800 0.85522 0.41550 0.86272 t
0.00750 setlinewidth
0.43050 0.81772 0.43050 0.81922 t
0.00600 setlinewidth
0.43050 0.84022 0.43050 0.86272 t
0.45300 0.84022 0.45300 0.86272 t
0.45300 0.84022 0.46050 0.83272 t
0.46050 0.83272 0.46800 0.83272 t
0.46800 0.83272 0.47550 0.84022 t
0.47550 0.84022 0.47550 0.86272 t
0.44550 0.83272 0.45300 0.84022 t
0.50100 0.86272 0.52350 0.86272 t
0.49350 0.85522 0.50100 0.86272 t
0.49350 0.84022 0.49350 0.85522 t
0.49350 0.84022 0.50100 0.83272 t
0.50100 0.83272 0.51600 0.83272 t
0.51600 0.83272 0.52350 0.84022 t
0.49350 0.84772 0.52350 0.84772 t
0.52350 0.84022 0.52350 0.84772 t
0.00750 setlinewidth
0.56850 0.81772 0.56850 0.81922 t
0.00600 setlinewidth
0.56850 0.84022 0.56850 0.86272 t
0.59100 0.86272 0.61350 0.86272 t
0.61350 0.86272 0.62100 0.85522 t
0.61350 0.84772 0.62100 0.85522 t
0.59100 0.84772 0.61350 0.84772 t
0.58350 0.84022 0.59100 0.84772 t
0.58350 0.84022 0.59100 0.83272 t
0.59100 0.83272 0.61350 0.83272 t
0.61350 0.83272 0.62100 0.84022 t
0.58350 0.85522 0.59100 0.86272 t
0.67350 0.80272 0.67350 0.85522 t
0.67350 0.85522 0.68100 0.86272 t
0.66600 0.82522 0.68100 0.82522 t
0.69600 0.80272 0.69600 0.86272 t
0.69600 0.84022 0.70350 0.83272 t
0.70350 0.83272 0.71850 0.83272 t
0.71850 0.83272 0.72600 0.84022 t
0.72600 0.84022 0.72600 0.86272 t
0.75150 0.86272 0.77400 0.86272 t
0.74400 0.85522 0.75150 0.86272 t
0.74400 0.84022 0.74400 0.85522 t
0.74400 0.84022 0.75150 0.83272 t
0.75150 0.83272 0.76650 0.83272 t
0.76650 0.83272 0.77400 0.84022 t
0.74400 0.84772 0.77400 0.84772 t
0.77400 0.84022 0.77400 0.84772 t
0.82650 0.83272 0.84900 0.83272 t
0.81900 0.84022 0.82650 0.83272 t
0.81900 0.84022 0.81900 0.85522 t
0.81900 0.85522 0.82650 0.86272 t
0.82650 0.86272 0.84900 0.86272 t
0.87450 0.86272 0.89700 0.86272 t
0.86700 0.85522 0.87450 0.86272 t
0.86700 0.84022 0.86700 0.85522 t
0.86700 0.84022 0.87450 0.83272 t
0.87450 0.83272 0.88950 0.83272 t
0.88950 0.83272 0.89700 0.84022 t
0.86700 0.84772 0.89700 0.84772 t
0.89700 0.84022 0.89700 0.84772 t
0.92250 0.84022 0.92250 0.86272 t
0.92250 0.84022 0.93000 0.83272 t
0.93000 0.83272 0.93750 0.83272 t
0.93750 0.83272 0.94500 0.84022 t
0.94500 0.84022 0.94500 0.86272 t
0.91500 0.83272 0.92250 0.84022 t
0.97050 0.80272 0.97050 0.85522 t
0.97050 0.85522 0.97800 0.86272 t
0.96300 0.82522 0.97800 0.82522 t
1.00050 0.86272 1.02300 0.86272 t
0.99300 0.85522 1.00050 0.86272 t
0.99300 0.84022 0.99300 0.85522 t
0.99300 0.84022 1.00050 0.83272 t
1.00050 0.83272 1.01550 0.83272 t
1.01550 0.83272 1.02300 0.84022 t
0.99300 0.84772 1.02300 0.84772 t
1.02300 0.84022 1.02300 0.84772 t
1.04850 0.84022 1.04850 0.86272 t
1.04850 0.84022 1.05600 0.83272 t
1.05600 0.83272 1.07100 0.83272 t
1.04100 0.83272 1.04850 0.84022 t
1.08900 0.80272 1.08900 0.85522 t
1.08900 0.85522 1.09650 0.86272 t
0.00750 setlinewidth
1.11150 0.81772 1.11150 0.81922 t
0.00600 setlinewidth
1.11150 0.84022 1.11150 0.86272 t
1.13400 0.84022 1.13400 0.86272 t
1.13400 0.84022 1.14150 0.83272 t
1.14150 0.83272 1.14900 0.83272 t
1.14900 0.83272 1.15650 0.84022 t
1.15650 0.84022 1.15650 0.86272 t
1.12650 0.83272 1.13400 0.84022 t
1.18200 0.86272 1.20450 0.86272 t
1.17450 0.85522 1.18200 0.86272 t
1.17450 0.84022 1.17450 0.85522 t
1.17450 0.84022 1.18200 0.83272 t
1.18200 0.83272 1.19700 0.83272 t
1.19700 0.83272 1.20450 0.84022 t
1.17450 0.84772 1.20450 0.84772 t
1.20450 0.84022 1.20450 0.84772 t
1.24950 0.84022 1.24950 0.85522 t
1.24950 0.84022 1.25700 0.83272 t
1.25700 0.83272 1.27200 0.83272 t
1.27200 0.83272 1.27950 0.84022 t
1.27950 0.84022 1.27950 0.85522 t
1.27200 0.86272 1.27950 0.85522 t
1.25700 0.86272 1.27200 0.86272 t
1.24950 0.85522 1.25700 0.86272 t
1.30500 0.81022 1.30500 0.86272 t
1.30500 0.81022 1.31250 0.80272 t
1.31250 0.80272 1.32000 0.80272 t
1.29750 0.83272 1.31250 0.83272 t
1.36950 0.80272 1.36950 0.85522 t
1.36950 0.85522 1.37700 0.86272 t
1.36200 0.82522 1.37700 0.82522 t
1.39200 0.80272 1.39200 0.86272 t
1.39200 0.84022 1.39950 0.83272 t
1.39950 0.83272 1.41450 0.83272 t
1.41450 0.83272 1.42200 0.84022 t
1.42200 0.84022 1.42200 0.86272 t
0.00750 setlinewidth
1.44000 0.81772 1.44000 0.81922 t
0.00600 setlinewidth
1.44000 0.84022 1.44000 0.86272 t
1.46250 0.86272 1.48500 0.86272 t
1.48500 0.86272 1.49250 0.85522 t
1.48500 0.84772 1.49250 0.85522 t
1.46250 0.84772 1.48500 0.84772 t
1.45500 0.84022 1.46250 0.84772 t
1.45500 0.84022 1.46250 0.83272 t
1.46250 0.83272 1.48500 0.83272 t
1.48500 0.83272 1.49250 0.84022 t
1.45500 0.85522 1.46250 0.86272 t
1.53750 0.85522 1.54500 0.86272 t
1.53750 0.84322 1.53750 0.85522 t
1.53750 0.84322 1.54800 0.83272 t
1.54800 0.83272 1.55700 0.83272 t
1.55700 0.83272 1.56750 0.84322 t
1.56750 0.84322 1.56750 0.85522 t
1.56000 0.86272 1.56750 0.85522 t
1.54500 0.86272 1.56000 0.86272 t
1.53750 0.82222 1.54800 0.83272 t
1.53750 0.81022 1.53750 0.82222 t
1.53750 0.81022 1.54500 0.80272 t
1.54500 0.80272 1.56000 0.80272 t
1.56000 0.80272 1.56750 0.81022 t
1.56750 0.81022 1.56750 0.82222 t
1.55700 0.83272 1.56750 0.82222 t
1.58550 0.86272 1.59300 0.86272 t
1.61100 0.85522 1.61850 0.86272 t
1.61100 0.81022 1.61100 0.85522 t
1.61100 0.81022 1.61850 0.80272 t
1.61850 0.80272 1.63350 0.80272 t
1.63350 0.80272 1.64100 0.81022 t
1.64100 0.81022 1.64100 0.85522 t
1.63350 0.86272 1.64100 0.85522 t
1.61850 0.86272 1.63350 0.86272 t
1.61100 0.84772 1.64100 0.81772 t
1.65900 0.85522 1.66650 0.86272 t
1.65900 0.81022 1.65900 0.85522 t
1.65900 0.81022 1.66650 0.80272 t
1.66650 0.80272 1.68150 0.80272 t
1.68150 0.80272 1.68900 0.81022 t
1.68900 0.81022 1.68900 0.85522 t
1.68150 0.86272 1.68900 0.85522 t
1.66650 0.86272 1.68150 0.86272 t
1.65900 0.84772 1.68900 0.81772 t
1.70700 0.85522 1.71450 0.86272 t
1.70700 0.81022 1.70700 0.85522 t
1.70700 0.81022 1.71450 0.80272 t
1.71450 0.80272 1.72950 0.80272 t
1.72950 0.80272 1.73700 0.81022 t
1.73700 0.81022 1.73700 0.85522 t
1.72950 0.86272 1.73700 0.85522 t
1.71450 0.86272 1.72950 0.86272 t
1.70700 0.84772 1.73700 0.81772 t
1.75500 0.85522 1.76250 0.86272 t
1.75500 0.81022 1.75500 0.85522 t
1.75500 0.81022 1.76250 0.80272 t
1.76250 0.80272 1.77750 0.80272 t
1.77750 0.80272 1.78500 0.81022 t
1.78500 0.81022 1.78500 0.85522 t
1.77750 0.86272 1.78500 0.85522 t
1.76250 0.86272 1.77750 0.86272 t
1.75500 0.84772 1.78500 0.81772 t
1.80300 0.85522 1.81050 0.86272 t
1.80300 0.81022 1.80300 0.85522 t
1.80300 0.81022 1.81050 0.80272 t
1.81050 0.80272 1.82550 0.80272 t
1.82550 0.80272 1.83300 0.81022 t
1.83300 0.81022 1.83300 0.85522 t
1.82550 0.86272 1.83300 0.85522 t
1.81050 0.86272 1.82550 0.86272 t
1.80300 0.84772 1.83300 0.81772 t
1.85100 0.85522 1.85850 0.86272 t
1.85100 0.81022 1.85100 0.85522 t
1.85100 0.81022 1.85850 0.80272 t
1.85850 0.80272 1.87350 0.80272 t
1.87350 0.80272 1.88100 0.81022 t
1.88100 0.81022 1.88100 0.85522 t
1.87350 0.86272 1.88100 0.85522 t
1.85850 0.86272 1.87350 0.86272 t
1.85100 0.84772 1.88100 0.81772 t
1.93350 0.84022 1.93350 0.86272 t
1.93350 0.84022 1.94100 0.83272 t
1.94100 0.83272 1.94850 0.83272 t
1.94850 0.83272 1.95600 0.84022 t
1.95600 0.84022 1.95600 0.86272 t
1.95600 0.84022 1.96350 0.83272 t
1.96350 0.83272 1.97100 0.83272 t
1.97100 0.83272 1.97850 0.84022 t
1.97850 0.84022 1.97850 0.86272 t
1.92600 0.83272 1.93350 0.84022 t
0.00750 setlinewidth
1.99650 0.81772 1.99650 0.81922 t
0.00600 setlinewidth
1.99650 0.84022 1.99650 0.86272 t
2.01150 0.80272 2.01150 0.85522 t
2.01150 0.85522 2.01900 0.86272 t
2.06850 0.84022 2.06850 0.86272 t
2.06850 0.84022 2.07600 0.83272 t
2.07600 0.83272 2.09100 0.83272 t
2.06100 0.83272 2.06850 0.84022 t
2.11650 0.86272 2.13900 0.86272 t
2.10900 0.85522 2.11650 0.86272 t
2.10900 0.84022 2.10900 0.85522 t
2.10900 0.84022 2.11650 0.83272 t
2.11650 0.83272 2.13150 0.83272 t
2.13150 0.83272 2.13900 0.84022 t
2.10900 0.84772 2.13900 0.84772 t
2.13900 0.84022 2.13900 0.84772 t
2.16450 0.83272 2.18700 0.83272 t
2.15700 0.84022 2.16450 0.83272 t
2.15700 0.84022 2.15700 0.85522 t
2.15700 0.85522 2.16450 0.86272 t
2.16450 0.86272 2.18700 0.86272 t
2.21250 0.80272 2.21250 0.85522 t
2.21250 0.85522 2.22000 0.86272 t
2.20500 0.82522 2.22000 0.82522 t
2.25750 0.83272 2.26500 0.84022 t
2.24250 0.83272 2.25750 0.83272 t
2.23500 0.84022 2.24250 0.83272 t
2.23500 0.84022 2.23500 0.85522 t
2.23500 0.85522 2.24250 0.86272 t
2.26500 0.83272 2.26500 0.85522 t
2.26500 0.85522 2.27250 0.86272 t
2.24250 0.86272 2.25750 0.86272 t
2.25750 0.86272 2.26500 0.85522 t
2.29800 0.84022 2.29800 0.86272 t
2.29800 0.84022 2.30550 0.83272 t
2.30550 0.83272 2.31300 0.83272 t
2.31300 0.83272 2.32050 0.84022 t
2.32050 0.84022 2.32050 0.86272 t
2.29050 0.83272 2.29800 0.84022 t
2.36100 0.83272 2.36850 0.84022 t
2.34600 0.83272 2.36100 0.83272 t
2.33850 0.84022 2.34600 0.83272 t
2.33850 0.84022 2.33850 0.85522 t
2.33850 0.85522 2.34600 0.86272 t
2.34600 0.86272 2.36100 0.86272 t
2.36100 0.86272 2.36850 0.85522 t
2.33850 0.87772 2.34600 0.88522 t
2.34600 0.88522 2.36100 0.88522 t
2.36100 0.88522 2.36850 0.87772 t
2.36850 0.83272 2.36850 0.87772 t
2.38650 0.80272 2.38650 0.85522 t
2.38650 0.85522 2.39400 0.86272 t
2.41650 0.86272 2.43900 0.86272 t
2.40900 0.85522 2.41650 0.86272 t
2.40900 0.84022 2.40900 0.85522 t
2.40900 0.84022 2.41650 0.83272 t
2.41650 0.83272 2.43150 0.83272 t
2.43150 0.83272 2.43900 0.84022 t
2.40900 0.84772 2.43900 0.84772 t
2.43900 0.84022 2.43900 0.84772 t
2.48400 0.83272 2.51400 0.83272 t
2.55900 0.85522 2.56650 0.86272 t
2.55900 0.81022 2.55900 0.85522 t
2.55900 0.81022 2.56650 0.80272 t
2.56650 0.80272 2.58150 0.80272 t
2.58150 0.80272 2.58900 0.81022 t
2.58900 0.81022 2.58900 0.85522 t
2.58150 0.86272 2.58900 0.85522 t
2.56650 0.86272 2.58150 0.86272 t
2.55900 0.84772 2.58900 0.81772 t
2.60700 0.87772 2.62200 0.86272 t
2.64000 0.85522 2.64750 0.86272 t
2.64000 0.81022 2.64000 0.85522 t
2.64000 0.81022 2.64750 0.80272 t
2.64750 0.80272 2.66250 0.80272 t
2.66250 0.80272 2.67000 0.81022 t
2.67000 0.81022 2.67000 0.85522 t
2.66250 0.86272 2.67000 0.85522 t
2.64750 0.86272 2.66250 0.86272 t
2.64000 0.84772 2.67000 0.81772 t
2.72250 0.80272 2.72250 0.85522 t
2.72250 0.85522 2.73000 0.86272 t
2.71500 0.82522 2.73000 0.82522 t
2.74500 0.84022 2.74500 0.85522 t
2.74500 0.84022 2.75250 0.83272 t
2.75250 0.83272 2.76750 0.83272 t
2.76750 0.83272 2.77500 0.84022 t
2.77500 0.84022 2.77500 0.85522 t
2.76750 0.86272 2.77500 0.85522 t
2.75250 0.86272 2.76750 0.86272 t
2.74500 0.85522 2.75250 0.86272 t
2.82000 0.80272 2.85000 0.80272 t
2.82000 0.80272 2.82000 0.83272 t
2.82000 0.83272 2.82750 0.82522 t
2.82750 0.82522 2.84250 0.82522 t
2.84250 0.82522 2.85000 0.83272 t
2.85000 0.83272 2.85000 0.85522 t
2.84250 0.86272 2.85000 0.85522 t
2.82750 0.86272 2.84250 0.86272 t
2.82000 0.85522 2.82750 0.86272 t
2.86800 0.85522 2.87550 0.86272 t
2.86800 0.84322 2.86800 0.85522 t
2.86800 0.84322 2.87850 0.83272 t
2.87850 0.83272 2.88750 0.83272 t
2.88750 0.83272 2.89800 0.84322 t
2.89800 0.84322 2.89800 0.85522 t
2.89050 0.86272 2.89800 0.85522 t
2.87550 0.86272 2.89050 0.86272 t
2.86800 0.82222 2.87850 0.83272 t
2.86800 0.81022 2.86800 0.82222 t
2.86800 0.81022 2.87550 0.80272 t
2.87550 0.80272 2.89050 0.80272 t
2.89050 0.80272 2.89800 0.81022 t
2.89800 0.81022 2.89800 0.82222 t
2.88750 0.83272 2.89800 0.82222 t
2.91600 0.85522 2.92350 0.86272 t
2.91600 0.81022 2.91600 0.85522 t
2.91600 0.81022 2.92350 0.80272 t
2.92350 0.80272 2.93850 0.80272 t
2.93850 0.80272 2.94600 0.81022 t
2.94600 0.81022 2.94600 0.85522 t
2.93850 0.86272 2.94600 0.85522 t
2.92350 0.86272 2.93850 0.86272 t
2.91600 0.84772 2.94600 0.81772 t
2.96400 0.86272 2.97150 0.86272 t
2.99700 0.86272 3.02700 0.80272 t
2.98950 0.80272 3.02700 0.80272 t
3.04500 0.85522 3.05250 0.86272 t
3.04500 0.81022 3.04500 0.85522 t
3.04500 0.81022 3.05250 0.80272 t
3.05250 0.80272 3.06750 0.80272 t
3.06750 0.80272 3.07500 0.81022 t
3.07500 0.81022 3.07500 0.85522 t
3.06750 0.86272 3.07500 0.85522 t
3.05250 0.86272 3.06750 0.86272 t
3.04500 0.84772 3.07500 0.81772 t
3.09300 0.85522 3.10050 0.86272 t
3.09300 0.84322 3.09300 0.85522 t
3.09300 0.84322 3.10350 0.83272 t
3.10350 0.83272 3.11250 0.83272 t
3.11250 0.83272 3.12300 0.84322 t
3.12300 0.84322 3.12300 0.85522 t
3.11550 0.86272 3.12300 0.85522 t
3.10050 0.86272 3.11550 0.86272 t
3.09300 0.82222 3.10350 0.83272 t
3.09300 0.81022 3.09300 0.82222 t
3.09300 0.81022 3.10050 0.80272 t
3.10050 0.80272 3.11550 0.80272 t
3.11550 0.80272 3.12300 0.81022 t
3.12300 0.81022 3.12300 0.82222 t
3.11250 0.83272 3.12300 0.82222 t
3.16350 0.80272 3.17100 0.81022 t
3.14850 0.80272 3.16350 0.80272 t
3.14100 0.81022 3.14850 0.80272 t
3.14100 0.81022 3.14100 0.85522 t
3.14100 0.85522 3.14850 0.86272 t
3.16350 0.82972 3.17100 0.83722 t
3.14100 0.82972 3.16350 0.82972 t
3.14850 0.86272 3.16350 0.86272 t
3.16350 0.86272 3.17100 0.85522 t
3.17100 0.83722 3.17100 0.85522 t
3.21150 0.80272 3.21900 0.81022 t
3.19650 0.80272 3.21150 0.80272 t
3.18900 0.81022 3.19650 0.80272 t
3.18900 0.81022 3.18900 0.85522 t
3.18900 0.85522 3.19650 0.86272 t
3.21150 0.82972 3.21900 0.83722 t
3.18900 0.82972 3.21150 0.82972 t
3.19650 0.86272 3.21150 0.86272 t
3.21150 0.86272 3.21900 0.85522 t
3.21900 0.83722 3.21900 0.85522 t
3.23700 0.81472 3.24900 0.80272 t
3.24900 0.80272 3.24900 0.86272 t
3.23700 0.86272 3.25950 0.86272 t
3.27750 0.87772 3.29250 0.86272 t
3.31800 0.86272 3.34800 0.80272 t
3.31050 0.80272 3.34800 0.80272 t
3.38850 0.80272 3.39600 0.81022 t
3.37350 0.80272 3.38850 0.80272 t
3.36600 0.81022 3.37350 0.80272 t
3.36600 0.81022 3.36600 0.85522 t
3.36600 0.85522 3.37350 0.86272 t
3.38850 0.82972 3.39600 0.83722 t
3.36600 0.82972 3.38850 0.82972 t
3.37350 0.86272 3.38850 0.86272 t
3.38850 0.86272 3.39600 0.85522 t
3.39600 0.83722 3.39600 0.85522 t
3.42150 0.86272 3.45150 0.80272 t
3.41400 0.80272 3.45150 0.80272 t
3.46950 0.86272 3.47700 0.86272 t
3.50250 0.86272 3.53250 0.80272 t
3.49500 0.80272 3.53250 0.80272 t
3.55050 0.81472 3.56250 0.80272 t
3.56250 0.80272 3.56250 0.86272 t
3.55050 0.86272 3.57300 0.86272 t
3.61350 0.80272 3.62100 0.81022 t
3.59850 0.80272 3.61350 0.80272 t
3.59100 0.81022 3.59850 0.80272 t
3.59100 0.81022 3.59100 0.85522 t
3.59100 0.85522 3.59850 0.86272 t
3.61350 0.82972 3.62100 0.83722 t
3.59100 0.82972 3.61350 0.82972 t
3.59850 0.86272 3.61350 0.86272 t
3.61350 0.86272 3.62100 0.85522 t
3.62100 0.83722 3.62100 0.85522 t
3.63900 0.80272 3.66900 0.80272 t
3.63900 0.80272 3.63900 0.83272 t
3.63900 0.83272 3.64650 0.82522 t
3.64650 0.82522 3.66150 0.82522 t
3.66150 0.82522 3.66900 0.83272 t
3.66900 0.83272 3.66900 0.85522 t
3.66150 0.86272 3.66900 0.85522 t
3.64650 0.86272 3.66150 0.86272 t
3.63900 0.85522 3.64650 0.86272 t
3.68700 0.81022 3.69450 0.80272 t
3.69450 0.80272 3.70950 0.80272 t
3.70950 0.80272 3.71700 0.81022 t
3.70950 0.86272 3.71700 0.85522 t
3.69450 0.86272 3.70950 0.86272 t
3.68700 0.85522 3.69450 0.86272 t
3.69450 0.82972 3.70950 0.82972 t
3.71700 0.81022 3.71700 0.82222 t
3.71700 0.83722 3.71700 0.85522 t
3.71700 0.83722 3.70950 0.82972 t
3.71700 0.82222 3.70950 0.82972 t
3.73500 0.80272 3.76500 0.80272 t
3.73500 0.80272 3.73500 0.83272 t
3.73500 0.83272 3.74250 0.82522 t
3.74250 0.82522 3.75750 0.82522 t
3.75750 0.82522 3.76500 0.83272 t
3.76500 0.83272 3.76500 0.85522 t
3.75750 0.86272 3.76500 0.85522 t
3.74250 0.86272 3.75750 0.86272 t
3.73500 0.85522 3.74250 0.86272 t
3.81750 0.84022 3.81750 0.86272 t
3.81750 0.84022 3.82500 0.83272 t
3.82500 0.83272 3.83250 0.83272 t
3.83250 0.83272 3.84000 0.84022 t
3.84000 0.84022 3.84000 0.86272 t
3.84000 0.84022 3.84750 0.83272 t
3.84750 0.83272 3.85500 0.83272 t
3.85500 0.83272 3.86250 0.84022 t
3.86250 0.84022 3.86250 0.86272 t
3.81000 0.83272 3.81750 0.84022 t
0.00750 setlinewidth
3.88050 0.81772 3.88050 0.81922 t
0.00600 setlinewidth
3.88050 0.84022 3.88050 0.86272 t
3.89550 0.80272 3.89550 0.85522 t
3.89550 0.85522 3.90300 0.86272 t
3.92550 0.86272 3.94800 0.86272 t
3.94800 0.86272 3.95550 0.85522 t
3.94800 0.84772 3.95550 0.85522 t
3.92550 0.84772 3.94800 0.84772 t
3.91800 0.84022 3.92550 0.84772 t
3.91800 0.84022 3.92550 0.83272 t
3.92550 0.83272 3.94800 0.83272 t
3.94800 0.83272 3.95550 0.84022 t
3.91800 0.85522 3.92550 0.86272 t
2.00750 -0.28500 2.00750 -0.22500 t
2.02700 -0.28500 2.03750 -0.27450 t
2.03750 -0.27450 2.03750 -0.23550 t
2.02700 -0.22500 2.03750 -0.23550 t
2.00000 -0.22500 2.02700 -0.22500 t
2.00000 -0.28500 2.02700 -0.28500 t
2.07800 -0.25500 2.08550 -0.24750 t
2.06300 -0.25500 2.07800 -0.25500 t
2.05550 -0.24750 2.06300 -0.25500 t
2.05550 -0.24750 2.05550 -0.23250 t
2.05550 -0.23250 2.06300 -0.22500 t
2.08550 -0.25500 2.08550 -0.23250 t
2.08550 -0.23250 2.09300 -0.22500 t
2.06300 -0.22500 2.07800 -0.22500 t
2.07800 -0.22500 2.08550 -0.23250 t
2.11850 -0.28500 2.11850 -0.23250 t
2.11850 -0.23250 2.12600 -0.22500 t
2.11100 -0.26250 2.12600 -0.26250 t
2.14850 -0.22500 2.17100 -0.22500 t
2.14100 -0.23250 2.14850 -0.22500 t
2.14100 -0.24750 2.14100 -0.23250 t
2.14100 -0.24750 2.14850 -0.25500 t
2.14850 -0.25500 2.16350 -0.25500 t
2.16350 -0.25500 2.17100 -0.24750 t
2.14100 -0.24000 2.17100 -0.24000 t
2.17100 -0.24750 2.17100 -0.24000 t
2.18900 -0.26250 2.19650 -0.26250 t
2.18900 -0.24750 2.19650 -0.24750 t
2.24150 -0.28500 2.24150 -0.22500 t
2.24150 -0.28500 2.27150 -0.28500 t
2.24150 -0.25800 2.26400 -0.25800 t
2.29700 -0.24750 2.29700 -0.22500 t
2.29700 -0.24750 2.30450 -0.25500 t
2.30450 -0.25500 2.31950 -0.25500 t
2.28950 -0.25500 2.29700 -0.24750 t
0.00750 setlinewidth
2.33750 -0.27000 2.33750 -0.26850 t
0.00600 setlinewidth
2.33750 -0.24750 2.33750 -0.22500 t
2.37950 -0.27750 2.38700 -0.28500 t
2.38700 -0.28500 2.40950 -0.28500 t
2.40950 -0.28500 2.41700 -0.27750 t
2.41700 -0.27750 2.41700 -0.26250 t
2.37950 -0.22500 2.41700 -0.26250 t
2.37950 -0.22500 2.41700 -0.22500 t
2.44250 -0.22500 2.46500 -0.25500 t
2.46500 -0.27750 2.46500 -0.25500 t
2.45750 -0.28500 2.46500 -0.27750 t
2.44250 -0.28500 2.45750 -0.28500 t
2.43500 -0.27750 2.44250 -0.28500 t
2.43500 -0.27750 2.43500 -0.26250 t
2.43500 -0.26250 2.44250 -0.25500 t
2.44250 -0.25500 2.46500 -0.25500 t
2.52050 -0.28500 2.53250 -0.28500 t
2.53250 -0.28500 2.53250 -0.23250 t
2.52500 -0.22500 2.53250 -0.23250 t
2.51750 -0.22500 2.52500 -0.22500 t
2.51000 -0.23250 2.51750 -0.22500 t
2.51000 -0.24000 2.51000 -0.23250 t
2.55050 -0.25500 2.55050 -0.23250 t
2.55050 -0.23250 2.55800 -0.22500 t
2.55800 -0.22500 2.57300 -0.22500 t
2.57300 -0.22500 2.58050 -0.23250 t
2.58050 -0.25500 2.58050 -0.23250 t
2.59850 -0.28500 2.59850 -0.23250 t
2.59850 -0.23250 2.60600 -0.22500 t
2.64800 -0.27750 2.65550 -0.28500 t
2.65550 -0.28500 2.67800 -0.28500 t
2.67800 -0.28500 2.68550 -0.27750 t
2.68550 -0.27750 2.68550 -0.26250 t
2.64800 -0.22500 2.68550 -0.26250 t
2.64800 -0.22500 2.68550 -0.22500 t
2.70350 -0.23250 2.71100 -0.22500 t
2.70350 -0.27750 2.70350 -0.23250 t
2.70350 -0.27750 2.71100 -0.28500 t
2.71100 -0.28500 2.72600 -0.28500 t
2.72600 -0.28500 2.73350 -0.27750 t
2.73350 -0.27750 2.73350 -0.23250 t
2.72600 -0.22500 2.73350 -0.23250 t
2.71100 -0.22500 2.72600 -0.22500 t
2.70350 -0.24000 2.73350 -0.27000 t
2.75150 -0.27300 2.76350 -0.28500 t
2.76350 -0.28500 2.76350 -0.22500 t
2.75150 -0.22500 2.77400 -0.22500 t
2.81450 -0.28500 2.82200 -0.27750 t
2.79950 -0.28500 2.81450 -0.28500 t
2.79200 -0.27750 2.79950 -0.28500 t
2.79200 -0.27750 2.79200 -0.23250 t
2.79200 -0.23250 2.79950 -0.22500 t
2.81450 -0.25800 2.82200 -0.25050 t
2.79200 -0.25800 2.81450 -0.25800 t
2.79950 -0.22500 2.81450 -0.22500 t
2.81450 -0.22500 2.82200 -0.23250 t
2.82200 -0.25050 2.82200 -0.23250 t
2.86700 -0.23250 2.87450 -0.22500 t
2.86700 -0.27750 2.86700 -0.23250 t
2.86700 -0.27750 2.87450 -0.28500 t
2.87450 -0.28500 2.88950 -0.28500 t
2.88950 -0.28500 2.89700 -0.27750 t
2.89700 -0.27750 2.89700 -0.23250 t
2.88950 -0.22500 2.89700 -0.23250 t
2.87450 -0.22500 2.88950 -0.22500 t
2.86700 -0.24000 2.89700 -0.27000 t
2.92250 -0.22500 2.94500 -0.25500 t
2.94500 -0.27750 2.94500 -0.25500 t
2.93750 -0.28500 2.94500 -0.27750 t
2.92250 -0.28500 2.93750 -0.28500 t
2.91500 -0.27750 2.92250 -0.28500 t
2.91500 -0.27750 2.91500 -0.26250 t
2.91500 -0.26250 2.92250 -0.25500 t
2.92250 -0.25500 2.94500 -0.25500 t
2.96300 -0.26250 2.97050 -0.26250 t
2.96300 -0.24750 2.97050 -0.24750 t
2.98850 -0.27750 2.99600 -0.28500 t
2.99600 -0.28500 3.01100 -0.28500 t
3.01100 -0.28500 3.01850 -0.27750 t
3.01100 -0.22500 3.01850 -0.23250 t
2.99600 -0.22500 3.01100 -0.22500 t
2.98850 -0.23250 2.99600 -0.22500 t
2.99600 -0.25800 3.01100 -0.25800 t
3.01850 -0.27750 3.01850 -0.26550 t
3.01850 -0.25050 3.01850 -0.23250 t
3.01850 -0.25050 3.01100 -0.25800 t
3.01850 -0.26550 3.01100 -0.25800 t
3.03650 -0.27300 3.04850 -0.28500 t
3.04850 -0.28500 3.04850 -0.22500 t
3.03650 -0.22500 3.05900 -0.22500 t
3.07700 -0.26250 3.08450 -0.26250 t
3.07700 -0.24750 3.08450 -0.24750 t
3.10250 -0.24750 3.13250 -0.28500 t
3.10250 -0.24750 3.14000 -0.24750 t
3.13250 -0.28500 3.13250 -0.22500 t
3.15800 -0.27750 3.16550 -0.28500 t
3.16550 -0.28500 3.18050 -0.28500 t
3.18050 -0.28500 3.18800 -0.27750 t
3.18050 -0.22500 3.18800 -0.23250 t
3.16550 -0.22500 3.18050 -0.22500 t
3.15800 -0.23250 3.16550 -0.22500 t
3.16550 -0.25800 3.18050 -0.25800 t
3.18800 -0.27750 3.18800 -0.26550 t
3.18800 -0.25050 3.18800 -0.23250 t
3.18800 -0.25050 3.18050 -0.25800 t
3.18800 -0.26550 3.18050 -0.25800 t
3.24050 -0.28500 3.24050 -0.22500 t
3.23300 -0.28500 3.26300 -0.28500 t
3.26300 -0.28500 3.27050 -0.27750 t
3.27050 -0.27750 3.27050 -0.26250 t
3.26300 -0.25500 3.27050 -0.26250 t
3.24050 -0.25500 3.26300 -0.25500 t
3.28850 -0.28500 3.28850 -0.22500 t
3.28850 -0.28500 3.31100 -0.25500 t
3.31100 -0.25500 3.33350 -0.28500 t
3.33350 -0.28500 3.33350 -0.22500 t
3.40850 -0.28500 3.41600 -0.27750 t
3.38600 -0.28500 3.40850 -0.28500 t
3.37850 -0.27750 3.38600 -0.28500 t
3.37850 -0.27750 3.37850 -0.23250 t
3.37850 -0.23250 3.38600 -0.22500 t
3.38600 -0.22500 3.40850 -0.22500 t
3.40850 -0.22500 3.41600 -0.23250 t
3.41600 -0.24750 3.41600 -0.23250 t
3.40850 -0.25500 3.41600 -0.24750 t
3.39350 -0.25500 3.40850 -0.25500 t
3.43400 -0.28500 3.43400 -0.22500 t
3.43400 -0.28500 3.45650 -0.25500 t
3.45650 -0.25500 3.47900 -0.28500 t
3.47900 -0.28500 3.47900 -0.22500 t
3.49700 -0.28500 3.52700 -0.28500 t
3.51200 -0.28500 3.51200 -0.22500 t
3.57200 -0.28500 3.57200 -0.23250 t
3.57200 -0.23250 3.57950 -0.22500 t
3.57950 -0.22500 3.59450 -0.22500 t
3.59450 -0.22500 3.60200 -0.23250 t
3.60200 -0.28500 3.60200 -0.23250 t
3.62000 -0.28500 3.65000 -0.28500 t
3.63500 -0.28500 3.63500 -0.22500 t
3.67850 -0.22500 3.69800 -0.22500 t
3.66800 -0.23550 3.67850 -0.22500 t
3.66800 -0.27450 3.66800 -0.23550 t
3.66800 -0.27450 3.67850 -0.28500 t
3.67850 -0.28500 3.69800 -0.28500 t
2.00000 -0.42000 2.00000 -0.37500 t
2.00000 -0.42000 2.01050 -0.43500 t
2.01050 -0.43500 2.02700 -0.43500 t
2.02700 -0.43500 2.03750 -0.42000 t
2.03750 -0.42000 2.03750 -0.37500 t
2.00000 -0.40500 2.03750 -0.40500 t
2.05550 -0.40500 2.05550 -0.38250 t
2.05550 -0.38250 2.06300 -0.37500 t
2.06300 -0.37500 2.07800 -0.37500 t
2.07800 -0.37500 2.08550 -0.38250 t
2.08550 -0.40500 2.08550 -0.38250 t
2.11100 -0.43500 2.11100 -0.38250 t
2.11100 -0.38250 2.11850 -0.37500 t
2.10350 -0.41250 2.11850 -0.41250 t
2.13350 -0.43500 2.13350 -0.37500 t
2.13350 -0.39750 2.14100 -0.40500 t
2.14100 -0.40500 2.15600 -0.40500 t
2.15600 -0.40500 2.16350 -0.39750 t
2.16350 -0.39750 2.16350 -0.37500 t
2.18150 -0.39750 2.18150 -0.38250 t
2.18150 -0.39750 2.18900 -0.40500 t
2.18900 -0.40500 2.20400 -0.40500 t
2.20400 -0.40500 2.21150 -0.39750 t
2.21150 -0.39750 2.21150 -0.38250 t
2.20400 -0.37500 2.21150 -0.38250 t
2.18900 -0.37500 2.20400 -0.37500 t
2.18150 -0.38250 2.18900 -0.37500 t
2.23700 -0.39750 2.23700 -0.37500 t
2.23700 -0.39750 2.24450 -0.40500 t
2.24450 -0.40500 2.25950 -0.40500 t
2.22950 -0.40500 2.23700 -0.39750 t
2.27750 -0.41250 2.28500 -0.41250 t
2.27750 -0.39750 2.28500 -0.39750 t
2.34050 -0.43500 2.35250 -0.43500 t
2.35250 -0.43500 2.35250 -0.38250 t
2.34500 -0.37500 2.35250 -0.38250 t
2.33750 -0.37500 2.34500 -0.37500 t
2.33000 -0.38250 2.33750 -0.37500 t
2.33000 -0.39000 2.33000 -0.38250 t
2.37050 -0.39750 2.37050 -0.38250 t
2.37050 -0.39750 2.37800 -0.40500 t
2.37800 -0.40500 2.39300 -0.40500 t
2.39300 -0.40500 2.40050 -0.39750 t
2.40050 -0.39750 2.40050 -0.38250 t
2.39300 -0.37500 2.40050 -0.38250 t
2.37800 -0.37500 2.39300 -0.37500 t
2.37050 -0.38250 2.37800 -0.37500 t
2.41850 -0.43500 2.41850 -0.37500 t
2.41850 -0.39750 2.42600 -0.40500 t
2.42600 -0.40500 2.44100 -0.40500 t
2.44100 -0.40500 2.44850 -0.39750 t
2.44850 -0.39750 2.44850 -0.37500 t
2.47400 -0.39750 2.47400 -0.37500 t
2.47400 -0.39750 2.48150 -0.40500 t
2.48150 -0.40500 2.48900 -0.40500 t
2.48900 -0.40500 2.49650 -0.39750 t
2.49650 -0.39750 2.49650 -0.37500 t
2.46650 -0.40500 2.47400 -0.39750 t
2.55200 -0.43500 2.56400 -0.43500 t
2.56400 -0.43500 2.56400 -0.38250 t
2.55650 -0.37500 2.56400 -0.38250 t
2.54900 -0.37500 2.55650 -0.37500 t
2.54150 -0.38250 2.54900 -0.37500 t
2.54150 -0.39000 2.54150 -0.38250 t
2.58200 -0.37500 2.58950 -0.37500 t
2.63450 -0.43500 2.63450 -0.37500 t
2.63450 -0.43500 2.65700 -0.40500 t
2.65700 -0.40500 2.67950 -0.43500 t
2.67950 -0.43500 2.67950 -0.37500 t
2.70500 -0.40500 2.72750 -0.40500 t
2.69750 -0.39750 2.70500 -0.40500 t
2.69750 -0.39750 2.69750 -0.38250 t
2.69750 -0.38250 2.70500 -0.37500 t
2.70500 -0.37500 2.72750 -0.37500 t
2.75300 -0.43500 2.75300 -0.37500 t
2.77250 -0.43500 2.78300 -0.42450 t
2.78300 -0.42450 2.78300 -0.38550 t
2.77250 -0.37500 2.78300 -0.38550 t
2.74550 -0.37500 2.77250 -0.37500 t
2.74550 -0.43500 2.77250 -0.43500 t
2.80100 -0.39750 2.80100 -0.38250 t
2.80100 -0.39750 2.80850 -0.40500 t
2.80850 -0.40500 2.82350 -0.40500 t
2.82350 -0.40500 2.83100 -0.39750 t
2.83100 -0.39750 2.83100 -0.38250 t
2.82350 -0.37500 2.83100 -0.38250 t
2.80850 -0.37500 2.82350 -0.37500 t
2.80100 -0.38250 2.80850 -0.37500 t
2.85650 -0.39750 2.85650 -0.37500 t
2.85650 -0.39750 2.86400 -0.40500 t
2.86400 -0.40500 2.87150 -0.40500 t
2.87150 -0.40500 2.87900 -0.39750 t
2.87900 -0.39750 2.87900 -0.37500 t
2.84900 -0.40500 2.85650 -0.39750 t
2.89700 -0.39750 2.89700 -0.38250 t
2.89700 -0.39750 2.90450 -0.40500 t
2.90450 -0.40500 2.91950 -0.40500 t
2.91950 -0.40500 2.92700 -0.39750 t
2.92700 -0.39750 2.92700 -0.38250 t
2.91950 -0.37500 2.92700 -0.38250 t
2.90450 -0.37500 2.91950 -0.37500 t
2.89700 -0.38250 2.90450 -0.37500 t
2.94500 -0.40500 2.94500 -0.38250 t
2.94500 -0.38250 2.95250 -0.37500 t
2.95250 -0.37500 2.96750 -0.37500 t
2.96750 -0.37500 2.97500 -0.38250 t
2.97500 -0.40500 2.97500 -0.38250 t
3.01550 -0.40500 3.02300 -0.39750 t
3.00050 -0.40500 3.01550 -0.40500 t
2.99300 -0.39750 3.00050 -0.40500 t
2.99300 -0.39750 2.99300 -0.38250 t
2.99300 -0.38250 3.00050 -0.37500 t
3.00050 -0.37500 3.01550 -0.37500 t
3.01550 -0.37500 3.02300 -0.38250 t
2.99300 -0.36000 3.00050 -0.35250 t
3.00050 -0.35250 3.01550 -0.35250 t
3.01550 -0.35250 3.02300 -0.36000 t
3.02300 -0.40500 3.02300 -0.36000 t
3.04100 -0.43500 3.04100 -0.37500 t
3.04100 -0.39750 3.04850 -0.40500 t
3.04850 -0.40500 3.06350 -0.40500 t
3.06350 -0.40500 3.07100 -0.39750 t
3.07100 -0.39750 3.07100 -0.37500 t
3.11600 -0.43500 3.11600 -0.40500 t
3.11600 -0.40500 3.12350 -0.37500 t
3.12350 -0.37500 3.13850 -0.40500 t
3.13850 -0.40500 3.15350 -0.37500 t
3.15350 -0.37500 3.16100 -0.40500 t
3.16100 -0.43500 3.16100 -0.40500 t
3.17900 -0.37500 3.20900 -0.37500 t
3.20900 -0.37500 3.21650 -0.38250 t
3.21650 -0.40050 3.21650 -0.38250 t
3.20900 -0.40800 3.21650 -0.40050 t
3.18650 -0.40800 3.20900 -0.40800 t
3.18650 -0.43500 3.18650 -0.37500 t
3.17900 -0.43500 3.20900 -0.43500 t
3.20900 -0.43500 3.21650 -0.42750 t
3.21650 -0.42750 3.21650 -0.41550 t
3.20900 -0.40800 3.21650 -0.41550 t
3.23450 -0.38250 3.24200 -0.37500 t
3.23450 -0.39450 3.23450 -0.38250 t
3.23450 -0.39450 3.24500 -0.40500 t
3.24500 -0.40500 3.25400 -0.40500 t
3.25400 -0.40500 3.26450 -0.39450 t
3.26450 -0.39450 3.26450 -0.38250 t
3.25700 -0.37500 3.26450 -0.38250 t
3.24200 -0.37500 3.25700 -0.37500 t
3.23450 -0.41550 3.24500 -0.40500 t
3.23450 -0.42750 3.23450 -0.41550 t
3.23450 -0.42750 3.24200 -0.43500 t
3.24200 -0.43500 3.25700 -0.43500 t
3.25700 -0.43500 3.26450 -0.42750 t
3.26450 -0.42750 3.26450 -0.41550 t
3.25400 -0.40500 3.26450 -0.41550 t
3.28250 -0.43500 3.31250 -0.43500 t
3.31250 -0.43500 3.32000 -0.42750 t
3.32000 -0.42750 3.32000 -0.41250 t
3.31250 -0.40500 3.32000 -0.41250 t
3.29000 -0.40500 3.31250 -0.40500 t
3.29000 -0.43500 3.29000 -0.37500 t
3.30200 -0.40500 3.32000 -0.37500 t
3.34850 -0.37500 3.36800 -0.37500 t
3.33800 -0.38550 3.34850 -0.37500 t
3.33800 -0.42450 3.33800 -0.38550 t
3.33800 -0.42450 3.34850 -0.43500 t
3.34850 -0.43500 3.36800 -0.43500 t
3.38600 -0.43500 3.41600 -0.43500 t
3.41600 -0.43500 3.42350 -0.42750 t
3.42350 -0.42750 3.42350 -0.41250 t
3.41600 -0.40500 3.42350 -0.41250 t
3.39350 -0.40500 3.41600 -0.40500 t
3.39350 -0.43500 3.39350 -0.37500 t
3.40550 -0.40500 3.42350 -0.37500 t
2.00000 -0.58500 2.03000 -0.58500 t
2.01500 -0.58500 2.01500 -0.52500 t
0.00750 setlinewidth
2.04800 -0.57000 2.04800 -0.56850 t
0.00600 setlinewidth
2.04800 -0.54750 2.04800 -0.52500 t
2.07050 -0.58500 2.07050 -0.53250 t
2.07050 -0.53250 2.07800 -0.52500 t
2.06300 -0.56250 2.07800 -0.56250 t
2.09300 -0.58500 2.09300 -0.53250 t
2.09300 -0.53250 2.10050 -0.52500 t
2.12300 -0.52500 2.14550 -0.52500 t
2.11550 -0.53250 2.12300 -0.52500 t
2.11550 -0.54750 2.11550 -0.53250 t
2.11550 -0.54750 2.12300 -0.55500 t
2.12300 -0.55500 2.13800 -0.55500 t
2.13800 -0.55500 2.14550 -0.54750 t
2.11550 -0.54000 2.14550 -0.54000 t
2.14550 -0.54750 2.14550 -0.54000 t
2.16350 -0.56250 2.17100 -0.56250 t
2.16350 -0.54750 2.17100 -0.54750 t
2.24600 -0.58500 2.25350 -0.57750 t
2.22350 -0.58500 2.24600 -0.58500 t
2.21600 -0.57750 2.22350 -0.58500 t
2.21600 -0.57750 2.21600 -0.56250 t
2.21600 -0.56250 2.22350 -0.55500 t
2.22350 -0.55500 2.24600 -0.55500 t
2.24600 -0.55500 2.25350 -0.54750 t
2.25350 -0.54750 2.25350 -0.53250 t
2.24600 -0.52500 2.25350 -0.53250 t
2.22350 -0.52500 2.24600 -0.52500 t
2.21600 -0.53250 2.22350 -0.52500 t
2.27150 -0.58500 2.27150 -0.52500 t
2.27150 -0.58500 2.29400 -0.55500 t
2.29400 -0.55500 2.31650 -0.58500 t
2.31650 -0.58500 2.31650 -0.52500 t
2.33450 -0.57000 2.33450 -0.52500 t
2.33450 -0.57000 2.34500 -0.58500 t
2.34500 -0.58500 2.36150 -0.58500 t
2.36150 -0.58500 2.37200 -0.57000 t
2.37200 -0.57000 2.37200 -0.52500 t
2.33450 -0.55500 2.37200 -0.55500 t
2.39000 -0.55500 2.42000 -0.55500 t
2.44550 -0.52500 2.46800 -0.52500 t
2.43800 -0.53250 2.44550 -0.52500 t
2.43800 -0.54750 2.43800 -0.53250 t
2.43800 -0.54750 2.44550 -0.55500 t
2.44550 -0.55500 2.46050 -0.55500 t
2.46050 -0.55500 2.46800 -0.54750 t
2.43800 -0.54000 2.46800 -0.54000 t
2.46800 -0.54750 2.46800 -0.54000 t
2.51600 -0.58500 2.51600 -0.52500 t
2.50850 -0.52500 2.51600 -0.53250 t
2.49350 -0.52500 2.50850 -0.52500 t
2.48600 -0.53250 2.49350 -0.52500 t
2.48600 -0.54750 2.48600 -0.53250 t
2.48600 -0.54750 2.49350 -0.55500 t
2.49350 -0.55500 2.50850 -0.55500 t
2.50850 -0.55500 2.51600 -0.54750 t
2.55650 -0.55500 2.56400 -0.54750 t
2.54150 -0.55500 2.55650 -0.55500 t
2.53400 -0.54750 2.54150 -0.55500 t
2.53400 -0.54750 2.53400 -0.53250 t
2.53400 -0.53250 2.54150 -0.52500 t
2.54150 -0.52500 2.55650 -0.52500 t
2.55650 -0.52500 2.56400 -0.53250 t
2.53400 -0.51000 2.54150 -0.50250 t
2.54150 -0.50250 2.55650 -0.50250 t
2.55650 -0.50250 2.56400 -0.51000 t
2.56400 -0.55500 2.56400 -0.51000 t
2.58950 -0.52500 2.61200 -0.52500 t
2.58200 -0.53250 2.58950 -0.52500 t
2.58200 -0.54750 2.58200 -0.53250 t
2.58200 -0.54750 2.58950 -0.55500 t
2.58950 -0.55500 2.60450 -0.55500 t
2.60450 -0.55500 2.61200 -0.54750 t
2.58200 -0.54000 2.61200 -0.54000 t
2.61200 -0.54750 2.61200 -0.54000 t
2.65700 -0.55500 2.68700 -0.55500 t
2.73200 -0.58500 2.73200 -0.52500 t
2.73200 -0.58500 2.76200 -0.58500 t
2.73200 -0.55800 2.75450 -0.55800 t
2.80250 -0.55500 2.81000 -0.54750 t
2.78750 -0.55500 2.80250 -0.55500 t
2.78000 -0.54750 2.78750 -0.55500 t
2.78000 -0.54750 2.78000 -0.53250 t
2.78000 -0.53250 2.78750 -0.52500 t
2.81000 -0.55500 2.81000 -0.53250 t
2.81000 -0.53250 2.81750 -0.52500 t
2.78750 -0.52500 2.80250 -0.52500 t
2.80250 -0.52500 2.81000 -0.53250 t
2.83550 -0.58500 2.83550 -0.52500 t
2.83550 -0.53250 2.84300 -0.52500 t
2.84300 -0.52500 2.85800 -0.52500 t
2.85800 -0.52500 2.86550 -0.53250 t
2.86550 -0.54750 2.86550 -0.53250 t
2.85800 -0.55500 2.86550 -0.54750 t
2.84300 -0.55500 2.85800 -0.55500 t
2.83550 -0.54750 2.84300 -0.55500 t
2.89100 -0.54750 2.89100 -0.52500 t
2.89100 -0.54750 2.89850 -0.55500 t
2.89850 -0.55500 2.91350 -0.55500 t
2.88350 -0.55500 2.89100 -0.54750 t
0.00750 setlinewidth
2.93150 -0.57000 2.93150 -0.56850 t
0.00600 setlinewidth
2.93150 -0.54750 2.93150 -0.52500 t
2.95400 -0.55500 2.97650 -0.55500 t
2.94650 -0.54750 2.95400 -0.55500 t
2.94650 -0.54750 2.94650 -0.53250 t
2.94650 -0.53250 2.95400 -0.52500 t
2.95400 -0.52500 2.97650 -0.52500 t
3.01700 -0.55500 3.02450 -0.54750 t
3.00200 -0.55500 3.01700 -0.55500 t
2.99450 -0.54750 3.00200 -0.55500 t
2.99450 -0.54750 2.99450 -0.53250 t
2.99450 -0.53250 3.00200 -0.52500 t
3.02450 -0.55500 3.02450 -0.53250 t
3.02450 -0.53250 3.03200 -0.52500 t
3.00200 -0.52500 3.01700 -0.52500 t
3.01700 -0.52500 3.02450 -0.53250 t
3.05750 -0.58500 3.05750 -0.53250 t
3.05750 -0.53250 3.06500 -0.52500 t
3.05000 -0.56250 3.06500 -0.56250 t
0.00750 setlinewidth
3.08000 -0.57000 3.08000 -0.56850 t
0.00600 setlinewidth
3.08000 -0.54750 3.08000 -0.52500 t
3.09500 -0.54750 3.09500 -0.53250 t
3.09500 -0.54750 3.10250 -0.55500 t
3.10250 -0.55500 3.11750 -0.55500 t
3.11750 -0.55500 3.12500 -0.54750 t
3.12500 -0.54750 3.12500 -0.53250 t
3.11750 -0.52500 3.12500 -0.53250 t
3.10250 -0.52500 3.11750 -0.52500 t
3.09500 -0.53250 3.10250 -0.52500 t
3.15050 -0.54750 3.15050 -0.52500 t
3.15050 -0.54750 3.15800 -0.55500 t
3.15800 -0.55500 3.16550 -0.55500 t
3.16550 -0.55500 3.17300 -0.54750 t
3.17300 -0.54750 3.17300 -0.52500 t
3.14300 -0.55500 3.15050 -0.54750 t
3.22550 -0.58500 3.22550 -0.52500 t
3.24500 -0.58500 3.25550 -0.57450 t
3.25550 -0.57450 3.25550 -0.53550 t
3.24500 -0.52500 3.25550 -0.53550 t
3.21800 -0.52500 3.24500 -0.52500 t
3.21800 -0.58500 3.24500 -0.58500 t
3.28100 -0.54750 3.28100 -0.52500 t
3.28100 -0.54750 3.28850 -0.55500 t
3.28850 -0.55500 3.30350 -0.55500 t
3.27350 -0.55500 3.28100 -0.54750 t
3.34400 -0.55500 3.35150 -0.54750 t
3.32900 -0.55500 3.34400 -0.55500 t
3.32150 -0.54750 3.32900 -0.55500 t
3.32150 -0.54750 3.32150 -0.53250 t
3.32150 -0.53250 3.32900 -0.52500 t
3.35150 -0.55500 3.35150 -0.53250 t
3.35150 -0.53250 3.35900 -0.52500 t
3.32900 -0.52500 3.34400 -0.52500 t
3.34400 -0.52500 3.35150 -0.53250 t
3.37700 -0.55500 3.37700 -0.53250 t
3.37700 -0.53250 3.38450 -0.52500 t
3.38450 -0.52500 3.39200 -0.52500 t
3.39200 -0.52500 3.39950 -0.53250 t
3.39950 -0.55500 3.39950 -0.53250 t
3.39950 -0.53250 3.40700 -0.52500 t
3.40700 -0.52500 3.41450 -0.52500 t
3.41450 -0.52500 3.42200 -0.53250 t
3.42200 -0.55500 3.42200 -0.53250 t
0.00750 setlinewidth
3.44000 -0.57000 3.44000 -0.56850 t
0.00600 setlinewidth
3.44000 -0.54750 3.44000 -0.52500 t
3.46250 -0.54750 3.46250 -0.52500 t
3.46250 -0.54750 3.47000 -0.55500 t
3.47000 -0.55500 3.47750 -0.55500 t
3.47750 -0.55500 3.48500 -0.54750 t
3.48500 -0.54750 3.48500 -0.52500 t
3.45500 -0.55500 3.46250 -0.54750 t
3.52550 -0.55500 3.53300 -0.54750 t
3.51050 -0.55500 3.52550 -0.55500 t
3.50300 -0.54750 3.51050 -0.55500 t
3.50300 -0.54750 3.50300 -0.53250 t
3.50300 -0.53250 3.51050 -0.52500 t
3.51050 -0.52500 3.52550 -0.52500 t
3.52550 -0.52500 3.53300 -0.53250 t
3.50300 -0.51000 3.51050 -0.50250 t
3.51050 -0.50250 3.52550 -0.50250 t
3.52550 -0.50250 3.53300 -0.51000 t
3.53300 -0.55500 3.53300 -0.51000 t
showpage
%%Trailer
%%Pages: 12
%%EOF
