%!PS-Adobe-3.0
%%Title: testusbfp.pcb
%%CreationDate: Fri Apr 17 12:07:08 2015
%%Creator: PCB release: pcb 20110918
%%Version: (PCB pcb 20110918) 0.0 0
%%PageOrder: Ascend
%%Pages: (atend)
%%DocumentMedia: Letter 612.00000 792.00000 0 "" ""
%%DocumentPaperSizes: Letter
%%EndComments

%%Page: TableOfContents 1
/Times-Roman findfont 24 scalefont setfont
/rightshow { /s exch def s stringwidth pop -1 mul 0 rmoveto s show } def
/y 72 9 mul def /toc { 100 y moveto show /y y 24 sub def } bind def
/tocp { /y y 12 sub def 90 y moveto rightshow } bind def
30 30 moveto (testusbfp.pcb) show
(1.) tocp
(Table of Contents \(This Page\)) toc
(Created on Fri Apr 17 12:07:08 2015
) toc
( ) tocp
(2.) tocp
(component) toc
(3.) tocp
(solder) toc
(4.) tocp
(componentmask) toc
(5.) tocp
(soldermask) toc
(6.) tocp
(topsilk) toc
(7.) tocp
(bottomsilk) toc
(8.) tocp
(bottompaste) toc
(9.) tocp
(topassembly) toc
(10.) tocp
(bottomassembly) toc
(11.) tocp
(fab) toc
showpage
%%Page: top 2
/Helvetica findfont 10 scalefont setfont
newpath
72 72 scale 4.25000 5.50000 translate
1 1 scale % calibration
1 dup neg scale
-1.99000 -1.99000 translate
/gray { setgray } bind def
/rgb { setrgbcolor } bind def
0 setgray 0 setlinewidth 0 0 moveto 0 3.98000 lineto 3.98000 3.98000 lineto 3.98000 0 lineto closepath stroke
gsave 0.00000 setlinewidth 0.00000 0.00000 translate -0.00000 -0.00000 scale
2.00000 0.00000 moveto 0.00000 0.00000 0.20000 0 90 arc 0.00000 2.00000 lineto
0.40000 0.00000 moveto 0 -0.20000 rlineto
stroke grestore
gsave 0.00000 setlinewidth 3.98000 0.00000 translate 0.00000 -0.00000 scale
2.00000 0.00000 moveto 0.00000 0.00000 0.20000 0 90 arc 0.00000 2.00000 lineto
stroke grestore
gsave 0.00000 setlinewidth 3.98000 3.98000 translate 0.00000 0.00000 scale
2.00000 0.00000 moveto 0.00000 0.00000 0.20000 0 90 arc 0.00000 2.00000 lineto
stroke grestore
gsave 0.00000 setlinewidth 0.00000 3.98000 translate -0.00000 0.00000 scale
2.00000 0.00000 moveto 0.00000 0.00000 0.20000 0 90 arc 0.00000 2.00000 lineto
stroke grestore
/ts 1 def
/ty ts neg def /tx 0 def /Helvetica findfont ts scalefont setfont
/t { moveto lineto stroke } bind def
/dr { /y2 exch def /x2 exch def /y1 exch def /x1 exch def
      x1 y1 moveto x1 y2 lineto x2 y2 lineto x2 y1 lineto closepath stroke } bind def
/r { /y2 exch def /x2 exch def /y1 exch def /x1 exch def
     x1 y1 moveto x1 y2 lineto x2 y2 lineto x2 y1 lineto closepath fill } bind def
/c { 0 360 arc fill } bind def
/a { gsave setlinewidth translate scale 0 0 1 5 3 roll arc stroke grestore} bind def
showpage
%%Page: bottom 3
/Helvetica findfont 10 scalefont setfont
newpath
72 72 scale 4.25000 5.50000 translate
1 1 scale % calibration
1 -1 scale
1 dup neg scale
-1.99000 -1.99000 translate
/gray { setgray } bind def
/rgb { setrgbcolor } bind def
0 setgray 0 setlinewidth 0 0 moveto 0 3.98000 lineto 3.98000 3.98000 lineto 3.98000 0 lineto closepath stroke
gsave 0.00000 setlinewidth 0.00000 0.00000 translate -0.00000 -0.00000 scale
2.00000 0.00000 moveto 0.00000 0.00000 0.20000 0 90 arc 0.00000 2.00000 lineto
0.40000 0.00000 moveto 0 -0.20000 rlineto
stroke grestore
gsave 0.00000 setlinewidth 3.98000 0.00000 translate 0.00000 -0.00000 scale
2.00000 0.00000 moveto 0.00000 0.00000 0.20000 0 90 arc 0.00000 2.00000 lineto
stroke grestore
gsave 0.00000 setlinewidth 3.98000 3.98000 translate 0.00000 0.00000 scale
2.00000 0.00000 moveto 0.00000 0.00000 0.20000 0 90 arc 0.00000 2.00000 lineto
stroke grestore
gsave 0.00000 setlinewidth 0.00000 3.98000 translate -0.00000 0.00000 scale
2.00000 0.00000 moveto 0.00000 0.00000 0.20000 0 90 arc 0.00000 2.00000 lineto
stroke grestore
/ts 1 def
/ty ts neg def /tx 0 def /Helvetica findfont ts scalefont setfont
/t { moveto lineto stroke } bind def
/dr { /y2 exch def /x2 exch def /y1 exch def /x1 exch def
      x1 y1 moveto x1 y2 lineto x2 y2 lineto x2 y1 lineto closepath stroke } bind def
/r { /y2 exch def /x2 exch def /y1 exch def /x1 exch def
     x1 y1 moveto x1 y2 lineto x2 y2 lineto x2 y1 lineto closepath fill } bind def
/c { 0 360 arc fill } bind def
/a { gsave setlinewidth translate scale 0 0 1 5 3 roll arc stroke grestore} bind def
0.00984 setlinewidth
2 setlinecap 2 setlinejoin
0 gray
1.17118 0.25500 1.17118 0.30000 t
1.14559 0.25500 1.14559 0.30000 t
1.14559 0.18000 1.14559 0.33000 t
1.12000 0.25500 1.12000 0.30000 t
1.09441 0.25500 1.09441 0.30000 t
1.06882 0.25500 1.06882 0.30000 t
1.06882 0.18000 1.06882 0.33000 t
0.03540 setlinewidth
1.02846 0.25500 1.02846 0.30000 t
1.21154 0.25500 1.21154 0.30000 t
0.06000 setlinewidth
1.27500 0.24000 1.34750 0.24000 t
1.27500 0.11000 1.34750 0.11000 t
0.89250 0.24000 0.96500 0.24000 t
0.89250 0.11000 0.96500 0.11000 t
0.00984 setlinewidth
1.96000 0.25500 1.96000 0.30000 t
1.93441 0.25500 1.93441 0.30000 t
1.90882 0.25500 1.90882 0.30000 t
1.90882 0.18000 1.90882 0.33000 t
2.01118 0.25500 2.01118 0.30000 t
1.98559 0.25500 1.98559 0.30000 t
1.98559 0.18000 1.98559 0.33000 t
0.03540 setlinewidth
1.86846 0.25500 1.86846 0.30000 t
2.05154 0.25500 2.05154 0.30000 t
0.06000 setlinewidth
2.11500 0.20000 2.18750 0.20000 t
2.11500 0.11000 2.18750 0.11000 t
1.73250 0.20000 1.80500 0.20000 t
1.73250 0.11000 1.80500 0.11000 t
showpage
%%Page: topmask 4
/Helvetica findfont 10 scalefont setfont
newpath
72 72 scale 4.25000 5.50000 translate
1 1 scale % calibration
1 dup neg scale
-1.99000 -1.99000 translate
/gray { setgray } bind def
/rgb { setrgbcolor } bind def
0 setgray 0 setlinewidth 0 0 moveto 0 3.98000 lineto 3.98000 3.98000 lineto 3.98000 0 lineto closepath stroke
gsave 0.00000 setlinewidth 0.00000 0.00000 translate -0.00000 -0.00000 scale
2.00000 0.00000 moveto 0.00000 0.00000 0.20000 0 90 arc 0.00000 2.00000 lineto
0.40000 0.00000 moveto 0 -0.20000 rlineto
stroke grestore
gsave 0.00000 setlinewidth 3.98000 0.00000 translate 0.00000 -0.00000 scale
2.00000 0.00000 moveto 0.00000 0.00000 0.20000 0 90 arc 0.00000 2.00000 lineto
stroke grestore
gsave 0.00000 setlinewidth 3.98000 3.98000 translate 0.00000 0.00000 scale
2.00000 0.00000 moveto 0.00000 0.00000 0.20000 0 90 arc 0.00000 2.00000 lineto
stroke grestore
gsave 0.00000 setlinewidth 0.00000 3.98000 translate -0.00000 0.00000 scale
2.00000 0.00000 moveto 0.00000 0.00000 0.20000 0 90 arc 0.00000 2.00000 lineto
stroke grestore
/ts 1 def
/ty ts neg def /tx 0 def /Helvetica findfont ts scalefont setfont
/t { moveto lineto stroke } bind def
/dr { /y2 exch def /x2 exch def /y1 exch def /x1 exch def
      x1 y1 moveto x1 y2 lineto x2 y2 lineto x2 y1 lineto closepath stroke } bind def
/r { /y2 exch def /x2 exch def /y1 exch def /x1 exch def
     x1 y1 moveto x1 y2 lineto x2 y2 lineto x2 y1 lineto closepath fill } bind def
/c { 0 360 arc fill } bind def
/a { gsave setlinewidth translate scale 0 0 1 5 3 roll arc stroke grestore} bind def
0.06000 setlinewidth
2 setlinecap 2 setlinejoin
1 gray
0.00000 0.00000 3.98000 3.98000 r
showpage
%%Page: bottommask 5
/Helvetica findfont 10 scalefont setfont
newpath
72 72 scale 4.25000 5.50000 translate
1 1 scale % calibration
1 -1 scale
1 dup neg scale
-1.99000 -1.99000 translate
/gray { setgray } bind def
/rgb { setrgbcolor } bind def
0 setgray 0 setlinewidth 0 0 moveto 0 3.98000 lineto 3.98000 3.98000 lineto 3.98000 0 lineto closepath stroke
gsave 0.00000 setlinewidth 0.00000 0.00000 translate -0.00000 -0.00000 scale
2.00000 0.00000 moveto 0.00000 0.00000 0.20000 0 90 arc 0.00000 2.00000 lineto
0.40000 0.00000 moveto 0 -0.20000 rlineto
stroke grestore
gsave 0.00000 setlinewidth 3.98000 0.00000 translate 0.00000 -0.00000 scale
2.00000 0.00000 moveto 0.00000 0.00000 0.20000 0 90 arc 0.00000 2.00000 lineto
stroke grestore
gsave 0.00000 setlinewidth 3.98000 3.98000 translate 0.00000 0.00000 scale
2.00000 0.00000 moveto 0.00000 0.00000 0.20000 0 90 arc 0.00000 2.00000 lineto
stroke grestore
gsave 0.00000 setlinewidth 0.00000 3.98000 translate -0.00000 0.00000 scale
2.00000 0.00000 moveto 0.00000 0.00000 0.20000 0 90 arc 0.00000 2.00000 lineto
stroke grestore
/ts 1 def
/ty ts neg def /tx 0 def /Helvetica findfont ts scalefont setfont
/t { moveto lineto stroke } bind def
/dr { /y2 exch def /x2 exch def /y1 exch def /x1 exch def
      x1 y1 moveto x1 y2 lineto x2 y2 lineto x2 y1 lineto closepath stroke } bind def
/r { /y2 exch def /x2 exch def /y1 exch def /x1 exch def
     x1 y1 moveto x1 y2 lineto x2 y2 lineto x2 y1 lineto closepath fill } bind def
/c { 0 360 arc fill } bind def
/a { gsave setlinewidth translate scale 0 0 1 5 3 roll arc stroke grestore} bind def
0.06000 setlinewidth
2 setlinecap 2 setlinejoin
1 gray
0.00000 0.00000 3.98000 3.98000 r
0.04500 setlinewidth
0 gray
1.17118 0.25500 1.17118 0.30000 t
0 gray
1.14559 0.25500 1.14559 0.30000 t
0 gray
1.12000 0.25500 1.12000 0.30000 t
0 gray
1.09441 0.25500 1.09441 0.30000 t
0 gray
1.06882 0.25500 1.06882 0.30000 t
0 gray
1.02846 0.25500 1.02846 0.30000 t
0 gray
1.21154 0.25500 1.21154 0.30000 t
0.06000 setlinewidth
0 gray
1.27500 0.24000 1.34750 0.24000 t
0 gray
1.27500 0.11000 1.34750 0.11000 t
0 gray
0.89250 0.24000 0.96500 0.24000 t
0 gray
0.89250 0.11000 0.96500 0.11000 t
0.04500 setlinewidth
0 gray
1.96000 0.25500 1.96000 0.30000 t
0 gray
1.93441 0.25500 1.93441 0.30000 t
0 gray
1.90882 0.25500 1.90882 0.30000 t
0 gray
2.01118 0.25500 2.01118 0.30000 t
0 gray
1.98559 0.25500 1.98559 0.30000 t
0 gray
1.86846 0.25500 1.86846 0.30000 t
0 gray
2.05154 0.25500 2.05154 0.30000 t
0.06000 setlinewidth
0 gray
2.11500 0.20000 2.18750 0.20000 t
0 gray
2.11500 0.11000 2.18750 0.11000 t
0 gray
1.73250 0.20000 1.80500 0.20000 t
0 gray
1.73250 0.11000 1.80500 0.11000 t
showpage
%%Page: topsilk 6
/Helvetica findfont 10 scalefont setfont
newpath
72 72 scale 4.25000 5.50000 translate
1 1 scale % calibration
1 dup neg scale
-1.99000 -1.99000 translate
/gray { setgray } bind def
/rgb { setrgbcolor } bind def
0 setgray 0 setlinewidth 0 0 moveto 0 3.98000 lineto 3.98000 3.98000 lineto 3.98000 0 lineto closepath stroke
gsave 0.00000 setlinewidth 0.00000 0.00000 translate -0.00000 -0.00000 scale
2.00000 0.00000 moveto 0.00000 0.00000 0.20000 0 90 arc 0.00000 2.00000 lineto
0.40000 0.00000 moveto 0 -0.20000 rlineto
stroke grestore
gsave 0.00000 setlinewidth 3.98000 0.00000 translate 0.00000 -0.00000 scale
2.00000 0.00000 moveto 0.00000 0.00000 0.20000 0 90 arc 0.00000 2.00000 lineto
stroke grestore
gsave 0.00000 setlinewidth 3.98000 3.98000 translate 0.00000 0.00000 scale
2.00000 0.00000 moveto 0.00000 0.00000 0.20000 0 90 arc 0.00000 2.00000 lineto
stroke grestore
gsave 0.00000 setlinewidth 0.00000 3.98000 translate -0.00000 0.00000 scale
2.00000 0.00000 moveto 0.00000 0.00000 0.20000 0 90 arc 0.00000 2.00000 lineto
stroke grestore
/ts 1 def
/ty ts neg def /tx 0 def /Helvetica findfont ts scalefont setfont
/t { moveto lineto stroke } bind def
/dr { /y2 exch def /x2 exch def /y1 exch def /x1 exch def
      x1 y1 moveto x1 y2 lineto x2 y2 lineto x2 y1 lineto closepath stroke } bind def
/r { /y2 exch def /x2 exch def /y1 exch def /x1 exch def
     x1 y1 moveto x1 y2 lineto x2 y2 lineto x2 y1 lineto closepath fill } bind def
/c { 0 360 arc fill } bind def
/a { gsave setlinewidth translate scale 0 0 1 5 3 roll arc stroke grestore} bind def
0.01000 setlinewidth
1 setlinecap 1 setlinejoin
0 gray
1.81000 0.00500 1.81000 0.25500 t
2.11000 0.00500 2.11000 0.25500 t
1.81000 0.25500 2.11000 0.25500 t
1.81000 0.00500 2.11000 0.00500 t
0.97000 0.00500 0.97000 0.25500 t
1.27000 0.00500 1.27000 0.25500 t
0.97000 0.25500 1.27000 0.25500 t
0.97000 0.00500 1.27000 0.00500 t
showpage
%%Page: bottomsilk 7
/Helvetica findfont 10 scalefont setfont
newpath
72 72 scale 4.25000 5.50000 translate
1 1 scale % calibration
1 -1 scale
1 dup neg scale
-1.99000 -1.99000 translate
/gray { setgray } bind def
/rgb { setrgbcolor } bind def
0 setgray 0 setlinewidth 0 0 moveto 0 3.98000 lineto 3.98000 3.98000 lineto 3.98000 0 lineto closepath stroke
gsave 0.00000 setlinewidth 0.00000 0.00000 translate -0.00000 -0.00000 scale
2.00000 0.00000 moveto 0.00000 0.00000 0.20000 0 90 arc 0.00000 2.00000 lineto
0.40000 0.00000 moveto 0 -0.20000 rlineto
stroke grestore
gsave 0.00000 setlinewidth 3.98000 0.00000 translate 0.00000 -0.00000 scale
2.00000 0.00000 moveto 0.00000 0.00000 0.20000 0 90 arc 0.00000 2.00000 lineto
stroke grestore
gsave 0.00000 setlinewidth 3.98000 3.98000 translate 0.00000 0.00000 scale
2.00000 0.00000 moveto 0.00000 0.00000 0.20000 0 90 arc 0.00000 2.00000 lineto
stroke grestore
gsave 0.00000 setlinewidth 0.00000 3.98000 translate -0.00000 0.00000 scale
2.00000 0.00000 moveto 0.00000 0.00000 0.20000 0 90 arc 0.00000 2.00000 lineto
stroke grestore
/ts 1 def
/ty ts neg def /tx 0 def /Helvetica findfont ts scalefont setfont
/t { moveto lineto stroke } bind def
/dr { /y2 exch def /x2 exch def /y1 exch def /x1 exch def
      x1 y1 moveto x1 y2 lineto x2 y2 lineto x2 y1 lineto closepath stroke } bind def
/r { /y2 exch def /x2 exch def /y1 exch def /x1 exch def
     x1 y1 moveto x1 y2 lineto x2 y2 lineto x2 y1 lineto closepath fill } bind def
/c { 0 360 arc fill } bind def
/a { gsave setlinewidth translate scale 0 0 1 5 3 roll arc stroke grestore} bind def
showpage
%%Page: bottompaste 8
/Helvetica findfont 10 scalefont setfont
newpath
72 72 scale 4.25000 5.50000 translate
1 1 scale % calibration
1 -1 scale
1 dup neg scale
-1.99000 -1.99000 translate
/gray { setgray } bind def
/rgb { setrgbcolor } bind def
0 setgray 0 setlinewidth 0 0 moveto 0 3.98000 lineto 3.98000 3.98000 lineto 3.98000 0 lineto closepath stroke
gsave 0.00000 setlinewidth 0.00000 0.00000 translate -0.00000 -0.00000 scale
2.00000 0.00000 moveto 0.00000 0.00000 0.20000 0 90 arc 0.00000 2.00000 lineto
0.40000 0.00000 moveto 0 -0.20000 rlineto
stroke grestore
gsave 0.00000 setlinewidth 3.98000 0.00000 translate 0.00000 -0.00000 scale
2.00000 0.00000 moveto 0.00000 0.00000 0.20000 0 90 arc 0.00000 2.00000 lineto
stroke grestore
gsave 0.00000 setlinewidth 3.98000 3.98000 translate 0.00000 0.00000 scale
2.00000 0.00000 moveto 0.00000 0.00000 0.20000 0 90 arc 0.00000 2.00000 lineto
stroke grestore
gsave 0.00000 setlinewidth 0.00000 3.98000 translate -0.00000 0.00000 scale
2.00000 0.00000 moveto 0.00000 0.00000 0.20000 0 90 arc 0.00000 2.00000 lineto
stroke grestore
/ts 1 def
/ty ts neg def /tx 0 def /Helvetica findfont ts scalefont setfont
/t { moveto lineto stroke } bind def
/dr { /y2 exch def /x2 exch def /y1 exch def /x1 exch def
      x1 y1 moveto x1 y2 lineto x2 y2 lineto x2 y1 lineto closepath stroke } bind def
/r { /y2 exch def /x2 exch def /y1 exch def /x1 exch def
     x1 y1 moveto x1 y2 lineto x2 y2 lineto x2 y1 lineto closepath fill } bind def
/c { 0 360 arc fill } bind def
/a { gsave setlinewidth translate scale 0 0 1 5 3 roll arc stroke grestore} bind def
0.00984 setlinewidth
2 setlinecap 2 setlinejoin
0 gray
2.01118 0.25500 2.01118 0.30000 t
1.98559 0.25500 1.98559 0.30000 t
1.96000 0.25500 1.96000 0.30000 t
1.93441 0.25500 1.93441 0.30000 t
1.90882 0.25500 1.90882 0.30000 t
0.03540 setlinewidth
1.86846 0.25500 1.86846 0.30000 t
2.05154 0.25500 2.05154 0.30000 t
0.06000 setlinewidth
2.11500 0.20000 2.18750 0.20000 t
1.73250 0.20000 1.80500 0.20000 t
2.11500 0.11000 2.18750 0.11000 t
1.73250 0.11000 1.80500 0.11000 t
0.00984 setlinewidth
1.17118 0.25500 1.17118 0.30000 t
1.14559 0.25500 1.14559 0.30000 t
1.12000 0.25500 1.12000 0.30000 t
1.09441 0.25500 1.09441 0.30000 t
1.06882 0.25500 1.06882 0.30000 t
0.03540 setlinewidth
1.02846 0.25500 1.02846 0.30000 t
1.21154 0.25500 1.21154 0.30000 t
0.06000 setlinewidth
1.27500 0.24000 1.34750 0.24000 t
0.89250 0.24000 0.96500 0.24000 t
1.27500 0.11000 1.34750 0.11000 t
0.89250 0.11000 0.96500 0.11000 t
showpage
%%Page: topassembly 9
/Helvetica findfont 10 scalefont setfont
newpath
72 72 scale 4.25000 5.50000 translate
1 1 scale % calibration
1 dup neg scale
-1.99000 -1.99000 translate
/gray { setgray } bind def
/rgb { setrgbcolor } bind def
0 setgray 0 setlinewidth 0 0 moveto 0 3.98000 lineto 3.98000 3.98000 lineto 3.98000 0 lineto closepath stroke
gsave 0.00000 setlinewidth 0.00000 0.00000 translate -0.00000 -0.00000 scale
2.00000 0.00000 moveto 0.00000 0.00000 0.20000 0 90 arc 0.00000 2.00000 lineto
0.40000 0.00000 moveto 0 -0.20000 rlineto
stroke grestore
gsave 0.00000 setlinewidth 3.98000 0.00000 translate 0.00000 -0.00000 scale
2.00000 0.00000 moveto 0.00000 0.00000 0.20000 0 90 arc 0.00000 2.00000 lineto
stroke grestore
gsave 0.00000 setlinewidth 3.98000 3.98000 translate 0.00000 0.00000 scale
2.00000 0.00000 moveto 0.00000 0.00000 0.20000 0 90 arc 0.00000 2.00000 lineto
stroke grestore
gsave 0.00000 setlinewidth 0.00000 3.98000 translate -0.00000 0.00000 scale
2.00000 0.00000 moveto 0.00000 0.00000 0.20000 0 90 arc 0.00000 2.00000 lineto
stroke grestore
/ts 1 def
/ty ts neg def /tx 0 def /Helvetica findfont ts scalefont setfont
/t { moveto lineto stroke } bind def
/dr { /y2 exch def /x2 exch def /y1 exch def /x1 exch def
      x1 y1 moveto x1 y2 lineto x2 y2 lineto x2 y1 lineto closepath stroke } bind def
/r { /y2 exch def /x2 exch def /y1 exch def /x1 exch def
     x1 y1 moveto x1 y2 lineto x2 y2 lineto x2 y1 lineto closepath fill } bind def
/c { 0 360 arc fill } bind def
/a { gsave setlinewidth translate scale 0 0 1 5 3 roll arc stroke grestore} bind def
0.01000 setlinewidth
1 setlinecap 1 setlinejoin
0 gray
1.81000 0.00500 1.81000 0.25500 t
2.11000 0.00500 2.11000 0.25500 t
1.81000 0.25500 2.11000 0.25500 t
1.81000 0.00500 2.11000 0.00500 t
0.97000 0.00500 0.97000 0.25500 t
1.27000 0.00500 1.27000 0.25500 t
0.97000 0.25500 1.27000 0.25500 t
0.97000 0.00500 1.27000 0.00500 t
showpage
%%Page: bottomassembly 10
/Helvetica findfont 10 scalefont setfont
newpath
72 72 scale 4.25000 5.50000 translate
1 1 scale % calibration
1 -1 scale
1 dup neg scale
-1.99000 -1.99000 translate
/gray { setgray } bind def
/rgb { setrgbcolor } bind def
0 setgray 0 setlinewidth 0 0 moveto 0 3.98000 lineto 3.98000 3.98000 lineto 3.98000 0 lineto closepath stroke
gsave 0.00000 setlinewidth 0.00000 0.00000 translate -0.00000 -0.00000 scale
2.00000 0.00000 moveto 0.00000 0.00000 0.20000 0 90 arc 0.00000 2.00000 lineto
0.40000 0.00000 moveto 0 -0.20000 rlineto
stroke grestore
gsave 0.00000 setlinewidth 3.98000 0.00000 translate 0.00000 -0.00000 scale
2.00000 0.00000 moveto 0.00000 0.00000 0.20000 0 90 arc 0.00000 2.00000 lineto
stroke grestore
gsave 0.00000 setlinewidth 3.98000 3.98000 translate 0.00000 0.00000 scale
2.00000 0.00000 moveto 0.00000 0.00000 0.20000 0 90 arc 0.00000 2.00000 lineto
stroke grestore
gsave 0.00000 setlinewidth 0.00000 3.98000 translate -0.00000 0.00000 scale
2.00000 0.00000 moveto 0.00000 0.00000 0.20000 0 90 arc 0.00000 2.00000 lineto
stroke grestore
/ts 1 def
/ty ts neg def /tx 0 def /Helvetica findfont ts scalefont setfont
/t { moveto lineto stroke } bind def
/dr { /y2 exch def /x2 exch def /y1 exch def /x1 exch def
      x1 y1 moveto x1 y2 lineto x2 y2 lineto x2 y1 lineto closepath stroke } bind def
/r { /y2 exch def /x2 exch def /y1 exch def /x1 exch def
     x1 y1 moveto x1 y2 lineto x2 y2 lineto x2 y1 lineto closepath fill } bind def
/c { 0 360 arc fill } bind def
/a { gsave setlinewidth translate scale 0 0 1 5 3 roll arc stroke grestore} bind def
0.00984 setlinewidth
2 setlinecap 2 setlinejoin
0.6 gray
1.17118 0.25500 1.17118 0.30000 t
1.14559 0.25500 1.14559 0.30000 t
1.14559 0.18000 1.14559 0.33000 t
1.12000 0.25500 1.12000 0.30000 t
1.09441 0.25500 1.09441 0.30000 t
1.06882 0.25500 1.06882 0.30000 t
1.06882 0.18000 1.06882 0.33000 t
0.03540 setlinewidth
1.02846 0.25500 1.02846 0.30000 t
1.21154 0.25500 1.21154 0.30000 t
0.06000 setlinewidth
1.27500 0.24000 1.34750 0.24000 t
1.27500 0.11000 1.34750 0.11000 t
0.89250 0.24000 0.96500 0.24000 t
0.89250 0.11000 0.96500 0.11000 t
0.00984 setlinewidth
1.96000 0.25500 1.96000 0.30000 t
1.93441 0.25500 1.93441 0.30000 t
1.90882 0.25500 1.90882 0.30000 t
1.90882 0.18000 1.90882 0.33000 t
2.01118 0.25500 2.01118 0.30000 t
1.98559 0.25500 1.98559 0.30000 t
1.98559 0.18000 1.98559 0.33000 t
0.03540 setlinewidth
1.86846 0.25500 1.86846 0.30000 t
2.05154 0.25500 2.05154 0.30000 t
0.06000 setlinewidth
2.11500 0.20000 2.18750 0.20000 t
2.11500 0.11000 2.18750 0.11000 t
1.73250 0.20000 1.80500 0.20000 t
1.73250 0.11000 1.80500 0.11000 t
showpage
%%Page: fab 11
/Helvetica findfont 10 scalefont setfont
newpath
72 72 scale 4.25000 5.50000 translate
1 1 scale % calibration
1 dup neg scale
-1.99000 -1.99000 translate
% PrintFab overhang natural 3.01000, needed 0.90000
/gray { setgray } bind def
/rgb { setrgbcolor } bind def
0 setgray 0 setlinewidth 0 0 moveto 0 3.98000 lineto 3.98000 3.98000 lineto 3.98000 0 lineto closepath stroke
gsave 0.00000 setlinewidth 0.00000 0.00000 translate -0.00000 -0.00000 scale
2.00000 0.00000 moveto 0.00000 0.00000 0.20000 0 90 arc 0.00000 2.00000 lineto
0.40000 0.00000 moveto 0 -0.20000 rlineto
stroke grestore
gsave 0.00000 setlinewidth 3.98000 0.00000 translate 0.00000 -0.00000 scale
2.00000 0.00000 moveto 0.00000 0.00000 0.20000 0 90 arc 0.00000 2.00000 lineto
stroke grestore
gsave 0.00000 setlinewidth 3.98000 3.98000 translate 0.00000 0.00000 scale
2.00000 0.00000 moveto 0.00000 0.00000 0.20000 0 90 arc 0.00000 2.00000 lineto
stroke grestore
gsave 0.00000 setlinewidth 0.00000 3.98000 translate -0.00000 0.00000 scale
2.00000 0.00000 moveto 0.00000 0.00000 0.20000 0 90 arc 0.00000 2.00000 lineto
stroke grestore
/ts 1 def
/ty ts neg def /tx 0 def /Helvetica findfont ts scalefont setfont
/t { moveto lineto stroke } bind def
/dr { /y2 exch def /x2 exch def /y1 exch def /x1 exch def
      x1 y1 moveto x1 y2 lineto x2 y2 lineto x2 y1 lineto closepath stroke } bind def
/r { /y2 exch def /x2 exch def /y1 exch def /x1 exch def
     x1 y1 moveto x1 y2 lineto x2 y2 lineto x2 y1 lineto closepath fill } bind def
/c { 0 360 arc fill } bind def
/a { gsave setlinewidth translate scale 0 0 1 5 3 roll arc stroke grestore} bind def
0.00600 setlinewidth
1 setlinecap 1 setlinejoin
0 gray
0.03000 -0.73500 0.03750 -0.72750 t
0.00750 -0.73500 0.03000 -0.73500 t
0.00000 -0.72750 0.00750 -0.73500 t
0.00000 -0.72750 0.00000 -0.71250 t
0.00000 -0.71250 0.00750 -0.70500 t
0.00750 -0.70500 0.03000 -0.70500 t
0.03000 -0.70500 0.03750 -0.69750 t
0.03750 -0.69750 0.03750 -0.68250 t
0.03000 -0.67500 0.03750 -0.68250 t
0.00750 -0.67500 0.03000 -0.67500 t
0.00000 -0.68250 0.00750 -0.67500 t
0.05550 -0.70500 0.05550 -0.68250 t
0.05550 -0.68250 0.06300 -0.67500 t
0.08550 -0.70500 0.08550 -0.66000 t
0.07800 -0.65250 0.08550 -0.66000 t
0.06300 -0.65250 0.07800 -0.65250 t
0.05550 -0.66000 0.06300 -0.65250 t
0.06300 -0.67500 0.07800 -0.67500 t
0.07800 -0.67500 0.08550 -0.68250 t
0.11100 -0.69750 0.11100 -0.67500 t
0.11100 -0.69750 0.11850 -0.70500 t
0.11850 -0.70500 0.12600 -0.70500 t
0.12600 -0.70500 0.13350 -0.69750 t
0.13350 -0.69750 0.13350 -0.67500 t
0.13350 -0.69750 0.14100 -0.70500 t
0.14100 -0.70500 0.14850 -0.70500 t
0.14850 -0.70500 0.15600 -0.69750 t
0.15600 -0.69750 0.15600 -0.67500 t
0.10350 -0.70500 0.11100 -0.69750 t
0.17400 -0.73500 0.17400 -0.67500 t
0.17400 -0.68250 0.18150 -0.67500 t
0.18150 -0.67500 0.19650 -0.67500 t
0.19650 -0.67500 0.20400 -0.68250 t
0.20400 -0.69750 0.20400 -0.68250 t
0.19650 -0.70500 0.20400 -0.69750 t
0.18150 -0.70500 0.19650 -0.70500 t
0.17400 -0.69750 0.18150 -0.70500 t
0.22200 -0.69750 0.22200 -0.68250 t
0.22200 -0.69750 0.22950 -0.70500 t
0.22950 -0.70500 0.24450 -0.70500 t
0.24450 -0.70500 0.25200 -0.69750 t
0.25200 -0.69750 0.25200 -0.68250 t
0.24450 -0.67500 0.25200 -0.68250 t
0.22950 -0.67500 0.24450 -0.67500 t
0.22200 -0.68250 0.22950 -0.67500 t
0.27000 -0.73500 0.27000 -0.68250 t
0.27000 -0.68250 0.27750 -0.67500 t
0.00000 -0.64250 0.29250 -0.64250 t
0.41750 -0.73500 0.41750 -0.67500 t
0.43700 -0.73500 0.44750 -0.72450 t
0.44750 -0.72450 0.44750 -0.68550 t
0.43700 -0.67500 0.44750 -0.68550 t
0.41000 -0.67500 0.43700 -0.67500 t
0.41000 -0.73500 0.43700 -0.73500 t
0.00750 setlinewidth
0.46550 -0.72000 0.46550 -0.71850 t
0.00600 setlinewidth
0.46550 -0.69750 0.46550 -0.67500 t
0.50300 -0.70500 0.51050 -0.69750 t
0.48800 -0.70500 0.50300 -0.70500 t
0.48050 -0.69750 0.48800 -0.70500 t
0.48050 -0.69750 0.48050 -0.68250 t
0.48050 -0.68250 0.48800 -0.67500 t
0.51050 -0.70500 0.51050 -0.68250 t
0.51050 -0.68250 0.51800 -0.67500 t
0.48800 -0.67500 0.50300 -0.67500 t
0.50300 -0.67500 0.51050 -0.68250 t
0.54350 -0.69750 0.54350 -0.67500 t
0.54350 -0.69750 0.55100 -0.70500 t
0.55100 -0.70500 0.55850 -0.70500 t
0.55850 -0.70500 0.56600 -0.69750 t
0.56600 -0.69750 0.56600 -0.67500 t
0.56600 -0.69750 0.57350 -0.70500 t
0.57350 -0.70500 0.58100 -0.70500 t
0.58100 -0.70500 0.58850 -0.69750 t
0.58850 -0.69750 0.58850 -0.67500 t
0.53600 -0.70500 0.54350 -0.69750 t
0.60650 -0.67500 0.61400 -0.67500 t
0.65900 -0.68250 0.66650 -0.67500 t
0.65900 -0.72750 0.66650 -0.73500 t
0.65900 -0.72750 0.65900 -0.68250 t
0.68450 -0.73500 0.69950 -0.73500 t
0.69200 -0.73500 0.69200 -0.67500 t
0.68450 -0.67500 0.69950 -0.67500 t
0.72500 -0.69750 0.72500 -0.67500 t
0.72500 -0.69750 0.73250 -0.70500 t
0.73250 -0.70500 0.74000 -0.70500 t
0.74000 -0.70500 0.74750 -0.69750 t
0.74750 -0.69750 0.74750 -0.67500 t
0.71750 -0.70500 0.72500 -0.69750 t
0.77300 -0.70500 0.79550 -0.70500 t
0.76550 -0.69750 0.77300 -0.70500 t
0.76550 -0.69750 0.76550 -0.68250 t
0.76550 -0.68250 0.77300 -0.67500 t
0.77300 -0.67500 0.79550 -0.67500 t
0.81350 -0.73500 0.81350 -0.67500 t
0.81350 -0.69750 0.82100 -0.70500 t
0.82100 -0.70500 0.83600 -0.70500 t
0.83600 -0.70500 0.84350 -0.69750 t
0.84350 -0.69750 0.84350 -0.67500 t
0.86150 -0.73500 0.86900 -0.72750 t
0.86900 -0.72750 0.86900 -0.68250 t
0.86150 -0.67500 0.86900 -0.68250 t
0.41000 -0.64250 0.88700 -0.64250 t
0.96050 -0.67500 0.98000 -0.67500 t
0.95000 -0.68550 0.96050 -0.67500 t
0.95000 -0.72450 0.95000 -0.68550 t
0.95000 -0.72450 0.96050 -0.73500 t
0.96050 -0.73500 0.98000 -0.73500 t
0.99800 -0.69750 0.99800 -0.68250 t
0.99800 -0.69750 1.00550 -0.70500 t
1.00550 -0.70500 1.02050 -0.70500 t
1.02050 -0.70500 1.02800 -0.69750 t
1.02800 -0.69750 1.02800 -0.68250 t
1.02050 -0.67500 1.02800 -0.68250 t
1.00550 -0.67500 1.02050 -0.67500 t
0.99800 -0.68250 1.00550 -0.67500 t
1.04600 -0.70500 1.04600 -0.68250 t
1.04600 -0.68250 1.05350 -0.67500 t
1.05350 -0.67500 1.06850 -0.67500 t
1.06850 -0.67500 1.07600 -0.68250 t
1.07600 -0.70500 1.07600 -0.68250 t
1.10150 -0.69750 1.10150 -0.67500 t
1.10150 -0.69750 1.10900 -0.70500 t
1.10900 -0.70500 1.11650 -0.70500 t
1.11650 -0.70500 1.12400 -0.69750 t
1.12400 -0.69750 1.12400 -0.67500 t
1.09400 -0.70500 1.10150 -0.69750 t
1.14950 -0.73500 1.14950 -0.68250 t
1.14950 -0.68250 1.15700 -0.67500 t
1.14200 -0.71250 1.15700 -0.71250 t
0.95000 -0.64250 1.17200 -0.64250 t
1.30750 -0.73500 1.30750 -0.67500 t
1.30000 -0.73500 1.33000 -0.73500 t
1.33000 -0.73500 1.33750 -0.72750 t
1.33750 -0.72750 1.33750 -0.71250 t
1.33000 -0.70500 1.33750 -0.71250 t
1.30750 -0.70500 1.33000 -0.70500 t
1.35550 -0.73500 1.35550 -0.68250 t
1.35550 -0.68250 1.36300 -0.67500 t
1.40050 -0.70500 1.40800 -0.69750 t
1.38550 -0.70500 1.40050 -0.70500 t
1.37800 -0.69750 1.38550 -0.70500 t
1.37800 -0.69750 1.37800 -0.68250 t
1.37800 -0.68250 1.38550 -0.67500 t
1.40800 -0.70500 1.40800 -0.68250 t
1.40800 -0.68250 1.41550 -0.67500 t
1.38550 -0.67500 1.40050 -0.67500 t
1.40050 -0.67500 1.40800 -0.68250 t
1.44100 -0.73500 1.44100 -0.68250 t
1.44100 -0.68250 1.44850 -0.67500 t
1.43350 -0.71250 1.44850 -0.71250 t
1.47100 -0.67500 1.49350 -0.67500 t
1.46350 -0.68250 1.47100 -0.67500 t
1.46350 -0.69750 1.46350 -0.68250 t
1.46350 -0.69750 1.47100 -0.70500 t
1.47100 -0.70500 1.48600 -0.70500 t
1.48600 -0.70500 1.49350 -0.69750 t
1.46350 -0.69000 1.49350 -0.69000 t
1.49350 -0.69750 1.49350 -0.69000 t
1.54150 -0.73500 1.54150 -0.67500 t
1.53400 -0.67500 1.54150 -0.68250 t
1.51900 -0.67500 1.53400 -0.67500 t
1.51150 -0.68250 1.51900 -0.67500 t
1.51150 -0.69750 1.51150 -0.68250 t
1.51150 -0.69750 1.51900 -0.70500 t
1.51900 -0.70500 1.53400 -0.70500 t
1.53400 -0.70500 1.54150 -0.69750 t
1.57450 -0.70500 1.57450 -0.69750 t
1.57450 -0.68250 1.57450 -0.67500 t
1.55950 -0.72750 1.55950 -0.72000 t
1.55950 -0.72750 1.56700 -0.73500 t
1.56700 -0.73500 1.58200 -0.73500 t
1.58200 -0.73500 1.58950 -0.72750 t
1.58950 -0.72750 1.58950 -0.72000 t
1.57450 -0.70500 1.58950 -0.72000 t
1.30000 -0.64250 1.60750 -0.64250 t
0.00000 -0.88500 0.03000 -0.88500 t
0.01500 -0.88500 0.01500 -0.82500 t
0.04800 -0.88500 0.04800 -0.82500 t
0.04800 -0.84750 0.05550 -0.85500 t
0.05550 -0.85500 0.07050 -0.85500 t
0.07050 -0.85500 0.07800 -0.84750 t
0.07800 -0.84750 0.07800 -0.82500 t
0.10350 -0.82500 0.12600 -0.82500 t
0.09600 -0.83250 0.10350 -0.82500 t
0.09600 -0.84750 0.09600 -0.83250 t
0.09600 -0.84750 0.10350 -0.85500 t
0.10350 -0.85500 0.11850 -0.85500 t
0.11850 -0.85500 0.12600 -0.84750 t
0.09600 -0.84000 0.12600 -0.84000 t
0.12600 -0.84750 0.12600 -0.84000 t
0.15150 -0.84750 0.15150 -0.82500 t
0.15150 -0.84750 0.15900 -0.85500 t
0.15900 -0.85500 0.17400 -0.85500 t
0.14400 -0.85500 0.15150 -0.84750 t
0.19950 -0.82500 0.22200 -0.82500 t
0.19200 -0.83250 0.19950 -0.82500 t
0.19200 -0.84750 0.19200 -0.83250 t
0.19200 -0.84750 0.19950 -0.85500 t
0.19950 -0.85500 0.21450 -0.85500 t
0.21450 -0.85500 0.22200 -0.84750 t
0.19200 -0.84000 0.22200 -0.84000 t
0.22200 -0.84750 0.22200 -0.84000 t
0.28950 -0.85500 0.29700 -0.84750 t
0.27450 -0.85500 0.28950 -0.85500 t
0.26700 -0.84750 0.27450 -0.85500 t
0.26700 -0.84750 0.26700 -0.83250 t
0.26700 -0.83250 0.27450 -0.82500 t
0.29700 -0.85500 0.29700 -0.83250 t
0.29700 -0.83250 0.30450 -0.82500 t
0.27450 -0.82500 0.28950 -0.82500 t
0.28950 -0.82500 0.29700 -0.83250 t
0.33000 -0.84750 0.33000 -0.82500 t
0.33000 -0.84750 0.33750 -0.85500 t
0.33750 -0.85500 0.35250 -0.85500 t
0.32250 -0.85500 0.33000 -0.84750 t
0.37800 -0.82500 0.40050 -0.82500 t
0.37050 -0.83250 0.37800 -0.82500 t
0.37050 -0.84750 0.37050 -0.83250 t
0.37050 -0.84750 0.37800 -0.85500 t
0.37800 -0.85500 0.39300 -0.85500 t
0.39300 -0.85500 0.40050 -0.84750 t
0.37050 -0.84000 0.40050 -0.84000 t
0.40050 -0.84750 0.40050 -0.84000 t
0.44550 -0.83250 0.45300 -0.82500 t
0.44550 -0.87750 0.44550 -0.83250 t
0.44550 -0.87750 0.45300 -0.88500 t
0.45300 -0.88500 0.46800 -0.88500 t
0.46800 -0.88500 0.47550 -0.87750 t
0.47550 -0.87750 0.47550 -0.83250 t
0.46800 -0.82500 0.47550 -0.83250 t
0.45300 -0.82500 0.46800 -0.82500 t
0.44550 -0.84000 0.47550 -0.87000 t
0.55050 -0.88500 0.55050 -0.82500 t
0.54300 -0.82500 0.55050 -0.83250 t
0.52800 -0.82500 0.54300 -0.82500 t
0.52050 -0.83250 0.52800 -0.82500 t
0.52050 -0.84750 0.52050 -0.83250 t
0.52050 -0.84750 0.52800 -0.85500 t
0.52800 -0.85500 0.54300 -0.85500 t
0.54300 -0.85500 0.55050 -0.84750 t
0.00750 setlinewidth
0.56850 -0.87000 0.56850 -0.86850 t
0.00600 setlinewidth
0.56850 -0.84750 0.56850 -0.82500 t
0.59100 -0.87750 0.59100 -0.82500 t
0.59100 -0.87750 0.59850 -0.88500 t
0.59850 -0.88500 0.60600 -0.88500 t
0.58350 -0.85500 0.59850 -0.85500 t
0.62850 -0.87750 0.62850 -0.82500 t
0.62850 -0.87750 0.63600 -0.88500 t
0.63600 -0.88500 0.64350 -0.88500 t
0.62100 -0.85500 0.63600 -0.85500 t
0.66600 -0.82500 0.68850 -0.82500 t
0.65850 -0.83250 0.66600 -0.82500 t
0.65850 -0.84750 0.65850 -0.83250 t
0.65850 -0.84750 0.66600 -0.85500 t
0.66600 -0.85500 0.68100 -0.85500 t
0.68100 -0.85500 0.68850 -0.84750 t
0.65850 -0.84000 0.68850 -0.84000 t
0.68850 -0.84750 0.68850 -0.84000 t
0.71400 -0.84750 0.71400 -0.82500 t
0.71400 -0.84750 0.72150 -0.85500 t
0.72150 -0.85500 0.73650 -0.85500 t
0.70650 -0.85500 0.71400 -0.84750 t
0.76200 -0.82500 0.78450 -0.82500 t
0.75450 -0.83250 0.76200 -0.82500 t
0.75450 -0.84750 0.75450 -0.83250 t
0.75450 -0.84750 0.76200 -0.85500 t
0.76200 -0.85500 0.77700 -0.85500 t
0.77700 -0.85500 0.78450 -0.84750 t
0.75450 -0.84000 0.78450 -0.84000 t
0.78450 -0.84750 0.78450 -0.84000 t
0.81000 -0.84750 0.81000 -0.82500 t
0.81000 -0.84750 0.81750 -0.85500 t
0.81750 -0.85500 0.82500 -0.85500 t
0.82500 -0.85500 0.83250 -0.84750 t
0.83250 -0.84750 0.83250 -0.82500 t
0.80250 -0.85500 0.81000 -0.84750 t
0.85800 -0.88500 0.85800 -0.83250 t
0.85800 -0.83250 0.86550 -0.82500 t
0.85050 -0.86250 0.86550 -0.86250 t
0.93750 -0.88500 0.93750 -0.82500 t
0.93000 -0.82500 0.93750 -0.83250 t
0.91500 -0.82500 0.93000 -0.82500 t
0.90750 -0.83250 0.91500 -0.82500 t
0.90750 -0.84750 0.90750 -0.83250 t
0.90750 -0.84750 0.91500 -0.85500 t
0.91500 -0.85500 0.93000 -0.85500 t
0.93000 -0.85500 0.93750 -0.84750 t
0.96300 -0.84750 0.96300 -0.82500 t
0.96300 -0.84750 0.97050 -0.85500 t
0.97050 -0.85500 0.98550 -0.85500 t
0.95550 -0.85500 0.96300 -0.84750 t
0.00750 setlinewidth
1.00350 -0.87000 1.00350 -0.86850 t
0.00600 setlinewidth
1.00350 -0.84750 1.00350 -0.82500 t
1.01850 -0.88500 1.01850 -0.83250 t
1.01850 -0.83250 1.02600 -0.82500 t
1.04100 -0.88500 1.04100 -0.83250 t
1.04100 -0.83250 1.04850 -0.82500 t
1.09800 -0.82500 1.12050 -0.82500 t
1.12050 -0.82500 1.12800 -0.83250 t
1.12050 -0.84000 1.12800 -0.83250 t
1.09800 -0.84000 1.12050 -0.84000 t
1.09050 -0.84750 1.09800 -0.84000 t
1.09050 -0.84750 1.09800 -0.85500 t
1.09800 -0.85500 1.12050 -0.85500 t
1.12050 -0.85500 1.12800 -0.84750 t
1.09050 -0.83250 1.09800 -0.82500 t
0.00750 setlinewidth
1.14600 -0.87000 1.14600 -0.86850 t
0.00600 setlinewidth
1.14600 -0.84750 1.14600 -0.82500 t
1.16100 -0.85500 1.19100 -0.85500 t
1.16100 -0.82500 1.19100 -0.85500 t
1.16100 -0.82500 1.19100 -0.82500 t
1.21650 -0.82500 1.23900 -0.82500 t
1.20900 -0.83250 1.21650 -0.82500 t
1.20900 -0.84750 1.20900 -0.83250 t
1.20900 -0.84750 1.21650 -0.85500 t
1.21650 -0.85500 1.23150 -0.85500 t
1.23150 -0.85500 1.23900 -0.84750 t
1.20900 -0.84000 1.23900 -0.84000 t
1.23900 -0.84750 1.23900 -0.84000 t
1.26450 -0.82500 1.28700 -0.82500 t
1.28700 -0.82500 1.29450 -0.83250 t
1.28700 -0.84000 1.29450 -0.83250 t
1.26450 -0.84000 1.28700 -0.84000 t
1.25700 -0.84750 1.26450 -0.84000 t
1.25700 -0.84750 1.26450 -0.85500 t
1.26450 -0.85500 1.28700 -0.85500 t
1.28700 -0.85500 1.29450 -0.84750 t
1.25700 -0.83250 1.26450 -0.82500 t
1.33950 -0.85500 1.33950 -0.83250 t
1.33950 -0.83250 1.34700 -0.82500 t
1.34700 -0.82500 1.36200 -0.82500 t
1.36200 -0.82500 1.36950 -0.83250 t
1.36950 -0.85500 1.36950 -0.83250 t
1.39500 -0.82500 1.41750 -0.82500 t
1.41750 -0.82500 1.42500 -0.83250 t
1.41750 -0.84000 1.42500 -0.83250 t
1.39500 -0.84000 1.41750 -0.84000 t
1.38750 -0.84750 1.39500 -0.84000 t
1.38750 -0.84750 1.39500 -0.85500 t
1.39500 -0.85500 1.41750 -0.85500 t
1.41750 -0.85500 1.42500 -0.84750 t
1.38750 -0.83250 1.39500 -0.82500 t
1.45050 -0.82500 1.47300 -0.82500 t
1.44300 -0.83250 1.45050 -0.82500 t
1.44300 -0.84750 1.44300 -0.83250 t
1.44300 -0.84750 1.45050 -0.85500 t
1.45050 -0.85500 1.46550 -0.85500 t
1.46550 -0.85500 1.47300 -0.84750 t
1.44300 -0.84000 1.47300 -0.84000 t
1.47300 -0.84750 1.47300 -0.84000 t
1.52100 -0.88500 1.52100 -0.82500 t
1.51350 -0.82500 1.52100 -0.83250 t
1.49850 -0.82500 1.51350 -0.82500 t
1.49100 -0.83250 1.49850 -0.82500 t
1.49100 -0.84750 1.49100 -0.83250 t
1.49100 -0.84750 1.49850 -0.85500 t
1.49850 -0.85500 1.51350 -0.85500 t
1.51350 -0.85500 1.52100 -0.84750 t
0.00750 setlinewidth
1.56600 -0.87000 1.56600 -0.86850 t
0.00600 setlinewidth
1.56600 -0.84750 1.56600 -0.82500 t
1.58850 -0.84750 1.58850 -0.82500 t
1.58850 -0.84750 1.59600 -0.85500 t
1.59600 -0.85500 1.60350 -0.85500 t
1.60350 -0.85500 1.61100 -0.84750 t
1.61100 -0.84750 1.61100 -0.82500 t
1.58100 -0.85500 1.58850 -0.84750 t
1.66350 -0.88500 1.66350 -0.83250 t
1.66350 -0.83250 1.67100 -0.82500 t
1.65600 -0.86250 1.67100 -0.86250 t
1.68600 -0.88500 1.68600 -0.82500 t
1.68600 -0.84750 1.69350 -0.85500 t
1.69350 -0.85500 1.70850 -0.85500 t
1.70850 -0.85500 1.71600 -0.84750 t
1.71600 -0.84750 1.71600 -0.82500 t
0.00750 setlinewidth
1.73400 -0.87000 1.73400 -0.86850 t
0.00600 setlinewidth
1.73400 -0.84750 1.73400 -0.82500 t
1.75650 -0.82500 1.77900 -0.82500 t
1.77900 -0.82500 1.78650 -0.83250 t
1.77900 -0.84000 1.78650 -0.83250 t
1.75650 -0.84000 1.77900 -0.84000 t
1.74900 -0.84750 1.75650 -0.84000 t
1.74900 -0.84750 1.75650 -0.85500 t
1.75650 -0.85500 1.77900 -0.85500 t
1.77900 -0.85500 1.78650 -0.84750 t
1.74900 -0.83250 1.75650 -0.82500 t
1.83150 -0.88500 1.83150 -0.83250 t
1.83150 -0.83250 1.83900 -0.82500 t
1.87650 -0.85500 1.88400 -0.84750 t
1.86150 -0.85500 1.87650 -0.85500 t
1.85400 -0.84750 1.86150 -0.85500 t
1.85400 -0.84750 1.85400 -0.83250 t
1.85400 -0.83250 1.86150 -0.82500 t
1.88400 -0.85500 1.88400 -0.83250 t
1.88400 -0.83250 1.89150 -0.82500 t
1.86150 -0.82500 1.87650 -0.82500 t
1.87650 -0.82500 1.88400 -0.83250 t
1.90950 -0.85500 1.90950 -0.83250 t
1.90950 -0.83250 1.91700 -0.82500 t
1.93950 -0.85500 1.93950 -0.81000 t
1.93200 -0.80250 1.93950 -0.81000 t
1.91700 -0.80250 1.93200 -0.80250 t
1.90950 -0.81000 1.91700 -0.80250 t
1.91700 -0.82500 1.93200 -0.82500 t
1.93200 -0.82500 1.93950 -0.83250 t
1.95750 -0.84750 1.95750 -0.83250 t
1.95750 -0.84750 1.96500 -0.85500 t
1.96500 -0.85500 1.98000 -0.85500 t
1.98000 -0.85500 1.98750 -0.84750 t
1.98750 -0.84750 1.98750 -0.83250 t
1.98000 -0.82500 1.98750 -0.83250 t
1.96500 -0.82500 1.98000 -0.82500 t
1.95750 -0.83250 1.96500 -0.82500 t
2.00550 -0.85500 2.00550 -0.83250 t
2.00550 -0.83250 2.01300 -0.82500 t
2.01300 -0.82500 2.02800 -0.82500 t
2.02800 -0.82500 2.03550 -0.83250 t
2.03550 -0.85500 2.03550 -0.83250 t
2.06100 -0.88500 2.06100 -0.83250 t
2.06100 -0.83250 2.06850 -0.82500 t
2.05350 -0.86250 2.06850 -0.86250 t
2.08350 -0.81000 2.09850 -0.82500 t
2.14350 -0.83250 2.15100 -0.82500 t
2.14350 -0.87750 2.14350 -0.83250 t
2.14350 -0.87750 2.15100 -0.88500 t
2.15100 -0.88500 2.16600 -0.88500 t
2.16600 -0.88500 2.17350 -0.87750 t
2.17350 -0.87750 2.17350 -0.83250 t
2.16600 -0.82500 2.17350 -0.83250 t
2.15100 -0.82500 2.16600 -0.82500 t
2.14350 -0.84000 2.17350 -0.87000 t
2.21850 -0.88500 2.21850 -0.82500 t
2.21850 -0.84750 2.22600 -0.85500 t
2.22600 -0.85500 2.24100 -0.85500 t
2.24100 -0.85500 2.24850 -0.84750 t
2.24850 -0.84750 2.24850 -0.82500 t
2.26650 -0.84750 2.26650 -0.83250 t
2.26650 -0.84750 2.27400 -0.85500 t
2.27400 -0.85500 2.28900 -0.85500 t
2.28900 -0.85500 2.29650 -0.84750 t
2.29650 -0.84750 2.29650 -0.83250 t
2.28900 -0.82500 2.29650 -0.83250 t
2.27400 -0.82500 2.28900 -0.82500 t
2.26650 -0.83250 2.27400 -0.82500 t
2.31450 -0.88500 2.31450 -0.83250 t
2.31450 -0.83250 2.32200 -0.82500 t
2.34450 -0.82500 2.36700 -0.82500 t
2.33700 -0.83250 2.34450 -0.82500 t
2.33700 -0.84750 2.33700 -0.83250 t
2.33700 -0.84750 2.34450 -0.85500 t
2.34450 -0.85500 2.35950 -0.85500 t
2.35950 -0.85500 2.36700 -0.84750 t
2.33700 -0.84000 2.36700 -0.84000 t
2.36700 -0.84750 2.36700 -0.84000 t
2.39250 -0.82500 2.41500 -0.82500 t
2.41500 -0.82500 2.42250 -0.83250 t
2.41500 -0.84000 2.42250 -0.83250 t
2.39250 -0.84000 2.41500 -0.84000 t
2.38500 -0.84750 2.39250 -0.84000 t
2.38500 -0.84750 2.39250 -0.85500 t
2.39250 -0.85500 2.41500 -0.85500 t
2.41500 -0.85500 2.42250 -0.84750 t
2.38500 -0.83250 2.39250 -0.82500 t
2.47500 -0.88500 2.47500 -0.83250 t
2.47500 -0.83250 2.48250 -0.82500 t
2.46750 -0.86250 2.48250 -0.86250 t
2.49750 -0.84750 2.49750 -0.83250 t
2.49750 -0.84750 2.50500 -0.85500 t
2.50500 -0.85500 2.52000 -0.85500 t
2.52000 -0.85500 2.52750 -0.84750 t
2.52750 -0.84750 2.52750 -0.83250 t
2.52000 -0.82500 2.52750 -0.83250 t
2.50500 -0.82500 2.52000 -0.82500 t
2.49750 -0.83250 2.50500 -0.82500 t
2.55300 -0.88500 2.55300 -0.83250 t
2.55300 -0.83250 2.56050 -0.82500 t
2.54550 -0.86250 2.56050 -0.86250 t
2.59800 -0.85500 2.60550 -0.84750 t
2.58300 -0.85500 2.59800 -0.85500 t
2.57550 -0.84750 2.58300 -0.85500 t
2.57550 -0.84750 2.57550 -0.83250 t
2.57550 -0.83250 2.58300 -0.82500 t
2.60550 -0.85500 2.60550 -0.83250 t
2.60550 -0.83250 2.61300 -0.82500 t
2.58300 -0.82500 2.59800 -0.82500 t
2.59800 -0.82500 2.60550 -0.83250 t
2.63100 -0.88500 2.63100 -0.83250 t
2.63100 -0.83250 2.63850 -0.82500 t
0.01000 setlinewidth
0.00000 0.00000 3.98000 0.00000 t
0.00000 0.00000 0.00000 3.98000 t
3.98000 0.00000 3.98000 3.98000 t
0.00000 3.98000 3.98000 3.98000 t
0.00600 setlinewidth
2.00000 -0.13500 2.00000 -0.07500 t
2.00000 -0.13500 2.02250 -0.10500 t
2.02250 -0.10500 2.04500 -0.13500 t
2.04500 -0.13500 2.04500 -0.07500 t
2.08550 -0.10500 2.09300 -0.09750 t
2.07050 -0.10500 2.08550 -0.10500 t
2.06300 -0.09750 2.07050 -0.10500 t
2.06300 -0.09750 2.06300 -0.08250 t
2.06300 -0.08250 2.07050 -0.07500 t
2.09300 -0.10500 2.09300 -0.08250 t
2.09300 -0.08250 2.10050 -0.07500 t
2.07050 -0.07500 2.08550 -0.07500 t
2.08550 -0.07500 2.09300 -0.08250 t
2.11850 -0.10500 2.14850 -0.07500 t
2.11850 -0.07500 2.14850 -0.10500 t
0.00750 setlinewidth
2.16650 -0.12000 2.16650 -0.11850 t
0.00600 setlinewidth
2.16650 -0.09750 2.16650 -0.07500 t
2.18900 -0.09750 2.18900 -0.07500 t
2.18900 -0.09750 2.19650 -0.10500 t
2.19650 -0.10500 2.20400 -0.10500 t
2.20400 -0.10500 2.21150 -0.09750 t
2.21150 -0.09750 2.21150 -0.07500 t
2.21150 -0.09750 2.21900 -0.10500 t
2.21900 -0.10500 2.22650 -0.10500 t
2.22650 -0.10500 2.23400 -0.09750 t
2.23400 -0.09750 2.23400 -0.07500 t
2.18150 -0.10500 2.18900 -0.09750 t
2.25200 -0.10500 2.25200 -0.08250 t
2.25200 -0.08250 2.25950 -0.07500 t
2.25950 -0.07500 2.27450 -0.07500 t
2.27450 -0.07500 2.28200 -0.08250 t
2.28200 -0.10500 2.28200 -0.08250 t
2.30750 -0.09750 2.30750 -0.07500 t
2.30750 -0.09750 2.31500 -0.10500 t
2.31500 -0.10500 2.32250 -0.10500 t
2.32250 -0.10500 2.33000 -0.09750 t
2.33000 -0.09750 2.33000 -0.07500 t
2.33000 -0.09750 2.33750 -0.10500 t
2.33750 -0.10500 2.34500 -0.10500 t
2.34500 -0.10500 2.35250 -0.09750 t
2.35250 -0.09750 2.35250 -0.07500 t
2.30000 -0.10500 2.30750 -0.09750 t
2.40500 -0.13500 2.40500 -0.07500 t
2.42450 -0.13500 2.43500 -0.12450 t
2.43500 -0.12450 2.43500 -0.08550 t
2.42450 -0.07500 2.43500 -0.08550 t
2.39750 -0.07500 2.42450 -0.07500 t
2.39750 -0.13500 2.42450 -0.13500 t
0.00750 setlinewidth
2.45300 -0.12000 2.45300 -0.11850 t
0.00600 setlinewidth
2.45300 -0.09750 2.45300 -0.07500 t
2.47550 -0.09750 2.47550 -0.07500 t
2.47550 -0.09750 2.48300 -0.10500 t
2.48300 -0.10500 2.49050 -0.10500 t
2.49050 -0.10500 2.49800 -0.09750 t
2.49800 -0.09750 2.49800 -0.07500 t
2.49800 -0.09750 2.50550 -0.10500 t
2.50550 -0.10500 2.51300 -0.10500 t
2.51300 -0.10500 2.52050 -0.09750 t
2.52050 -0.09750 2.52050 -0.07500 t
2.46800 -0.10500 2.47550 -0.09750 t
2.54600 -0.07500 2.56850 -0.07500 t
2.53850 -0.08250 2.54600 -0.07500 t
2.53850 -0.09750 2.53850 -0.08250 t
2.53850 -0.09750 2.54600 -0.10500 t
2.54600 -0.10500 2.56100 -0.10500 t
2.56100 -0.10500 2.56850 -0.09750 t
2.53850 -0.09000 2.56850 -0.09000 t
2.56850 -0.09750 2.56850 -0.09000 t
2.59400 -0.09750 2.59400 -0.07500 t
2.59400 -0.09750 2.60150 -0.10500 t
2.60150 -0.10500 2.60900 -0.10500 t
2.60900 -0.10500 2.61650 -0.09750 t
2.61650 -0.09750 2.61650 -0.07500 t
2.58650 -0.10500 2.59400 -0.09750 t
2.64200 -0.07500 2.66450 -0.07500 t
2.66450 -0.07500 2.67200 -0.08250 t
2.66450 -0.09000 2.67200 -0.08250 t
2.64200 -0.09000 2.66450 -0.09000 t
2.63450 -0.09750 2.64200 -0.09000 t
2.63450 -0.09750 2.64200 -0.10500 t
2.64200 -0.10500 2.66450 -0.10500 t
2.66450 -0.10500 2.67200 -0.09750 t
2.63450 -0.08250 2.64200 -0.07500 t
0.00750 setlinewidth
2.69000 -0.12000 2.69000 -0.11850 t
0.00600 setlinewidth
2.69000 -0.09750 2.69000 -0.07500 t
2.70500 -0.09750 2.70500 -0.08250 t
2.70500 -0.09750 2.71250 -0.10500 t
2.71250 -0.10500 2.72750 -0.10500 t
2.72750 -0.10500 2.73500 -0.09750 t
2.73500 -0.09750 2.73500 -0.08250 t
2.72750 -0.07500 2.73500 -0.08250 t
2.71250 -0.07500 2.72750 -0.07500 t
2.70500 -0.08250 2.71250 -0.07500 t
2.76050 -0.09750 2.76050 -0.07500 t
2.76050 -0.09750 2.76800 -0.10500 t
2.76800 -0.10500 2.77550 -0.10500 t
2.77550 -0.10500 2.78300 -0.09750 t
2.78300 -0.09750 2.78300 -0.07500 t
2.75300 -0.10500 2.76050 -0.09750 t
2.80850 -0.07500 2.83100 -0.07500 t
2.83100 -0.07500 2.83850 -0.08250 t
2.83100 -0.09000 2.83850 -0.08250 t
2.80850 -0.09000 2.83100 -0.09000 t
2.80100 -0.09750 2.80850 -0.09000 t
2.80100 -0.09750 2.80850 -0.10500 t
2.80850 -0.10500 2.83100 -0.10500 t
2.83100 -0.10500 2.83850 -0.09750 t
2.80100 -0.08250 2.80850 -0.07500 t
2.85650 -0.11250 2.86400 -0.11250 t
2.85650 -0.09750 2.86400 -0.09750 t
2.90900 -0.12750 2.91650 -0.13500 t
2.91650 -0.13500 2.93150 -0.13500 t
2.93150 -0.13500 2.93900 -0.12750 t
2.93150 -0.07500 2.93900 -0.08250 t
2.91650 -0.07500 2.93150 -0.07500 t
2.90900 -0.08250 2.91650 -0.07500 t
2.91650 -0.10800 2.93150 -0.10800 t
2.93900 -0.12750 2.93900 -0.11550 t
2.93900 -0.10050 2.93900 -0.08250 t
2.93900 -0.10050 2.93150 -0.10800 t
2.93900 -0.11550 2.93150 -0.10800 t
2.96450 -0.07500 2.98700 -0.10500 t
2.98700 -0.12750 2.98700 -0.10500 t
2.97950 -0.13500 2.98700 -0.12750 t
2.96450 -0.13500 2.97950 -0.13500 t
2.95700 -0.12750 2.96450 -0.13500 t
2.95700 -0.12750 2.95700 -0.11250 t
2.95700 -0.11250 2.96450 -0.10500 t
2.96450 -0.10500 2.98700 -0.10500 t
3.00500 -0.08250 3.01250 -0.07500 t
3.00500 -0.09450 3.00500 -0.08250 t
3.00500 -0.09450 3.01550 -0.10500 t
3.01550 -0.10500 3.02450 -0.10500 t
3.02450 -0.10500 3.03500 -0.09450 t
3.03500 -0.09450 3.03500 -0.08250 t
3.02750 -0.07500 3.03500 -0.08250 t
3.01250 -0.07500 3.02750 -0.07500 t
3.00500 -0.11550 3.01550 -0.10500 t
3.00500 -0.12750 3.00500 -0.11550 t
3.00500 -0.12750 3.01250 -0.13500 t
3.01250 -0.13500 3.02750 -0.13500 t
3.02750 -0.13500 3.03500 -0.12750 t
3.03500 -0.12750 3.03500 -0.11550 t
3.02450 -0.10500 3.03500 -0.11550 t
3.05300 -0.08250 3.06050 -0.07500 t
3.05300 -0.12750 3.05300 -0.08250 t
3.05300 -0.12750 3.06050 -0.13500 t
3.06050 -0.13500 3.07550 -0.13500 t
3.07550 -0.13500 3.08300 -0.12750 t
3.08300 -0.12750 3.08300 -0.08250 t
3.07550 -0.07500 3.08300 -0.08250 t
3.06050 -0.07500 3.07550 -0.07500 t
3.05300 -0.09000 3.08300 -0.12000 t
3.10100 -0.07500 3.10850 -0.07500 t
3.12650 -0.08250 3.13400 -0.07500 t
3.12650 -0.12750 3.12650 -0.08250 t
3.12650 -0.12750 3.13400 -0.13500 t
3.13400 -0.13500 3.14900 -0.13500 t
3.14900 -0.13500 3.15650 -0.12750 t
3.15650 -0.12750 3.15650 -0.08250 t
3.14900 -0.07500 3.15650 -0.08250 t
3.13400 -0.07500 3.14900 -0.07500 t
3.12650 -0.09000 3.15650 -0.12000 t
3.17450 -0.08250 3.18200 -0.07500 t
3.17450 -0.12750 3.17450 -0.08250 t
3.17450 -0.12750 3.18200 -0.13500 t
3.18200 -0.13500 3.19700 -0.13500 t
3.19700 -0.13500 3.20450 -0.12750 t
3.20450 -0.12750 3.20450 -0.08250 t
3.19700 -0.07500 3.20450 -0.08250 t
3.18200 -0.07500 3.19700 -0.07500 t
3.17450 -0.09000 3.20450 -0.12000 t
3.22250 -0.08250 3.23000 -0.07500 t
3.22250 -0.12750 3.22250 -0.08250 t
3.22250 -0.12750 3.23000 -0.13500 t
3.23000 -0.13500 3.24500 -0.13500 t
3.24500 -0.13500 3.25250 -0.12750 t
3.25250 -0.12750 3.25250 -0.08250 t
3.24500 -0.07500 3.25250 -0.08250 t
3.23000 -0.07500 3.24500 -0.07500 t
3.22250 -0.09000 3.25250 -0.12000 t
3.27050 -0.08250 3.27800 -0.07500 t
3.27050 -0.12750 3.27050 -0.08250 t
3.27050 -0.12750 3.27800 -0.13500 t
3.27800 -0.13500 3.29300 -0.13500 t
3.29300 -0.13500 3.30050 -0.12750 t
3.30050 -0.12750 3.30050 -0.08250 t
3.29300 -0.07500 3.30050 -0.08250 t
3.27800 -0.07500 3.29300 -0.07500 t
3.27050 -0.09000 3.30050 -0.12000 t
3.31850 -0.08250 3.32600 -0.07500 t
3.31850 -0.12750 3.31850 -0.08250 t
3.31850 -0.12750 3.32600 -0.13500 t
3.32600 -0.13500 3.34100 -0.13500 t
3.34100 -0.13500 3.34850 -0.12750 t
3.34850 -0.12750 3.34850 -0.08250 t
3.34100 -0.07500 3.34850 -0.08250 t
3.32600 -0.07500 3.34100 -0.07500 t
3.31850 -0.09000 3.34850 -0.12000 t
3.36650 -0.08250 3.37400 -0.07500 t
3.36650 -0.12750 3.36650 -0.08250 t
3.36650 -0.12750 3.37400 -0.13500 t
3.37400 -0.13500 3.38900 -0.13500 t
3.38900 -0.13500 3.39650 -0.12750 t
3.39650 -0.12750 3.39650 -0.08250 t
3.38900 -0.07500 3.39650 -0.08250 t
3.37400 -0.07500 3.38900 -0.07500 t
3.36650 -0.09000 3.39650 -0.12000 t
3.44900 -0.09750 3.44900 -0.07500 t
3.44900 -0.09750 3.45650 -0.10500 t
3.45650 -0.10500 3.46400 -0.10500 t
3.46400 -0.10500 3.47150 -0.09750 t
3.47150 -0.09750 3.47150 -0.07500 t
3.47150 -0.09750 3.47900 -0.10500 t
3.47900 -0.10500 3.48650 -0.10500 t
3.48650 -0.10500 3.49400 -0.09750 t
3.49400 -0.09750 3.49400 -0.07500 t
3.44150 -0.10500 3.44900 -0.09750 t
0.00750 setlinewidth
3.51200 -0.12000 3.51200 -0.11850 t
0.00600 setlinewidth
3.51200 -0.09750 3.51200 -0.07500 t
3.52700 -0.13500 3.52700 -0.08250 t
3.52700 -0.08250 3.53450 -0.07500 t
3.55700 -0.07500 3.57950 -0.07500 t
3.57950 -0.07500 3.58700 -0.08250 t
3.57950 -0.09000 3.58700 -0.08250 t
3.55700 -0.09000 3.57950 -0.09000 t
3.54950 -0.09750 3.55700 -0.09000 t
3.54950 -0.09750 3.55700 -0.10500 t
3.55700 -0.10500 3.57950 -0.10500 t
3.57950 -0.10500 3.58700 -0.09750 t
3.54950 -0.08250 3.55700 -0.07500 t
3.63200 -0.10500 3.63200 -0.08250 t
3.63200 -0.08250 3.63950 -0.07500 t
3.63950 -0.07500 3.64700 -0.07500 t
3.64700 -0.07500 3.65450 -0.08250 t
3.65450 -0.10500 3.65450 -0.08250 t
3.65450 -0.08250 3.66200 -0.07500 t
3.66200 -0.07500 3.66950 -0.07500 t
3.66950 -0.07500 3.67700 -0.08250 t
3.67700 -0.10500 3.67700 -0.08250 t
0.00750 setlinewidth
3.69500 -0.12000 3.69500 -0.11850 t
0.00600 setlinewidth
3.69500 -0.09750 3.69500 -0.07500 t
3.74000 -0.13500 3.74000 -0.07500 t
3.73250 -0.07500 3.74000 -0.08250 t
3.71750 -0.07500 3.73250 -0.07500 t
3.71000 -0.08250 3.71750 -0.07500 t
3.71000 -0.09750 3.71000 -0.08250 t
3.71000 -0.09750 3.71750 -0.10500 t
3.71750 -0.10500 3.73250 -0.10500 t
3.73250 -0.10500 3.74000 -0.09750 t
3.76550 -0.07500 3.78800 -0.07500 t
3.75800 -0.08250 3.76550 -0.07500 t
3.75800 -0.09750 3.75800 -0.08250 t
3.75800 -0.09750 3.76550 -0.10500 t
3.76550 -0.10500 3.78050 -0.10500 t
3.78050 -0.10500 3.78800 -0.09750 t
3.75800 -0.09000 3.78800 -0.09000 t
3.78800 -0.09750 3.78800 -0.09000 t
3.80600 -0.06000 3.82100 -0.07500 t
3.86600 -0.12750 3.87350 -0.13500 t
3.87350 -0.13500 3.88850 -0.13500 t
3.88850 -0.13500 3.89600 -0.12750 t
3.88850 -0.07500 3.89600 -0.08250 t
3.87350 -0.07500 3.88850 -0.07500 t
3.86600 -0.08250 3.87350 -0.07500 t
3.87350 -0.10800 3.88850 -0.10800 t
3.89600 -0.12750 3.89600 -0.11550 t
3.89600 -0.10050 3.89600 -0.08250 t
3.89600 -0.10050 3.88850 -0.10800 t
3.89600 -0.11550 3.88850 -0.10800 t
3.92150 -0.07500 3.94400 -0.10500 t
3.94400 -0.12750 3.94400 -0.10500 t
3.93650 -0.13500 3.94400 -0.12750 t
3.92150 -0.13500 3.93650 -0.13500 t
3.91400 -0.12750 3.92150 -0.13500 t
3.91400 -0.12750 3.91400 -0.11250 t
3.91400 -0.11250 3.92150 -0.10500 t
3.92150 -0.10500 3.94400 -0.10500 t
3.96200 -0.08250 3.96950 -0.07500 t
3.96200 -0.09450 3.96200 -0.08250 t
3.96200 -0.09450 3.97250 -0.10500 t
3.97250 -0.10500 3.98150 -0.10500 t
3.98150 -0.10500 3.99200 -0.09450 t
3.99200 -0.09450 3.99200 -0.08250 t
3.98450 -0.07500 3.99200 -0.08250 t
3.96950 -0.07500 3.98450 -0.07500 t
3.96200 -0.11550 3.97250 -0.10500 t
3.96200 -0.12750 3.96200 -0.11550 t
3.96200 -0.12750 3.96950 -0.13500 t
3.96950 -0.13500 3.98450 -0.13500 t
3.98450 -0.13500 3.99200 -0.12750 t
3.99200 -0.12750 3.99200 -0.11550 t
3.98150 -0.10500 3.99200 -0.11550 t
4.01000 -0.08250 4.01750 -0.07500 t
4.01000 -0.12750 4.01000 -0.08250 t
4.01000 -0.12750 4.01750 -0.13500 t
4.01750 -0.13500 4.03250 -0.13500 t
4.03250 -0.13500 4.04000 -0.12750 t
4.04000 -0.12750 4.04000 -0.08250 t
4.03250 -0.07500 4.04000 -0.08250 t
4.01750 -0.07500 4.03250 -0.07500 t
4.01000 -0.09000 4.04000 -0.12000 t
4.05800 -0.07500 4.06550 -0.07500 t
4.08350 -0.08250 4.09100 -0.07500 t
4.08350 -0.12750 4.08350 -0.08250 t
4.08350 -0.12750 4.09100 -0.13500 t
4.09100 -0.13500 4.10600 -0.13500 t
4.10600 -0.13500 4.11350 -0.12750 t
4.11350 -0.12750 4.11350 -0.08250 t
4.10600 -0.07500 4.11350 -0.08250 t
4.09100 -0.07500 4.10600 -0.07500 t
4.08350 -0.09000 4.11350 -0.12000 t
4.13150 -0.08250 4.13900 -0.07500 t
4.13150 -0.12750 4.13150 -0.08250 t
4.13150 -0.12750 4.13900 -0.13500 t
4.13900 -0.13500 4.15400 -0.13500 t
4.15400 -0.13500 4.16150 -0.12750 t
4.16150 -0.12750 4.16150 -0.08250 t
4.15400 -0.07500 4.16150 -0.08250 t
4.13900 -0.07500 4.15400 -0.07500 t
4.13150 -0.09000 4.16150 -0.12000 t
4.17950 -0.08250 4.18700 -0.07500 t
4.17950 -0.12750 4.17950 -0.08250 t
4.17950 -0.12750 4.18700 -0.13500 t
4.18700 -0.13500 4.20200 -0.13500 t
4.20200 -0.13500 4.20950 -0.12750 t
4.20950 -0.12750 4.20950 -0.08250 t
4.20200 -0.07500 4.20950 -0.08250 t
4.18700 -0.07500 4.20200 -0.07500 t
4.17950 -0.09000 4.20950 -0.12000 t
4.22750 -0.08250 4.23500 -0.07500 t
4.22750 -0.12750 4.22750 -0.08250 t
4.22750 -0.12750 4.23500 -0.13500 t
4.23500 -0.13500 4.25000 -0.13500 t
4.25000 -0.13500 4.25750 -0.12750 t
4.25750 -0.12750 4.25750 -0.08250 t
4.25000 -0.07500 4.25750 -0.08250 t
4.23500 -0.07500 4.25000 -0.07500 t
4.22750 -0.09000 4.25750 -0.12000 t
4.27550 -0.08250 4.28300 -0.07500 t
4.27550 -0.12750 4.27550 -0.08250 t
4.27550 -0.12750 4.28300 -0.13500 t
4.28300 -0.13500 4.29800 -0.13500 t
4.29800 -0.13500 4.30550 -0.12750 t
4.30550 -0.12750 4.30550 -0.08250 t
4.29800 -0.07500 4.30550 -0.08250 t
4.28300 -0.07500 4.29800 -0.07500 t
4.27550 -0.09000 4.30550 -0.12000 t
4.32350 -0.08250 4.33100 -0.07500 t
4.32350 -0.12750 4.32350 -0.08250 t
4.32350 -0.12750 4.33100 -0.13500 t
4.33100 -0.13500 4.34600 -0.13500 t
4.34600 -0.13500 4.35350 -0.12750 t
4.35350 -0.12750 4.35350 -0.08250 t
4.34600 -0.07500 4.35350 -0.08250 t
4.33100 -0.07500 4.34600 -0.07500 t
4.32350 -0.09000 4.35350 -0.12000 t
4.40600 -0.09750 4.40600 -0.07500 t
4.40600 -0.09750 4.41350 -0.10500 t
4.41350 -0.10500 4.42100 -0.10500 t
4.42100 -0.10500 4.42850 -0.09750 t
4.42850 -0.09750 4.42850 -0.07500 t
4.42850 -0.09750 4.43600 -0.10500 t
4.43600 -0.10500 4.44350 -0.10500 t
4.44350 -0.10500 4.45100 -0.09750 t
4.45100 -0.09750 4.45100 -0.07500 t
4.39850 -0.10500 4.40600 -0.09750 t
0.00750 setlinewidth
4.46900 -0.12000 4.46900 -0.11850 t
0.00600 setlinewidth
4.46900 -0.09750 4.46900 -0.07500 t
4.48400 -0.13500 4.48400 -0.08250 t
4.48400 -0.08250 4.49150 -0.07500 t
4.51400 -0.07500 4.53650 -0.07500 t
4.53650 -0.07500 4.54400 -0.08250 t
4.53650 -0.09000 4.54400 -0.08250 t
4.51400 -0.09000 4.53650 -0.09000 t
4.50650 -0.09750 4.51400 -0.09000 t
4.50650 -0.09750 4.51400 -0.10500 t
4.51400 -0.10500 4.53650 -0.10500 t
4.53650 -0.10500 4.54400 -0.09750 t
4.50650 -0.08250 4.51400 -0.07500 t
4.58900 -0.13500 4.58900 -0.07500 t
4.58900 -0.09750 4.59650 -0.10500 t
4.59650 -0.10500 4.61150 -0.10500 t
4.61150 -0.10500 4.61900 -0.09750 t
4.61900 -0.09750 4.61900 -0.07500 t
0.00750 setlinewidth
4.63700 -0.12000 4.63700 -0.11850 t
0.00600 setlinewidth
4.63700 -0.09750 4.63700 -0.07500 t
4.67450 -0.10500 4.68200 -0.09750 t
4.65950 -0.10500 4.67450 -0.10500 t
4.65200 -0.09750 4.65950 -0.10500 t
4.65200 -0.09750 4.65200 -0.08250 t
4.65200 -0.08250 4.65950 -0.07500 t
4.65950 -0.07500 4.67450 -0.07500 t
4.67450 -0.07500 4.68200 -0.08250 t
4.65200 -0.06000 4.65950 -0.05250 t
4.65950 -0.05250 4.67450 -0.05250 t
4.67450 -0.05250 4.68200 -0.06000 t
4.68200 -0.10500 4.68200 -0.06000 t
4.70000 -0.13500 4.70000 -0.07500 t
4.70000 -0.09750 4.70750 -0.10500 t
4.70750 -0.10500 4.72250 -0.10500 t
4.72250 -0.10500 4.73000 -0.09750 t
4.73000 -0.09750 4.73000 -0.07500 t
0.00000 4.07500 0.03000 4.07500 t
0.03000 4.07500 0.03750 4.06750 t
0.03750 4.04950 0.03750 4.06750 t
0.03000 4.04200 0.03750 4.04950 t
0.00750 4.04200 0.03000 4.04200 t
0.00750 4.01500 0.00750 4.07500 t
0.00000 4.01500 0.03000 4.01500 t
0.03000 4.01500 0.03750 4.02250 t
0.03750 4.02250 0.03750 4.03450 t
0.03000 4.04200 0.03750 4.03450 t
0.05550 4.05250 0.05550 4.06750 t
0.05550 4.05250 0.06300 4.04500 t
0.06300 4.04500 0.07800 4.04500 t
0.07800 4.04500 0.08550 4.05250 t
0.08550 4.05250 0.08550 4.06750 t
0.07800 4.07500 0.08550 4.06750 t
0.06300 4.07500 0.07800 4.07500 t
0.05550 4.06750 0.06300 4.07500 t
0.12600 4.04500 0.13350 4.05250 t
0.11100 4.04500 0.12600 4.04500 t
0.10350 4.05250 0.11100 4.04500 t
0.10350 4.05250 0.10350 4.06750 t
0.10350 4.06750 0.11100 4.07500 t
0.13350 4.04500 0.13350 4.06750 t
0.13350 4.06750 0.14100 4.07500 t
0.11100 4.07500 0.12600 4.07500 t
0.12600 4.07500 0.13350 4.06750 t
0.16650 4.05250 0.16650 4.07500 t
0.16650 4.05250 0.17400 4.04500 t
0.17400 4.04500 0.18900 4.04500 t
0.15900 4.04500 0.16650 4.05250 t
0.23700 4.01500 0.23700 4.07500 t
0.22950 4.07500 0.23700 4.06750 t
0.21450 4.07500 0.22950 4.07500 t
0.20700 4.06750 0.21450 4.07500 t
0.20700 4.05250 0.20700 4.06750 t
0.20700 4.05250 0.21450 4.04500 t
0.21450 4.04500 0.22950 4.04500 t
0.22950 4.04500 0.23700 4.05250 t
0.28200 4.05250 0.28200 4.06750 t
0.28200 4.05250 0.28950 4.04500 t
0.28950 4.04500 0.30450 4.04500 t
0.30450 4.04500 0.31200 4.05250 t
0.31200 4.05250 0.31200 4.06750 t
0.30450 4.07500 0.31200 4.06750 t
0.28950 4.07500 0.30450 4.07500 t
0.28200 4.06750 0.28950 4.07500 t
0.33000 4.04500 0.33000 4.06750 t
0.33000 4.06750 0.33750 4.07500 t
0.33750 4.07500 0.35250 4.07500 t
0.35250 4.07500 0.36000 4.06750 t
0.36000 4.04500 0.36000 4.06750 t
0.38550 4.01500 0.38550 4.06750 t
0.38550 4.06750 0.39300 4.07500 t
0.37800 4.03750 0.39300 4.03750 t
0.40800 4.01500 0.40800 4.06750 t
0.40800 4.06750 0.41550 4.07500 t
0.00750 setlinewidth
0.43050 4.03000 0.43050 4.03150 t
0.00600 setlinewidth
0.43050 4.05250 0.43050 4.07500 t
0.45300 4.05250 0.45300 4.07500 t
0.45300 4.05250 0.46050 4.04500 t
0.46050 4.04500 0.46800 4.04500 t
0.46800 4.04500 0.47550 4.05250 t
0.47550 4.05250 0.47550 4.07500 t
0.44550 4.04500 0.45300 4.05250 t
0.50100 4.07500 0.52350 4.07500 t
0.49350 4.06750 0.50100 4.07500 t
0.49350 4.05250 0.49350 4.06750 t
0.49350 4.05250 0.50100 4.04500 t
0.50100 4.04500 0.51600 4.04500 t
0.51600 4.04500 0.52350 4.05250 t
0.49350 4.06000 0.52350 4.06000 t
0.52350 4.05250 0.52350 4.06000 t
0.00750 setlinewidth
0.56850 4.03000 0.56850 4.03150 t
0.00600 setlinewidth
0.56850 4.05250 0.56850 4.07500 t
0.59100 4.07500 0.61350 4.07500 t
0.61350 4.07500 0.62100 4.06750 t
0.61350 4.06000 0.62100 4.06750 t
0.59100 4.06000 0.61350 4.06000 t
0.58350 4.05250 0.59100 4.06000 t
0.58350 4.05250 0.59100 4.04500 t
0.59100 4.04500 0.61350 4.04500 t
0.61350 4.04500 0.62100 4.05250 t
0.58350 4.06750 0.59100 4.07500 t
0.67350 4.01500 0.67350 4.06750 t
0.67350 4.06750 0.68100 4.07500 t
0.66600 4.03750 0.68100 4.03750 t
0.69600 4.01500 0.69600 4.07500 t
0.69600 4.05250 0.70350 4.04500 t
0.70350 4.04500 0.71850 4.04500 t
0.71850 4.04500 0.72600 4.05250 t
0.72600 4.05250 0.72600 4.07500 t
0.75150 4.07500 0.77400 4.07500 t
0.74400 4.06750 0.75150 4.07500 t
0.74400 4.05250 0.74400 4.06750 t
0.74400 4.05250 0.75150 4.04500 t
0.75150 4.04500 0.76650 4.04500 t
0.76650 4.04500 0.77400 4.05250 t
0.74400 4.06000 0.77400 4.06000 t
0.77400 4.05250 0.77400 4.06000 t
0.82650 4.04500 0.84900 4.04500 t
0.81900 4.05250 0.82650 4.04500 t
0.81900 4.05250 0.81900 4.06750 t
0.81900 4.06750 0.82650 4.07500 t
0.82650 4.07500 0.84900 4.07500 t
0.87450 4.07500 0.89700 4.07500 t
0.86700 4.06750 0.87450 4.07500 t
0.86700 4.05250 0.86700 4.06750 t
0.86700 4.05250 0.87450 4.04500 t
0.87450 4.04500 0.88950 4.04500 t
0.88950 4.04500 0.89700 4.05250 t
0.86700 4.06000 0.89700 4.06000 t
0.89700 4.05250 0.89700 4.06000 t
0.92250 4.05250 0.92250 4.07500 t
0.92250 4.05250 0.93000 4.04500 t
0.93000 4.04500 0.93750 4.04500 t
0.93750 4.04500 0.94500 4.05250 t
0.94500 4.05250 0.94500 4.07500 t
0.91500 4.04500 0.92250 4.05250 t
0.97050 4.01500 0.97050 4.06750 t
0.97050 4.06750 0.97800 4.07500 t
0.96300 4.03750 0.97800 4.03750 t
1.00050 4.07500 1.02300 4.07500 t
0.99300 4.06750 1.00050 4.07500 t
0.99300 4.05250 0.99300 4.06750 t
0.99300 4.05250 1.00050 4.04500 t
1.00050 4.04500 1.01550 4.04500 t
1.01550 4.04500 1.02300 4.05250 t
0.99300 4.06000 1.02300 4.06000 t
1.02300 4.05250 1.02300 4.06000 t
1.04850 4.05250 1.04850 4.07500 t
1.04850 4.05250 1.05600 4.04500 t
1.05600 4.04500 1.07100 4.04500 t
1.04100 4.04500 1.04850 4.05250 t
1.08900 4.01500 1.08900 4.06750 t
1.08900 4.06750 1.09650 4.07500 t
0.00750 setlinewidth
1.11150 4.03000 1.11150 4.03150 t
0.00600 setlinewidth
1.11150 4.05250 1.11150 4.07500 t
1.13400 4.05250 1.13400 4.07500 t
1.13400 4.05250 1.14150 4.04500 t
1.14150 4.04500 1.14900 4.04500 t
1.14900 4.04500 1.15650 4.05250 t
1.15650 4.05250 1.15650 4.07500 t
1.12650 4.04500 1.13400 4.05250 t
1.18200 4.07500 1.20450 4.07500 t
1.17450 4.06750 1.18200 4.07500 t
1.17450 4.05250 1.17450 4.06750 t
1.17450 4.05250 1.18200 4.04500 t
1.18200 4.04500 1.19700 4.04500 t
1.19700 4.04500 1.20450 4.05250 t
1.17450 4.06000 1.20450 4.06000 t
1.20450 4.05250 1.20450 4.06000 t
1.24950 4.05250 1.24950 4.06750 t
1.24950 4.05250 1.25700 4.04500 t
1.25700 4.04500 1.27200 4.04500 t
1.27200 4.04500 1.27950 4.05250 t
1.27950 4.05250 1.27950 4.06750 t
1.27200 4.07500 1.27950 4.06750 t
1.25700 4.07500 1.27200 4.07500 t
1.24950 4.06750 1.25700 4.07500 t
1.30500 4.02250 1.30500 4.07500 t
1.30500 4.02250 1.31250 4.01500 t
1.31250 4.01500 1.32000 4.01500 t
1.29750 4.04500 1.31250 4.04500 t
1.36950 4.01500 1.36950 4.06750 t
1.36950 4.06750 1.37700 4.07500 t
1.36200 4.03750 1.37700 4.03750 t
1.39200 4.01500 1.39200 4.07500 t
1.39200 4.05250 1.39950 4.04500 t
1.39950 4.04500 1.41450 4.04500 t
1.41450 4.04500 1.42200 4.05250 t
1.42200 4.05250 1.42200 4.07500 t
0.00750 setlinewidth
1.44000 4.03000 1.44000 4.03150 t
0.00600 setlinewidth
1.44000 4.05250 1.44000 4.07500 t
1.46250 4.07500 1.48500 4.07500 t
1.48500 4.07500 1.49250 4.06750 t
1.48500 4.06000 1.49250 4.06750 t
1.46250 4.06000 1.48500 4.06000 t
1.45500 4.05250 1.46250 4.06000 t
1.45500 4.05250 1.46250 4.04500 t
1.46250 4.04500 1.48500 4.04500 t
1.48500 4.04500 1.49250 4.05250 t
1.45500 4.06750 1.46250 4.07500 t
1.53750 4.06750 1.54500 4.07500 t
1.53750 4.05550 1.53750 4.06750 t
1.53750 4.05550 1.54800 4.04500 t
1.54800 4.04500 1.55700 4.04500 t
1.55700 4.04500 1.56750 4.05550 t
1.56750 4.05550 1.56750 4.06750 t
1.56000 4.07500 1.56750 4.06750 t
1.54500 4.07500 1.56000 4.07500 t
1.53750 4.03450 1.54800 4.04500 t
1.53750 4.02250 1.53750 4.03450 t
1.53750 4.02250 1.54500 4.01500 t
1.54500 4.01500 1.56000 4.01500 t
1.56000 4.01500 1.56750 4.02250 t
1.56750 4.02250 1.56750 4.03450 t
1.55700 4.04500 1.56750 4.03450 t
1.58550 4.07500 1.59300 4.07500 t
1.61100 4.06750 1.61850 4.07500 t
1.61100 4.02250 1.61100 4.06750 t
1.61100 4.02250 1.61850 4.01500 t
1.61850 4.01500 1.63350 4.01500 t
1.63350 4.01500 1.64100 4.02250 t
1.64100 4.02250 1.64100 4.06750 t
1.63350 4.07500 1.64100 4.06750 t
1.61850 4.07500 1.63350 4.07500 t
1.61100 4.06000 1.64100 4.03000 t
1.65900 4.06750 1.66650 4.07500 t
1.65900 4.02250 1.65900 4.06750 t
1.65900 4.02250 1.66650 4.01500 t
1.66650 4.01500 1.68150 4.01500 t
1.68150 4.01500 1.68900 4.02250 t
1.68900 4.02250 1.68900 4.06750 t
1.68150 4.07500 1.68900 4.06750 t
1.66650 4.07500 1.68150 4.07500 t
1.65900 4.06000 1.68900 4.03000 t
1.70700 4.06750 1.71450 4.07500 t
1.70700 4.02250 1.70700 4.06750 t
1.70700 4.02250 1.71450 4.01500 t
1.71450 4.01500 1.72950 4.01500 t
1.72950 4.01500 1.73700 4.02250 t
1.73700 4.02250 1.73700 4.06750 t
1.72950 4.07500 1.73700 4.06750 t
1.71450 4.07500 1.72950 4.07500 t
1.70700 4.06000 1.73700 4.03000 t
1.75500 4.06750 1.76250 4.07500 t
1.75500 4.02250 1.75500 4.06750 t
1.75500 4.02250 1.76250 4.01500 t
1.76250 4.01500 1.77750 4.01500 t
1.77750 4.01500 1.78500 4.02250 t
1.78500 4.02250 1.78500 4.06750 t
1.77750 4.07500 1.78500 4.06750 t
1.76250 4.07500 1.77750 4.07500 t
1.75500 4.06000 1.78500 4.03000 t
1.80300 4.06750 1.81050 4.07500 t
1.80300 4.02250 1.80300 4.06750 t
1.80300 4.02250 1.81050 4.01500 t
1.81050 4.01500 1.82550 4.01500 t
1.82550 4.01500 1.83300 4.02250 t
1.83300 4.02250 1.83300 4.06750 t
1.82550 4.07500 1.83300 4.06750 t
1.81050 4.07500 1.82550 4.07500 t
1.80300 4.06000 1.83300 4.03000 t
1.85100 4.06750 1.85850 4.07500 t
1.85100 4.02250 1.85100 4.06750 t
1.85100 4.02250 1.85850 4.01500 t
1.85850 4.01500 1.87350 4.01500 t
1.87350 4.01500 1.88100 4.02250 t
1.88100 4.02250 1.88100 4.06750 t
1.87350 4.07500 1.88100 4.06750 t
1.85850 4.07500 1.87350 4.07500 t
1.85100 4.06000 1.88100 4.03000 t
1.93350 4.05250 1.93350 4.07500 t
1.93350 4.05250 1.94100 4.04500 t
1.94100 4.04500 1.94850 4.04500 t
1.94850 4.04500 1.95600 4.05250 t
1.95600 4.05250 1.95600 4.07500 t
1.95600 4.05250 1.96350 4.04500 t
1.96350 4.04500 1.97100 4.04500 t
1.97100 4.04500 1.97850 4.05250 t
1.97850 4.05250 1.97850 4.07500 t
1.92600 4.04500 1.93350 4.05250 t
0.00750 setlinewidth
1.99650 4.03000 1.99650 4.03150 t
0.00600 setlinewidth
1.99650 4.05250 1.99650 4.07500 t
2.01150 4.01500 2.01150 4.06750 t
2.01150 4.06750 2.01900 4.07500 t
2.06850 4.05250 2.06850 4.07500 t
2.06850 4.05250 2.07600 4.04500 t
2.07600 4.04500 2.09100 4.04500 t
2.06100 4.04500 2.06850 4.05250 t
2.11650 4.07500 2.13900 4.07500 t
2.10900 4.06750 2.11650 4.07500 t
2.10900 4.05250 2.10900 4.06750 t
2.10900 4.05250 2.11650 4.04500 t
2.11650 4.04500 2.13150 4.04500 t
2.13150 4.04500 2.13900 4.05250 t
2.10900 4.06000 2.13900 4.06000 t
2.13900 4.05250 2.13900 4.06000 t
2.16450 4.04500 2.18700 4.04500 t
2.15700 4.05250 2.16450 4.04500 t
2.15700 4.05250 2.15700 4.06750 t
2.15700 4.06750 2.16450 4.07500 t
2.16450 4.07500 2.18700 4.07500 t
2.21250 4.01500 2.21250 4.06750 t
2.21250 4.06750 2.22000 4.07500 t
2.20500 4.03750 2.22000 4.03750 t
2.25750 4.04500 2.26500 4.05250 t
2.24250 4.04500 2.25750 4.04500 t
2.23500 4.05250 2.24250 4.04500 t
2.23500 4.05250 2.23500 4.06750 t
2.23500 4.06750 2.24250 4.07500 t
2.26500 4.04500 2.26500 4.06750 t
2.26500 4.06750 2.27250 4.07500 t
2.24250 4.07500 2.25750 4.07500 t
2.25750 4.07500 2.26500 4.06750 t
2.29800 4.05250 2.29800 4.07500 t
2.29800 4.05250 2.30550 4.04500 t
2.30550 4.04500 2.31300 4.04500 t
2.31300 4.04500 2.32050 4.05250 t
2.32050 4.05250 2.32050 4.07500 t
2.29050 4.04500 2.29800 4.05250 t
2.36100 4.04500 2.36850 4.05250 t
2.34600 4.04500 2.36100 4.04500 t
2.33850 4.05250 2.34600 4.04500 t
2.33850 4.05250 2.33850 4.06750 t
2.33850 4.06750 2.34600 4.07500 t
2.34600 4.07500 2.36100 4.07500 t
2.36100 4.07500 2.36850 4.06750 t
2.33850 4.09000 2.34600 4.09750 t
2.34600 4.09750 2.36100 4.09750 t
2.36100 4.09750 2.36850 4.09000 t
2.36850 4.04500 2.36850 4.09000 t
2.38650 4.01500 2.38650 4.06750 t
2.38650 4.06750 2.39400 4.07500 t
2.41650 4.07500 2.43900 4.07500 t
2.40900 4.06750 2.41650 4.07500 t
2.40900 4.05250 2.40900 4.06750 t
2.40900 4.05250 2.41650 4.04500 t
2.41650 4.04500 2.43150 4.04500 t
2.43150 4.04500 2.43900 4.05250 t
2.40900 4.06000 2.43900 4.06000 t
2.43900 4.05250 2.43900 4.06000 t
2.48400 4.04500 2.51400 4.04500 t
2.55900 4.06750 2.56650 4.07500 t
2.55900 4.02250 2.55900 4.06750 t
2.55900 4.02250 2.56650 4.01500 t
2.56650 4.01500 2.58150 4.01500 t
2.58150 4.01500 2.58900 4.02250 t
2.58900 4.02250 2.58900 4.06750 t
2.58150 4.07500 2.58900 4.06750 t
2.56650 4.07500 2.58150 4.07500 t
2.55900 4.06000 2.58900 4.03000 t
2.60700 4.09000 2.62200 4.07500 t
2.64000 4.06750 2.64750 4.07500 t
2.64000 4.02250 2.64000 4.06750 t
2.64000 4.02250 2.64750 4.01500 t
2.64750 4.01500 2.66250 4.01500 t
2.66250 4.01500 2.67000 4.02250 t
2.67000 4.02250 2.67000 4.06750 t
2.66250 4.07500 2.67000 4.06750 t
2.64750 4.07500 2.66250 4.07500 t
2.64000 4.06000 2.67000 4.03000 t
2.72250 4.01500 2.72250 4.06750 t
2.72250 4.06750 2.73000 4.07500 t
2.71500 4.03750 2.73000 4.03750 t
2.74500 4.05250 2.74500 4.06750 t
2.74500 4.05250 2.75250 4.04500 t
2.75250 4.04500 2.76750 4.04500 t
2.76750 4.04500 2.77500 4.05250 t
2.77500 4.05250 2.77500 4.06750 t
2.76750 4.07500 2.77500 4.06750 t
2.75250 4.07500 2.76750 4.07500 t
2.74500 4.06750 2.75250 4.07500 t
2.82000 4.02250 2.82750 4.01500 t
2.82750 4.01500 2.84250 4.01500 t
2.84250 4.01500 2.85000 4.02250 t
2.84250 4.07500 2.85000 4.06750 t
2.82750 4.07500 2.84250 4.07500 t
2.82000 4.06750 2.82750 4.07500 t
2.82750 4.04200 2.84250 4.04200 t
2.85000 4.02250 2.85000 4.03450 t
2.85000 4.04950 2.85000 4.06750 t
2.85000 4.04950 2.84250 4.04200 t
2.85000 4.03450 2.84250 4.04200 t
2.87550 4.07500 2.89800 4.04500 t
2.89800 4.02250 2.89800 4.04500 t
2.89050 4.01500 2.89800 4.02250 t
2.87550 4.01500 2.89050 4.01500 t
2.86800 4.02250 2.87550 4.01500 t
2.86800 4.02250 2.86800 4.03750 t
2.86800 4.03750 2.87550 4.04500 t
2.87550 4.04500 2.89800 4.04500 t
2.91600 4.06750 2.92350 4.07500 t
2.91600 4.05550 2.91600 4.06750 t
2.91600 4.05550 2.92650 4.04500 t
2.92650 4.04500 2.93550 4.04500 t
2.93550 4.04500 2.94600 4.05550 t
2.94600 4.05550 2.94600 4.06750 t
2.93850 4.07500 2.94600 4.06750 t
2.92350 4.07500 2.93850 4.07500 t
2.91600 4.03450 2.92650 4.04500 t
2.91600 4.02250 2.91600 4.03450 t
2.91600 4.02250 2.92350 4.01500 t
2.92350 4.01500 2.93850 4.01500 t
2.93850 4.01500 2.94600 4.02250 t
2.94600 4.02250 2.94600 4.03450 t
2.93550 4.04500 2.94600 4.03450 t
2.96400 4.06750 2.97150 4.07500 t
2.96400 4.02250 2.96400 4.06750 t
2.96400 4.02250 2.97150 4.01500 t
2.97150 4.01500 2.98650 4.01500 t
2.98650 4.01500 2.99400 4.02250 t
2.99400 4.02250 2.99400 4.06750 t
2.98650 4.07500 2.99400 4.06750 t
2.97150 4.07500 2.98650 4.07500 t
2.96400 4.06000 2.99400 4.03000 t
3.01200 4.07500 3.01950 4.07500 t
3.03750 4.06750 3.04500 4.07500 t
3.03750 4.02250 3.03750 4.06750 t
3.03750 4.02250 3.04500 4.01500 t
3.04500 4.01500 3.06000 4.01500 t
3.06000 4.01500 3.06750 4.02250 t
3.06750 4.02250 3.06750 4.06750 t
3.06000 4.07500 3.06750 4.06750 t
3.04500 4.07500 3.06000 4.07500 t
3.03750 4.06000 3.06750 4.03000 t
3.08550 4.06750 3.09300 4.07500 t
3.08550 4.02250 3.08550 4.06750 t
3.08550 4.02250 3.09300 4.01500 t
3.09300 4.01500 3.10800 4.01500 t
3.10800 4.01500 3.11550 4.02250 t
3.11550 4.02250 3.11550 4.06750 t
3.10800 4.07500 3.11550 4.06750 t
3.09300 4.07500 3.10800 4.07500 t
3.08550 4.06000 3.11550 4.03000 t
3.13350 4.06750 3.14100 4.07500 t
3.13350 4.02250 3.13350 4.06750 t
3.13350 4.02250 3.14100 4.01500 t
3.14100 4.01500 3.15600 4.01500 t
3.15600 4.01500 3.16350 4.02250 t
3.16350 4.02250 3.16350 4.06750 t
3.15600 4.07500 3.16350 4.06750 t
3.14100 4.07500 3.15600 4.07500 t
3.13350 4.06000 3.16350 4.03000 t
3.18150 4.06750 3.18900 4.07500 t
3.18150 4.02250 3.18150 4.06750 t
3.18150 4.02250 3.18900 4.01500 t
3.18900 4.01500 3.20400 4.01500 t
3.20400 4.01500 3.21150 4.02250 t
3.21150 4.02250 3.21150 4.06750 t
3.20400 4.07500 3.21150 4.06750 t
3.18900 4.07500 3.20400 4.07500 t
3.18150 4.06000 3.21150 4.03000 t
3.22950 4.06750 3.23700 4.07500 t
3.22950 4.02250 3.22950 4.06750 t
3.22950 4.02250 3.23700 4.01500 t
3.23700 4.01500 3.25200 4.01500 t
3.25200 4.01500 3.25950 4.02250 t
3.25950 4.02250 3.25950 4.06750 t
3.25200 4.07500 3.25950 4.06750 t
3.23700 4.07500 3.25200 4.07500 t
3.22950 4.06000 3.25950 4.03000 t
3.27750 4.06750 3.28500 4.07500 t
3.27750 4.02250 3.27750 4.06750 t
3.27750 4.02250 3.28500 4.01500 t
3.28500 4.01500 3.30000 4.01500 t
3.30000 4.01500 3.30750 4.02250 t
3.30750 4.02250 3.30750 4.06750 t
3.30000 4.07500 3.30750 4.06750 t
3.28500 4.07500 3.30000 4.07500 t
3.27750 4.06000 3.30750 4.03000 t
3.32550 4.09000 3.34050 4.07500 t
3.35850 4.02250 3.36600 4.01500 t
3.36600 4.01500 3.38100 4.01500 t
3.38100 4.01500 3.38850 4.02250 t
3.38100 4.07500 3.38850 4.06750 t
3.36600 4.07500 3.38100 4.07500 t
3.35850 4.06750 3.36600 4.07500 t
3.36600 4.04200 3.38100 4.04200 t
3.38850 4.02250 3.38850 4.03450 t
3.38850 4.04950 3.38850 4.06750 t
3.38850 4.04950 3.38100 4.04200 t
3.38850 4.03450 3.38100 4.04200 t
3.41400 4.07500 3.43650 4.04500 t
3.43650 4.02250 3.43650 4.04500 t
3.42900 4.01500 3.43650 4.02250 t
3.41400 4.01500 3.42900 4.01500 t
3.40650 4.02250 3.41400 4.01500 t
3.40650 4.02250 3.40650 4.03750 t
3.40650 4.03750 3.41400 4.04500 t
3.41400 4.04500 3.43650 4.04500 t
3.45450 4.06750 3.46200 4.07500 t
3.45450 4.05550 3.45450 4.06750 t
3.45450 4.05550 3.46500 4.04500 t
3.46500 4.04500 3.47400 4.04500 t
3.47400 4.04500 3.48450 4.05550 t
3.48450 4.05550 3.48450 4.06750 t
3.47700 4.07500 3.48450 4.06750 t
3.46200 4.07500 3.47700 4.07500 t
3.45450 4.03450 3.46500 4.04500 t
3.45450 4.02250 3.45450 4.03450 t
3.45450 4.02250 3.46200 4.01500 t
3.46200 4.01500 3.47700 4.01500 t
3.47700 4.01500 3.48450 4.02250 t
3.48450 4.02250 3.48450 4.03450 t
3.47400 4.04500 3.48450 4.03450 t
3.50250 4.06750 3.51000 4.07500 t
3.50250 4.02250 3.50250 4.06750 t
3.50250 4.02250 3.51000 4.01500 t
3.51000 4.01500 3.52500 4.01500 t
3.52500 4.01500 3.53250 4.02250 t
3.53250 4.02250 3.53250 4.06750 t
3.52500 4.07500 3.53250 4.06750 t
3.51000 4.07500 3.52500 4.07500 t
3.50250 4.06000 3.53250 4.03000 t
3.55050 4.07500 3.55800 4.07500 t
3.57600 4.06750 3.58350 4.07500 t
3.57600 4.02250 3.57600 4.06750 t
3.57600 4.02250 3.58350 4.01500 t
3.58350 4.01500 3.59850 4.01500 t
3.59850 4.01500 3.60600 4.02250 t
3.60600 4.02250 3.60600 4.06750 t
3.59850 4.07500 3.60600 4.06750 t
3.58350 4.07500 3.59850 4.07500 t
3.57600 4.06000 3.60600 4.03000 t
3.62400 4.06750 3.63150 4.07500 t
3.62400 4.02250 3.62400 4.06750 t
3.62400 4.02250 3.63150 4.01500 t
3.63150 4.01500 3.64650 4.01500 t
3.64650 4.01500 3.65400 4.02250 t
3.65400 4.02250 3.65400 4.06750 t
3.64650 4.07500 3.65400 4.06750 t
3.63150 4.07500 3.64650 4.07500 t
3.62400 4.06000 3.65400 4.03000 t
3.67200 4.06750 3.67950 4.07500 t
3.67200 4.02250 3.67200 4.06750 t
3.67200 4.02250 3.67950 4.01500 t
3.67950 4.01500 3.69450 4.01500 t
3.69450 4.01500 3.70200 4.02250 t
3.70200 4.02250 3.70200 4.06750 t
3.69450 4.07500 3.70200 4.06750 t
3.67950 4.07500 3.69450 4.07500 t
3.67200 4.06000 3.70200 4.03000 t
3.72000 4.06750 3.72750 4.07500 t
3.72000 4.02250 3.72000 4.06750 t
3.72000 4.02250 3.72750 4.01500 t
3.72750 4.01500 3.74250 4.01500 t
3.74250 4.01500 3.75000 4.02250 t
3.75000 4.02250 3.75000 4.06750 t
3.74250 4.07500 3.75000 4.06750 t
3.72750 4.07500 3.74250 4.07500 t
3.72000 4.06000 3.75000 4.03000 t
3.76800 4.06750 3.77550 4.07500 t
3.76800 4.02250 3.76800 4.06750 t
3.76800 4.02250 3.77550 4.01500 t
3.77550 4.01500 3.79050 4.01500 t
3.79050 4.01500 3.79800 4.02250 t
3.79800 4.02250 3.79800 4.06750 t
3.79050 4.07500 3.79800 4.06750 t
3.77550 4.07500 3.79050 4.07500 t
3.76800 4.06000 3.79800 4.03000 t
3.81600 4.06750 3.82350 4.07500 t
3.81600 4.02250 3.81600 4.06750 t
3.81600 4.02250 3.82350 4.01500 t
3.82350 4.01500 3.83850 4.01500 t
3.83850 4.01500 3.84600 4.02250 t
3.84600 4.02250 3.84600 4.06750 t
3.83850 4.07500 3.84600 4.06750 t
3.82350 4.07500 3.83850 4.07500 t
3.81600 4.06000 3.84600 4.03000 t
3.89850 4.05250 3.89850 4.07500 t
3.89850 4.05250 3.90600 4.04500 t
3.90600 4.04500 3.91350 4.04500 t
3.91350 4.04500 3.92100 4.05250 t
3.92100 4.05250 3.92100 4.07500 t
3.92100 4.05250 3.92850 4.04500 t
3.92850 4.04500 3.93600 4.04500 t
3.93600 4.04500 3.94350 4.05250 t
3.94350 4.05250 3.94350 4.07500 t
3.89100 4.04500 3.89850 4.05250 t
0.00750 setlinewidth
3.96150 4.03000 3.96150 4.03150 t
0.00600 setlinewidth
3.96150 4.05250 3.96150 4.07500 t
3.97650 4.01500 3.97650 4.06750 t
3.97650 4.06750 3.98400 4.07500 t
4.00650 4.07500 4.02901 4.07500 t
4.02901 4.07500 4.03651 4.06750 t
4.02901 4.06000 4.03651 4.06750 t
4.00650 4.06000 4.02901 4.06000 t
3.99901 4.05250 4.00650 4.06000 t
3.99901 4.05250 4.00650 4.04500 t
4.00650 4.04500 4.02901 4.04500 t
4.02901 4.04500 4.03651 4.05250 t
3.99901 4.06750 4.00650 4.07500 t
2.00750 -0.28500 2.00750 -0.22500 t
2.02700 -0.28500 2.03750 -0.27450 t
2.03750 -0.27450 2.03750 -0.23550 t
2.02700 -0.22500 2.03750 -0.23550 t
2.00000 -0.22500 2.02700 -0.22500 t
2.00000 -0.28500 2.02700 -0.28500 t
2.07800 -0.25500 2.08550 -0.24750 t
2.06300 -0.25500 2.07800 -0.25500 t
2.05550 -0.24750 2.06300 -0.25500 t
2.05550 -0.24750 2.05550 -0.23250 t
2.05550 -0.23250 2.06300 -0.22500 t
2.08550 -0.25500 2.08550 -0.23250 t
2.08550 -0.23250 2.09300 -0.22500 t
2.06300 -0.22500 2.07800 -0.22500 t
2.07800 -0.22500 2.08550 -0.23250 t
2.11850 -0.28500 2.11850 -0.23250 t
2.11850 -0.23250 2.12600 -0.22500 t
2.11100 -0.26250 2.12600 -0.26250 t
2.14850 -0.22500 2.17100 -0.22500 t
2.14100 -0.23250 2.14850 -0.22500 t
2.14100 -0.24750 2.14100 -0.23250 t
2.14100 -0.24750 2.14850 -0.25500 t
2.14850 -0.25500 2.16350 -0.25500 t
2.16350 -0.25500 2.17100 -0.24750 t
2.14100 -0.24000 2.17100 -0.24000 t
2.17100 -0.24750 2.17100 -0.24000 t
2.18900 -0.26250 2.19650 -0.26250 t
2.18900 -0.24750 2.19650 -0.24750 t
2.24150 -0.28500 2.24150 -0.22500 t
2.24150 -0.28500 2.27150 -0.28500 t
2.24150 -0.25800 2.26400 -0.25800 t
2.29700 -0.24750 2.29700 -0.22500 t
2.29700 -0.24750 2.30450 -0.25500 t
2.30450 -0.25500 2.31950 -0.25500 t
2.28950 -0.25500 2.29700 -0.24750 t
0.00750 setlinewidth
2.33750 -0.27000 2.33750 -0.26850 t
0.00600 setlinewidth
2.33750 -0.24750 2.33750 -0.22500 t
2.37950 -0.27300 2.39150 -0.28500 t
2.39150 -0.28500 2.39150 -0.22500 t
2.37950 -0.22500 2.40200 -0.22500 t
2.42750 -0.22500 2.45750 -0.28500 t
2.42000 -0.28500 2.45750 -0.28500 t
2.50250 -0.27000 2.50250 -0.22500 t
2.50250 -0.27000 2.51300 -0.28500 t
2.51300 -0.28500 2.52950 -0.28500 t
2.52950 -0.28500 2.54000 -0.27000 t
2.54000 -0.27000 2.54000 -0.22500 t
2.50250 -0.25500 2.54000 -0.25500 t
2.56550 -0.24750 2.56550 -0.20250 t
2.55800 -0.25500 2.56550 -0.24750 t
2.56550 -0.24750 2.57300 -0.25500 t
2.57300 -0.25500 2.58800 -0.25500 t
2.58800 -0.25500 2.59550 -0.24750 t
2.59550 -0.24750 2.59550 -0.23250 t
2.58800 -0.22500 2.59550 -0.23250 t
2.57300 -0.22500 2.58800 -0.22500 t
2.56550 -0.23250 2.57300 -0.22500 t
2.62100 -0.24750 2.62100 -0.22500 t
2.62100 -0.24750 2.62850 -0.25500 t
2.62850 -0.25500 2.64350 -0.25500 t
2.61350 -0.25500 2.62100 -0.24750 t
2.68850 -0.27750 2.69600 -0.28500 t
2.69600 -0.28500 2.71850 -0.28500 t
2.71850 -0.28500 2.72600 -0.27750 t
2.72600 -0.27750 2.72600 -0.26250 t
2.68850 -0.22500 2.72600 -0.26250 t
2.68850 -0.22500 2.72600 -0.22500 t
2.74400 -0.23250 2.75150 -0.22500 t
2.74400 -0.27750 2.74400 -0.23250 t
2.74400 -0.27750 2.75150 -0.28500 t
2.75150 -0.28500 2.76650 -0.28500 t
2.76650 -0.28500 2.77400 -0.27750 t
2.77400 -0.27750 2.77400 -0.23250 t
2.76650 -0.22500 2.77400 -0.23250 t
2.75150 -0.22500 2.76650 -0.22500 t
2.74400 -0.24000 2.77400 -0.27000 t
2.79200 -0.27300 2.80400 -0.28500 t
2.80400 -0.28500 2.80400 -0.22500 t
2.79200 -0.22500 2.81450 -0.22500 t
2.83250 -0.28500 2.86250 -0.28500 t
2.83250 -0.28500 2.83250 -0.25500 t
2.83250 -0.25500 2.84000 -0.26250 t
2.84000 -0.26250 2.85500 -0.26250 t
2.85500 -0.26250 2.86250 -0.25500 t
2.86250 -0.25500 2.86250 -0.23250 t
2.85500 -0.22500 2.86250 -0.23250 t
2.84000 -0.22500 2.85500 -0.22500 t
2.83250 -0.23250 2.84000 -0.22500 t
2.90750 -0.23250 2.91500 -0.22500 t
2.90750 -0.27750 2.90750 -0.23250 t
2.90750 -0.27750 2.91500 -0.28500 t
2.91500 -0.28500 2.93000 -0.28500 t
2.93000 -0.28500 2.93750 -0.27750 t
2.93750 -0.27750 2.93750 -0.23250 t
2.93000 -0.22500 2.93750 -0.23250 t
2.91500 -0.22500 2.93000 -0.22500 t
2.90750 -0.24000 2.93750 -0.27000 t
2.95550 -0.24750 2.98550 -0.28500 t
2.95550 -0.24750 2.99300 -0.24750 t
2.98550 -0.28500 2.98550 -0.22500 t
3.01100 -0.26250 3.01850 -0.26250 t
3.01100 -0.24750 3.01850 -0.24750 t
3.03650 -0.23250 3.04400 -0.22500 t
3.03650 -0.27750 3.03650 -0.23250 t
3.03650 -0.27750 3.04400 -0.28500 t
3.04400 -0.28500 3.05900 -0.28500 t
3.05900 -0.28500 3.06650 -0.27750 t
3.06650 -0.27750 3.06650 -0.23250 t
3.05900 -0.22500 3.06650 -0.23250 t
3.04400 -0.22500 3.05900 -0.22500 t
3.03650 -0.24000 3.06650 -0.27000 t
3.09200 -0.22500 3.12200 -0.28500 t
3.08450 -0.28500 3.12200 -0.28500 t
3.14000 -0.26250 3.14750 -0.26250 t
3.14000 -0.24750 3.14750 -0.24750 t
3.16550 -0.23250 3.17300 -0.22500 t
3.16550 -0.27750 3.16550 -0.23250 t
3.16550 -0.27750 3.17300 -0.28500 t
3.17300 -0.28500 3.18800 -0.28500 t
3.18800 -0.28500 3.19550 -0.27750 t
3.19550 -0.27750 3.19550 -0.23250 t
3.18800 -0.22500 3.19550 -0.23250 t
3.17300 -0.22500 3.18800 -0.22500 t
3.16550 -0.24000 3.19550 -0.27000 t
3.21350 -0.23250 3.22100 -0.22500 t
3.21350 -0.24450 3.21350 -0.23250 t
3.21350 -0.24450 3.22400 -0.25500 t
3.22400 -0.25500 3.23300 -0.25500 t
3.23300 -0.25500 3.24350 -0.24450 t
3.24350 -0.24450 3.24350 -0.23250 t
3.23600 -0.22500 3.24350 -0.23250 t
3.22100 -0.22500 3.23600 -0.22500 t
3.21350 -0.26550 3.22400 -0.25500 t
3.21350 -0.27750 3.21350 -0.26550 t
3.21350 -0.27750 3.22100 -0.28500 t
3.22100 -0.28500 3.23600 -0.28500 t
3.23600 -0.28500 3.24350 -0.27750 t
3.24350 -0.27750 3.24350 -0.26550 t
3.23300 -0.25500 3.24350 -0.26550 t
3.29600 -0.28500 3.29600 -0.22500 t
3.28850 -0.28500 3.31850 -0.28500 t
3.31850 -0.28500 3.32600 -0.27750 t
3.32600 -0.27750 3.32600 -0.26250 t
3.31850 -0.25500 3.32600 -0.26250 t
3.29600 -0.25500 3.31850 -0.25500 t
3.34400 -0.28500 3.34400 -0.22500 t
3.34400 -0.28500 3.36650 -0.25500 t
3.36650 -0.25500 3.38900 -0.28500 t
3.38900 -0.28500 3.38900 -0.22500 t
3.46400 -0.28500 3.47150 -0.27750 t
3.44150 -0.28500 3.46400 -0.28500 t
3.43400 -0.27750 3.44150 -0.28500 t
3.43400 -0.27750 3.43400 -0.23250 t
3.43400 -0.23250 3.44150 -0.22500 t
3.44150 -0.22500 3.46400 -0.22500 t
3.46400 -0.22500 3.47150 -0.23250 t
3.47150 -0.24750 3.47150 -0.23250 t
3.46400 -0.25500 3.47150 -0.24750 t
3.44900 -0.25500 3.46400 -0.25500 t
3.48950 -0.28500 3.48950 -0.22500 t
3.48950 -0.28500 3.51200 -0.25500 t
3.51200 -0.25500 3.53450 -0.28500 t
3.53450 -0.28500 3.53450 -0.22500 t
3.55250 -0.28500 3.58250 -0.28500 t
3.56750 -0.28500 3.56750 -0.22500 t
3.62750 -0.28500 3.62750 -0.23250 t
3.62750 -0.23250 3.63500 -0.22500 t
3.63500 -0.22500 3.65000 -0.22500 t
3.65000 -0.22500 3.65750 -0.23250 t
3.65750 -0.28500 3.65750 -0.23250 t
3.67550 -0.28500 3.70550 -0.28500 t
3.69050 -0.28500 3.69050 -0.22500 t
3.73400 -0.22500 3.75350 -0.22500 t
3.72350 -0.23550 3.73400 -0.22500 t
3.72350 -0.27450 3.72350 -0.23550 t
3.72350 -0.27450 3.73400 -0.28500 t
3.73400 -0.28500 3.75350 -0.28500 t
2.00000 -0.42000 2.00000 -0.37500 t
2.00000 -0.42000 2.01050 -0.43500 t
2.01050 -0.43500 2.02700 -0.43500 t
2.02700 -0.43500 2.03750 -0.42000 t
2.03750 -0.42000 2.03750 -0.37500 t
2.00000 -0.40500 2.03750 -0.40500 t
2.05550 -0.40500 2.05550 -0.38250 t
2.05550 -0.38250 2.06300 -0.37500 t
2.06300 -0.37500 2.07800 -0.37500 t
2.07800 -0.37500 2.08550 -0.38250 t
2.08550 -0.40500 2.08550 -0.38250 t
2.11100 -0.43500 2.11100 -0.38250 t
2.11100 -0.38250 2.11850 -0.37500 t
2.10350 -0.41250 2.11850 -0.41250 t
2.13350 -0.43500 2.13350 -0.37500 t
2.13350 -0.39750 2.14100 -0.40500 t
2.14100 -0.40500 2.15600 -0.40500 t
2.15600 -0.40500 2.16350 -0.39750 t
2.16350 -0.39750 2.16350 -0.37500 t
2.18150 -0.39750 2.18150 -0.38250 t
2.18150 -0.39750 2.18900 -0.40500 t
2.18900 -0.40500 2.20400 -0.40500 t
2.20400 -0.40500 2.21150 -0.39750 t
2.21150 -0.39750 2.21150 -0.38250 t
2.20400 -0.37500 2.21150 -0.38250 t
2.18900 -0.37500 2.20400 -0.37500 t
2.18150 -0.38250 2.18900 -0.37500 t
2.23700 -0.39750 2.23700 -0.37500 t
2.23700 -0.39750 2.24450 -0.40500 t
2.24450 -0.40500 2.25950 -0.40500 t
2.22950 -0.40500 2.23700 -0.39750 t
2.27750 -0.41250 2.28500 -0.41250 t
2.27750 -0.39750 2.28500 -0.39750 t
2.34050 -0.43500 2.35250 -0.43500 t
2.35250 -0.43500 2.35250 -0.38250 t
2.34500 -0.37500 2.35250 -0.38250 t
2.33750 -0.37500 2.34500 -0.37500 t
2.33000 -0.38250 2.33750 -0.37500 t
2.33000 -0.39000 2.33000 -0.38250 t
2.37050 -0.39750 2.37050 -0.38250 t
2.37050 -0.39750 2.37800 -0.40500 t
2.37800 -0.40500 2.39300 -0.40500 t
2.39300 -0.40500 2.40050 -0.39750 t
2.40050 -0.39750 2.40050 -0.38250 t
2.39300 -0.37500 2.40050 -0.38250 t
2.37800 -0.37500 2.39300 -0.37500 t
2.37050 -0.38250 2.37800 -0.37500 t
2.41850 -0.43500 2.41850 -0.37500 t
2.41850 -0.39750 2.42600 -0.40500 t
2.42600 -0.40500 2.44100 -0.40500 t
2.44100 -0.40500 2.44850 -0.39750 t
2.44850 -0.39750 2.44850 -0.37500 t
2.47400 -0.39750 2.47400 -0.37500 t
2.47400 -0.39750 2.48150 -0.40500 t
2.48150 -0.40500 2.48900 -0.40500 t
2.48900 -0.40500 2.49650 -0.39750 t
2.49650 -0.39750 2.49650 -0.37500 t
2.46650 -0.40500 2.47400 -0.39750 t
2.55200 -0.43500 2.56400 -0.43500 t
2.56400 -0.43500 2.56400 -0.38250 t
2.55650 -0.37500 2.56400 -0.38250 t
2.54900 -0.37500 2.55650 -0.37500 t
2.54150 -0.38250 2.54900 -0.37500 t
2.54150 -0.39000 2.54150 -0.38250 t
2.58200 -0.37500 2.58950 -0.37500 t
2.63450 -0.43500 2.63450 -0.37500 t
2.63450 -0.43500 2.65700 -0.40500 t
2.65700 -0.40500 2.67950 -0.43500 t
2.67950 -0.43500 2.67950 -0.37500 t
2.70500 -0.40500 2.72750 -0.40500 t
2.69750 -0.39750 2.70500 -0.40500 t
2.69750 -0.39750 2.69750 -0.38250 t
2.69750 -0.38250 2.70500 -0.37500 t
2.70500 -0.37500 2.72750 -0.37500 t
2.75300 -0.43500 2.75300 -0.37500 t
2.77250 -0.43500 2.78300 -0.42450 t
2.78300 -0.42450 2.78300 -0.38550 t
2.77250 -0.37500 2.78300 -0.38550 t
2.74550 -0.37500 2.77250 -0.37500 t
2.74550 -0.43500 2.77250 -0.43500 t
2.80100 -0.39750 2.80100 -0.38250 t
2.80100 -0.39750 2.80850 -0.40500 t
2.80850 -0.40500 2.82350 -0.40500 t
2.82350 -0.40500 2.83100 -0.39750 t
2.83100 -0.39750 2.83100 -0.38250 t
2.82350 -0.37500 2.83100 -0.38250 t
2.80850 -0.37500 2.82350 -0.37500 t
2.80100 -0.38250 2.80850 -0.37500 t
2.85650 -0.39750 2.85650 -0.37500 t
2.85650 -0.39750 2.86400 -0.40500 t
2.86400 -0.40500 2.87150 -0.40500 t
2.87150 -0.40500 2.87900 -0.39750 t
2.87900 -0.39750 2.87900 -0.37500 t
2.84900 -0.40500 2.85650 -0.39750 t
2.89700 -0.39750 2.89700 -0.38250 t
2.89700 -0.39750 2.90450 -0.40500 t
2.90450 -0.40500 2.91950 -0.40500 t
2.91950 -0.40500 2.92700 -0.39750 t
2.92700 -0.39750 2.92700 -0.38250 t
2.91950 -0.37500 2.92700 -0.38250 t
2.90450 -0.37500 2.91950 -0.37500 t
2.89700 -0.38250 2.90450 -0.37500 t
2.94500 -0.40500 2.94500 -0.38250 t
2.94500 -0.38250 2.95250 -0.37500 t
2.95250 -0.37500 2.96750 -0.37500 t
2.96750 -0.37500 2.97500 -0.38250 t
2.97500 -0.40500 2.97500 -0.38250 t
3.01550 -0.40500 3.02300 -0.39750 t
3.00050 -0.40500 3.01550 -0.40500 t
2.99300 -0.39750 3.00050 -0.40500 t
2.99300 -0.39750 2.99300 -0.38250 t
2.99300 -0.38250 3.00050 -0.37500 t
3.00050 -0.37500 3.01550 -0.37500 t
3.01550 -0.37500 3.02300 -0.38250 t
2.99300 -0.36000 3.00050 -0.35250 t
3.00050 -0.35250 3.01550 -0.35250 t
3.01550 -0.35250 3.02300 -0.36000 t
3.02300 -0.40500 3.02300 -0.36000 t
3.04100 -0.43500 3.04100 -0.37500 t
3.04100 -0.39750 3.04850 -0.40500 t
3.04850 -0.40500 3.06350 -0.40500 t
3.06350 -0.40500 3.07100 -0.39750 t
3.07100 -0.39750 3.07100 -0.37500 t
2.00000 -0.58500 2.03000 -0.58500 t
2.01500 -0.58500 2.01500 -0.52500 t
0.00750 setlinewidth
2.04800 -0.57000 2.04800 -0.56850 t
0.00600 setlinewidth
2.04800 -0.54750 2.04800 -0.52500 t
2.07050 -0.58500 2.07050 -0.53250 t
2.07050 -0.53250 2.07800 -0.52500 t
2.06300 -0.56250 2.07800 -0.56250 t
2.09300 -0.58500 2.09300 -0.53250 t
2.09300 -0.53250 2.10050 -0.52500 t
2.12300 -0.52500 2.14550 -0.52500 t
2.11550 -0.53250 2.12300 -0.52500 t
2.11550 -0.54750 2.11550 -0.53250 t
2.11550 -0.54750 2.12300 -0.55500 t
2.12300 -0.55500 2.13800 -0.55500 t
2.13800 -0.55500 2.14550 -0.54750 t
2.11550 -0.54000 2.14550 -0.54000 t
2.14550 -0.54750 2.14550 -0.54000 t
2.16350 -0.56250 2.17100 -0.56250 t
2.16350 -0.54750 2.17100 -0.54750 t
2.22350 -0.58500 2.22350 -0.53250 t
2.22350 -0.53250 2.23100 -0.52500 t
2.21600 -0.56250 2.23100 -0.56250 t
2.25350 -0.52500 2.27600 -0.52500 t
2.24600 -0.53250 2.25350 -0.52500 t
2.24600 -0.54750 2.24600 -0.53250 t
2.24600 -0.54750 2.25350 -0.55500 t
2.25350 -0.55500 2.26850 -0.55500 t
2.26850 -0.55500 2.27600 -0.54750 t
2.24600 -0.54000 2.27600 -0.54000 t
2.27600 -0.54750 2.27600 -0.54000 t
2.30150 -0.52500 2.32400 -0.52500 t
2.32400 -0.52500 2.33150 -0.53250 t
2.32400 -0.54000 2.33150 -0.53250 t
2.30150 -0.54000 2.32400 -0.54000 t
2.29400 -0.54750 2.30150 -0.54000 t
2.29400 -0.54750 2.30150 -0.55500 t
2.30150 -0.55500 2.32400 -0.55500 t
2.32400 -0.55500 2.33150 -0.54750 t
2.29400 -0.53250 2.30150 -0.52500 t
2.35700 -0.58500 2.35700 -0.53250 t
2.35700 -0.53250 2.36450 -0.52500 t
2.34950 -0.56250 2.36450 -0.56250 t
2.40650 -0.55500 2.43650 -0.55500 t
2.48150 -0.58500 2.48150 -0.52500 t
2.48150 -0.58500 2.51150 -0.58500 t
2.48150 -0.55800 2.50400 -0.55800 t
2.55200 -0.55500 2.55950 -0.54750 t
2.53700 -0.55500 2.55200 -0.55500 t
2.52950 -0.54750 2.53700 -0.55500 t
2.52950 -0.54750 2.52950 -0.53250 t
2.52950 -0.53250 2.53700 -0.52500 t
2.55950 -0.55500 2.55950 -0.53250 t
2.55950 -0.53250 2.56700 -0.52500 t
2.53700 -0.52500 2.55200 -0.52500 t
2.55200 -0.52500 2.55950 -0.53250 t
2.58500 -0.58500 2.58500 -0.52500 t
2.58500 -0.53250 2.59250 -0.52500 t
2.59250 -0.52500 2.60750 -0.52500 t
2.60750 -0.52500 2.61500 -0.53250 t
2.61500 -0.54750 2.61500 -0.53250 t
2.60750 -0.55500 2.61500 -0.54750 t
2.59250 -0.55500 2.60750 -0.55500 t
2.58500 -0.54750 2.59250 -0.55500 t
2.64050 -0.54750 2.64050 -0.52500 t
2.64050 -0.54750 2.64800 -0.55500 t
2.64800 -0.55500 2.66300 -0.55500 t
2.63300 -0.55500 2.64050 -0.54750 t
0.00750 setlinewidth
2.68100 -0.57000 2.68100 -0.56850 t
0.00600 setlinewidth
2.68100 -0.54750 2.68100 -0.52500 t
2.70350 -0.55500 2.72600 -0.55500 t
2.69600 -0.54750 2.70350 -0.55500 t
2.69600 -0.54750 2.69600 -0.53250 t
2.69600 -0.53250 2.70350 -0.52500 t
2.70350 -0.52500 2.72600 -0.52500 t
2.76650 -0.55500 2.77400 -0.54750 t
2.75150 -0.55500 2.76650 -0.55500 t
2.74400 -0.54750 2.75150 -0.55500 t
2.74400 -0.54750 2.74400 -0.53250 t
2.74400 -0.53250 2.75150 -0.52500 t
2.77400 -0.55500 2.77400 -0.53250 t
2.77400 -0.53250 2.78150 -0.52500 t
2.75150 -0.52500 2.76650 -0.52500 t
2.76650 -0.52500 2.77400 -0.53250 t
2.80700 -0.58500 2.80700 -0.53250 t
2.80700 -0.53250 2.81450 -0.52500 t
2.79950 -0.56250 2.81450 -0.56250 t
0.00750 setlinewidth
2.82950 -0.57000 2.82950 -0.56850 t
0.00600 setlinewidth
2.82950 -0.54750 2.82950 -0.52500 t
2.84450 -0.54750 2.84450 -0.53250 t
2.84450 -0.54750 2.85200 -0.55500 t
2.85200 -0.55500 2.86700 -0.55500 t
2.86700 -0.55500 2.87450 -0.54750 t
2.87450 -0.54750 2.87450 -0.53250 t
2.86700 -0.52500 2.87450 -0.53250 t
2.85200 -0.52500 2.86700 -0.52500 t
2.84450 -0.53250 2.85200 -0.52500 t
2.90000 -0.54750 2.90000 -0.52500 t
2.90000 -0.54750 2.90750 -0.55500 t
2.90750 -0.55500 2.91500 -0.55500 t
2.91500 -0.55500 2.92250 -0.54750 t
2.92250 -0.54750 2.92250 -0.52500 t
2.89250 -0.55500 2.90000 -0.54750 t
2.97500 -0.58500 2.97500 -0.52500 t
2.99450 -0.58500 3.00500 -0.57450 t
3.00500 -0.57450 3.00500 -0.53550 t
2.99450 -0.52500 3.00500 -0.53550 t
2.96750 -0.52500 2.99450 -0.52500 t
2.96750 -0.58500 2.99450 -0.58500 t
3.03050 -0.54750 3.03050 -0.52500 t
3.03050 -0.54750 3.03800 -0.55500 t
3.03800 -0.55500 3.05300 -0.55500 t
3.02300 -0.55500 3.03050 -0.54750 t
3.09350 -0.55500 3.10100 -0.54750 t
3.07850 -0.55500 3.09350 -0.55500 t
3.07100 -0.54750 3.07850 -0.55500 t
3.07100 -0.54750 3.07100 -0.53250 t
3.07100 -0.53250 3.07850 -0.52500 t
3.10100 -0.55500 3.10100 -0.53250 t
3.10100 -0.53250 3.10850 -0.52500 t
3.07850 -0.52500 3.09350 -0.52500 t
3.09350 -0.52500 3.10100 -0.53250 t
3.12650 -0.55500 3.12650 -0.53250 t
3.12650 -0.53250 3.13400 -0.52500 t
3.13400 -0.52500 3.14150 -0.52500 t
3.14150 -0.52500 3.14900 -0.53250 t
3.14900 -0.55500 3.14900 -0.53250 t
3.14900 -0.53250 3.15650 -0.52500 t
3.15650 -0.52500 3.16400 -0.52500 t
3.16400 -0.52500 3.17150 -0.53250 t
3.17150 -0.55500 3.17150 -0.53250 t
0.00750 setlinewidth
3.18950 -0.57000 3.18950 -0.56850 t
0.00600 setlinewidth
3.18950 -0.54750 3.18950 -0.52500 t
3.21200 -0.54750 3.21200 -0.52500 t
3.21200 -0.54750 3.21950 -0.55500 t
3.21950 -0.55500 3.22700 -0.55500 t
3.22700 -0.55500 3.23450 -0.54750 t
3.23450 -0.54750 3.23450 -0.52500 t
3.20450 -0.55500 3.21200 -0.54750 t
3.27500 -0.55500 3.28250 -0.54750 t
3.26000 -0.55500 3.27500 -0.55500 t
3.25250 -0.54750 3.26000 -0.55500 t
3.25250 -0.54750 3.25250 -0.53250 t
3.25250 -0.53250 3.26000 -0.52500 t
3.26000 -0.52500 3.27500 -0.52500 t
3.27500 -0.52500 3.28250 -0.53250 t
3.25250 -0.51000 3.26000 -0.50250 t
3.26000 -0.50250 3.27500 -0.50250 t
3.27500 -0.50250 3.28250 -0.51000 t
3.28250 -0.55500 3.28250 -0.51000 t
showpage
%%Trailer
%%Pages: 11
%%EOF
