%!PS-Adobe-3.0
%%Title: (null)
%%CreationDate: Mon May 18 14:45:13 2015
%%Creator: PCB release: pcb 20110918
%%Version: (PCB pcb 20110918) 0.0 0
%%PageOrder: Ascend
%%Pages: (atend)
%%DocumentMedia: Letter 612.00000 792.00000 0 "" ""
%%DocumentPaperSizes: Letter
%%EndComments

%%Page: TableOfContents 1
/Times-Roman findfont 24 scalefont setfont
/rightshow { /s exch def s stringwidth pop -1 mul 0 rmoveto s show } def
/y 72 9 mul def /toc { 100 y moveto show /y y 24 sub def } bind def
/tocp { /y y 12 sub def 90 y moveto rightshow } bind def
30 30 moveto ((null)) show
(1.) tocp
(Table of Contents \(This Page\)) toc
(Created on Mon May 18 14:45:13 2015
) toc
( ) tocp
(2.) tocp
(component) toc
(3.) tocp
(solder) toc
(4.) tocp
(componentmask) toc
(5.) tocp
(soldermask) toc
(6.) tocp
(topsilk) toc
(7.) tocp
(bottomsilk) toc
(8.) tocp
(toppaste) toc
(9.) tocp
(topassembly) toc
(10.) tocp
(bottomassembly) toc
(11.) tocp
(fab) toc
showpage
%%Page: top 2
/Helvetica findfont 10 scalefont setfont
30 30 moveto ((null)) show
30 41 moveto (top) show
(, scale = 1:1.000) show
newpath
72 72 scale 4.25000 5.50000 translate
90 rotate
1 1 scale % calibration
1 dup neg scale
-3.00000 -2.50000 translate
/gray { setgray } bind def
/rgb { setrgbcolor } bind def
0 setgray 0 setlinewidth 0 0 moveto 0 5.00000 lineto 6.00000 5.00000 lineto 6.00000 0 lineto closepath stroke
gsave 0.00000 setlinewidth 0.00000 0.00000 translate -0.00000 -0.00000 scale
2.00000 0.00000 moveto 0.00000 0.00000 0.20000 0 90 arc 0.00000 2.00000 lineto
0.40000 0.00000 moveto 0 -0.20000 rlineto
stroke grestore
gsave 0.00000 setlinewidth 6.00000 0.00000 translate 0.00000 -0.00000 scale
2.00000 0.00000 moveto 0.00000 0.00000 0.20000 0 90 arc 0.00000 2.00000 lineto
stroke grestore
gsave 0.00000 setlinewidth 6.00000 5.00000 translate 0.00000 0.00000 scale
2.00000 0.00000 moveto 0.00000 0.00000 0.20000 0 90 arc 0.00000 2.00000 lineto
stroke grestore
gsave 0.00000 setlinewidth 0.00000 5.00000 translate -0.00000 0.00000 scale
2.00000 0.00000 moveto 0.00000 0.00000 0.20000 0 90 arc 0.00000 2.00000 lineto
stroke grestore
/ts 1 def
/ty ts neg def /tx 0 def /Helvetica findfont ts scalefont setfont
/t { moveto lineto stroke } bind def
/dr { /y2 exch def /x2 exch def /y1 exch def /x1 exch def
      x1 y1 moveto x1 y2 lineto x2 y2 lineto x2 y1 lineto closepath stroke } bind def
/r { /y2 exch def /x2 exch def /y1 exch def /x1 exch def
     x1 y1 moveto x1 y2 lineto x2 y2 lineto x2 y1 lineto closepath fill } bind def
/c { 0 360 arc fill } bind def
/a { gsave setlinewidth translate scale 0 0 1 5 3 roll arc stroke grestore} bind def
0.02000 setlinewidth
2 setlinecap 2 setlinejoin
0 gray
0.20000 0.45000 0.39000 0.45000 t
0.51000 0.45000 0.70000 0.45000 t
0.45000 0.20000 0.45000 0.39000 t
0.45000 0.51000 0.45000 0.70000 t
showpage
%%Page: bottom 3
/Helvetica findfont 10 scalefont setfont
30 30 moveto ((null)) show
30 41 moveto (bottom) show
( \(mirrored\)) show
(, scale = 1:1.000) show
newpath
72 72 scale 4.25000 5.50000 translate
90 rotate
1 1 scale % calibration
1 -1 scale
1 dup neg scale
-3.00000 -2.50000 translate
/gray { setgray } bind def
/rgb { setrgbcolor } bind def
0 setgray 0 setlinewidth 0 0 moveto 0 5.00000 lineto 6.00000 5.00000 lineto 6.00000 0 lineto closepath stroke
gsave 0.00000 setlinewidth 0.00000 0.00000 translate -0.00000 -0.00000 scale
2.00000 0.00000 moveto 0.00000 0.00000 0.20000 0 90 arc 0.00000 2.00000 lineto
0.40000 0.00000 moveto 0 -0.20000 rlineto
stroke grestore
gsave 0.00000 setlinewidth 6.00000 0.00000 translate 0.00000 -0.00000 scale
2.00000 0.00000 moveto 0.00000 0.00000 0.20000 0 90 arc 0.00000 2.00000 lineto
stroke grestore
gsave 0.00000 setlinewidth 6.00000 5.00000 translate 0.00000 0.00000 scale
2.00000 0.00000 moveto 0.00000 0.00000 0.20000 0 90 arc 0.00000 2.00000 lineto
stroke grestore
gsave 0.00000 setlinewidth 0.00000 5.00000 translate -0.00000 0.00000 scale
2.00000 0.00000 moveto 0.00000 0.00000 0.20000 0 90 arc 0.00000 2.00000 lineto
stroke grestore
/ts 1 def
/ty ts neg def /tx 0 def /Helvetica findfont ts scalefont setfont
/t { moveto lineto stroke } bind def
/dr { /y2 exch def /x2 exch def /y1 exch def /x1 exch def
      x1 y1 moveto x1 y2 lineto x2 y2 lineto x2 y1 lineto closepath stroke } bind def
/r { /y2 exch def /x2 exch def /y1 exch def /x1 exch def
     x1 y1 moveto x1 y2 lineto x2 y2 lineto x2 y1 lineto closepath fill } bind def
/c { 0 360 arc fill } bind def
/a { gsave setlinewidth translate scale 0 0 1 5 3 roll arc stroke grestore} bind def
showpage
%%Page: topmask 4
/Helvetica findfont 10 scalefont setfont
30 30 moveto ((null)) show
30 41 moveto (topmask) show
(, scale = 1:1.000) show
newpath
72 72 scale 4.25000 5.50000 translate
90 rotate
1 1 scale % calibration
1 dup neg scale
-3.00000 -2.50000 translate
/gray { setgray } bind def
/rgb { setrgbcolor } bind def
0 setgray 0 setlinewidth 0 0 moveto 0 5.00000 lineto 6.00000 5.00000 lineto 6.00000 0 lineto closepath stroke
gsave 0.00000 setlinewidth 0.00000 0.00000 translate -0.00000 -0.00000 scale
2.00000 0.00000 moveto 0.00000 0.00000 0.20000 0 90 arc 0.00000 2.00000 lineto
0.40000 0.00000 moveto 0 -0.20000 rlineto
stroke grestore
gsave 0.00000 setlinewidth 6.00000 0.00000 translate 0.00000 -0.00000 scale
2.00000 0.00000 moveto 0.00000 0.00000 0.20000 0 90 arc 0.00000 2.00000 lineto
stroke grestore
gsave 0.00000 setlinewidth 6.00000 5.00000 translate 0.00000 0.00000 scale
2.00000 0.00000 moveto 0.00000 0.00000 0.20000 0 90 arc 0.00000 2.00000 lineto
stroke grestore
gsave 0.00000 setlinewidth 0.00000 5.00000 translate -0.00000 0.00000 scale
2.00000 0.00000 moveto 0.00000 0.00000 0.20000 0 90 arc 0.00000 2.00000 lineto
stroke grestore
/ts 1 def
/ty ts neg def /tx 0 def /Helvetica findfont ts scalefont setfont
/t { moveto lineto stroke } bind def
/dr { /y2 exch def /x2 exch def /y1 exch def /x1 exch def
      x1 y1 moveto x1 y2 lineto x2 y2 lineto x2 y1 lineto closepath stroke } bind def
/r { /y2 exch def /x2 exch def /y1 exch def /x1 exch def
     x1 y1 moveto x1 y2 lineto x2 y2 lineto x2 y1 lineto closepath fill } bind def
/c { 0 360 arc fill } bind def
/a { gsave setlinewidth translate scale 0 0 1 5 3 roll arc stroke grestore} bind def
0.02000 setlinewidth
2 setlinecap 2 setlinejoin
1 gray
0.00000 0.00000 6.00000 5.00000 r
0 gray
0.20000 0.45000 0.39000 0.45000 t
0 gray
0.51000 0.45000 0.70000 0.45000 t
0 gray
0.45000 0.20000 0.45000 0.39000 t
0 gray
0.45000 0.51000 0.45000 0.70000 t
showpage
%%Page: bottommask 5
/Helvetica findfont 10 scalefont setfont
30 30 moveto ((null)) show
30 41 moveto (bottommask) show
( \(mirrored\)) show
(, scale = 1:1.000) show
newpath
72 72 scale 4.25000 5.50000 translate
90 rotate
1 1 scale % calibration
1 -1 scale
1 dup neg scale
-3.00000 -2.50000 translate
/gray { setgray } bind def
/rgb { setrgbcolor } bind def
0 setgray 0 setlinewidth 0 0 moveto 0 5.00000 lineto 6.00000 5.00000 lineto 6.00000 0 lineto closepath stroke
gsave 0.00000 setlinewidth 0.00000 0.00000 translate -0.00000 -0.00000 scale
2.00000 0.00000 moveto 0.00000 0.00000 0.20000 0 90 arc 0.00000 2.00000 lineto
0.40000 0.00000 moveto 0 -0.20000 rlineto
stroke grestore
gsave 0.00000 setlinewidth 6.00000 0.00000 translate 0.00000 -0.00000 scale
2.00000 0.00000 moveto 0.00000 0.00000 0.20000 0 90 arc 0.00000 2.00000 lineto
stroke grestore
gsave 0.00000 setlinewidth 6.00000 5.00000 translate 0.00000 0.00000 scale
2.00000 0.00000 moveto 0.00000 0.00000 0.20000 0 90 arc 0.00000 2.00000 lineto
stroke grestore
gsave 0.00000 setlinewidth 0.00000 5.00000 translate -0.00000 0.00000 scale
2.00000 0.00000 moveto 0.00000 0.00000 0.20000 0 90 arc 0.00000 2.00000 lineto
stroke grestore
/ts 1 def
/ty ts neg def /tx 0 def /Helvetica findfont ts scalefont setfont
/t { moveto lineto stroke } bind def
/dr { /y2 exch def /x2 exch def /y1 exch def /x1 exch def
      x1 y1 moveto x1 y2 lineto x2 y2 lineto x2 y1 lineto closepath stroke } bind def
/r { /y2 exch def /x2 exch def /y1 exch def /x1 exch def
     x1 y1 moveto x1 y2 lineto x2 y2 lineto x2 y1 lineto closepath fill } bind def
/c { 0 360 arc fill } bind def
/a { gsave setlinewidth translate scale 0 0 1 5 3 roll arc stroke grestore} bind def
0.02000 setlinewidth
2 setlinecap 2 setlinejoin
1 gray
0.00000 0.00000 6.00000 5.00000 r
showpage
%%Page: topsilk 6
/Helvetica findfont 10 scalefont setfont
30 30 moveto ((null)) show
30 41 moveto (topsilk) show
(, scale = 1:1.000) show
newpath
72 72 scale 4.25000 5.50000 translate
90 rotate
1 1 scale % calibration
1 dup neg scale
-3.00000 -2.50000 translate
/gray { setgray } bind def
/rgb { setrgbcolor } bind def
0 setgray 0 setlinewidth 0 0 moveto 0 5.00000 lineto 6.00000 5.00000 lineto 6.00000 0 lineto closepath stroke
gsave 0.00000 setlinewidth 0.00000 0.00000 translate -0.00000 -0.00000 scale
2.00000 0.00000 moveto 0.00000 0.00000 0.20000 0 90 arc 0.00000 2.00000 lineto
0.40000 0.00000 moveto 0 -0.20000 rlineto
stroke grestore
gsave 0.00000 setlinewidth 6.00000 0.00000 translate 0.00000 -0.00000 scale
2.00000 0.00000 moveto 0.00000 0.00000 0.20000 0 90 arc 0.00000 2.00000 lineto
stroke grestore
gsave 0.00000 setlinewidth 6.00000 5.00000 translate 0.00000 0.00000 scale
2.00000 0.00000 moveto 0.00000 0.00000 0.20000 0 90 arc 0.00000 2.00000 lineto
stroke grestore
gsave 0.00000 setlinewidth 0.00000 5.00000 translate -0.00000 0.00000 scale
2.00000 0.00000 moveto 0.00000 0.00000 0.20000 0 90 arc 0.00000 2.00000 lineto
stroke grestore
/ts 1 def
/ty ts neg def /tx 0 def /Helvetica findfont ts scalefont setfont
/t { moveto lineto stroke } bind def
/dr { /y2 exch def /x2 exch def /y1 exch def /x1 exch def
      x1 y1 moveto x1 y2 lineto x2 y2 lineto x2 y1 lineto closepath stroke } bind def
/r { /y2 exch def /x2 exch def /y1 exch def /x1 exch def
     x1 y1 moveto x1 y2 lineto x2 y2 lineto x2 y1 lineto closepath fill } bind def
/c { 0 360 arc fill } bind def
/a { gsave setlinewidth translate scale 0 0 1 5 3 roll arc stroke grestore} bind def
0.01000 setlinewidth
1 setlinecap 1 setlinejoin
0 gray
120 420 -0.04000 0.04000 0.45000 0.45000 0.25 a
showpage
%%Page: bottomsilk 7
/Helvetica findfont 10 scalefont setfont
30 30 moveto ((null)) show
30 41 moveto (bottomsilk) show
( \(mirrored\)) show
(, scale = 1:1.000) show
newpath
72 72 scale 4.25000 5.50000 translate
90 rotate
1 1 scale % calibration
1 -1 scale
1 dup neg scale
-3.00000 -2.50000 translate
/gray { setgray } bind def
/rgb { setrgbcolor } bind def
0 setgray 0 setlinewidth 0 0 moveto 0 5.00000 lineto 6.00000 5.00000 lineto 6.00000 0 lineto closepath stroke
gsave 0.00000 setlinewidth 0.00000 0.00000 translate -0.00000 -0.00000 scale
2.00000 0.00000 moveto 0.00000 0.00000 0.20000 0 90 arc 0.00000 2.00000 lineto
0.40000 0.00000 moveto 0 -0.20000 rlineto
stroke grestore
gsave 0.00000 setlinewidth 6.00000 0.00000 translate 0.00000 -0.00000 scale
2.00000 0.00000 moveto 0.00000 0.00000 0.20000 0 90 arc 0.00000 2.00000 lineto
stroke grestore
gsave 0.00000 setlinewidth 6.00000 5.00000 translate 0.00000 0.00000 scale
2.00000 0.00000 moveto 0.00000 0.00000 0.20000 0 90 arc 0.00000 2.00000 lineto
stroke grestore
gsave 0.00000 setlinewidth 0.00000 5.00000 translate -0.00000 0.00000 scale
2.00000 0.00000 moveto 0.00000 0.00000 0.20000 0 90 arc 0.00000 2.00000 lineto
stroke grestore
/ts 1 def
/ty ts neg def /tx 0 def /Helvetica findfont ts scalefont setfont
/t { moveto lineto stroke } bind def
/dr { /y2 exch def /x2 exch def /y1 exch def /x1 exch def
      x1 y1 moveto x1 y2 lineto x2 y2 lineto x2 y1 lineto closepath stroke } bind def
/r { /y2 exch def /x2 exch def /y1 exch def /x1 exch def
     x1 y1 moveto x1 y2 lineto x2 y2 lineto x2 y1 lineto closepath fill } bind def
/c { 0 360 arc fill } bind def
/a { gsave setlinewidth translate scale 0 0 1 5 3 roll arc stroke grestore} bind def
showpage
%%Page: toppaste 8
/Helvetica findfont 10 scalefont setfont
30 30 moveto ((null)) show
30 41 moveto (toppaste) show
(, scale = 1:1.000) show
newpath
72 72 scale 4.25000 5.50000 translate
90 rotate
1 1 scale % calibration
1 dup neg scale
-3.00000 -2.50000 translate
/gray { setgray } bind def
/rgb { setrgbcolor } bind def
0 setgray 0 setlinewidth 0 0 moveto 0 5.00000 lineto 6.00000 5.00000 lineto 6.00000 0 lineto closepath stroke
gsave 0.00000 setlinewidth 0.00000 0.00000 translate -0.00000 -0.00000 scale
2.00000 0.00000 moveto 0.00000 0.00000 0.20000 0 90 arc 0.00000 2.00000 lineto
0.40000 0.00000 moveto 0 -0.20000 rlineto
stroke grestore
gsave 0.00000 setlinewidth 6.00000 0.00000 translate 0.00000 -0.00000 scale
2.00000 0.00000 moveto 0.00000 0.00000 0.20000 0 90 arc 0.00000 2.00000 lineto
stroke grestore
gsave 0.00000 setlinewidth 6.00000 5.00000 translate 0.00000 0.00000 scale
2.00000 0.00000 moveto 0.00000 0.00000 0.20000 0 90 arc 0.00000 2.00000 lineto
stroke grestore
gsave 0.00000 setlinewidth 0.00000 5.00000 translate -0.00000 0.00000 scale
2.00000 0.00000 moveto 0.00000 0.00000 0.20000 0 90 arc 0.00000 2.00000 lineto
stroke grestore
/ts 1 def
/ty ts neg def /tx 0 def /Helvetica findfont ts scalefont setfont
/t { moveto lineto stroke } bind def
/dr { /y2 exch def /x2 exch def /y1 exch def /x1 exch def
      x1 y1 moveto x1 y2 lineto x2 y2 lineto x2 y1 lineto closepath stroke } bind def
/r { /y2 exch def /x2 exch def /y1 exch def /x1 exch def
     x1 y1 moveto x1 y2 lineto x2 y2 lineto x2 y1 lineto closepath fill } bind def
/c { 0 360 arc fill } bind def
/a { gsave setlinewidth translate scale 0 0 1 5 3 roll arc stroke grestore} bind def
0.02000 setlinewidth
2 setlinecap 2 setlinejoin
0 gray
0.20000 0.45000 0.39000 0.45000 t
0.51000 0.45000 0.70000 0.45000 t
0.45000 0.20000 0.45000 0.39000 t
0.45000 0.51000 0.45000 0.70000 t
showpage
%%Page: topassembly 9
/Helvetica findfont 10 scalefont setfont
30 30 moveto ((null)) show
30 41 moveto (topassembly) show
(, scale = 1:1.000) show
newpath
72 72 scale 4.25000 5.50000 translate
90 rotate
1 1 scale % calibration
1 dup neg scale
-3.00000 -2.50000 translate
/gray { setgray } bind def
/rgb { setrgbcolor } bind def
0 setgray 0 setlinewidth 0 0 moveto 0 5.00000 lineto 6.00000 5.00000 lineto 6.00000 0 lineto closepath stroke
gsave 0.00000 setlinewidth 0.00000 0.00000 translate -0.00000 -0.00000 scale
2.00000 0.00000 moveto 0.00000 0.00000 0.20000 0 90 arc 0.00000 2.00000 lineto
0.40000 0.00000 moveto 0 -0.20000 rlineto
stroke grestore
gsave 0.00000 setlinewidth 6.00000 0.00000 translate 0.00000 -0.00000 scale
2.00000 0.00000 moveto 0.00000 0.00000 0.20000 0 90 arc 0.00000 2.00000 lineto
stroke grestore
gsave 0.00000 setlinewidth 6.00000 5.00000 translate 0.00000 0.00000 scale
2.00000 0.00000 moveto 0.00000 0.00000 0.20000 0 90 arc 0.00000 2.00000 lineto
stroke grestore
gsave 0.00000 setlinewidth 0.00000 5.00000 translate -0.00000 0.00000 scale
2.00000 0.00000 moveto 0.00000 0.00000 0.20000 0 90 arc 0.00000 2.00000 lineto
stroke grestore
/ts 1 def
/ty ts neg def /tx 0 def /Helvetica findfont ts scalefont setfont
/t { moveto lineto stroke } bind def
/dr { /y2 exch def /x2 exch def /y1 exch def /x1 exch def
      x1 y1 moveto x1 y2 lineto x2 y2 lineto x2 y1 lineto closepath stroke } bind def
/r { /y2 exch def /x2 exch def /y1 exch def /x1 exch def
     x1 y1 moveto x1 y2 lineto x2 y2 lineto x2 y1 lineto closepath fill } bind def
/c { 0 360 arc fill } bind def
/a { gsave setlinewidth translate scale 0 0 1 5 3 roll arc stroke grestore} bind def
0.02000 setlinewidth
2 setlinecap 2 setlinejoin
0.6 gray
0.20000 0.45000 0.39000 0.45000 t
0.51000 0.45000 0.70000 0.45000 t
0.45000 0.20000 0.45000 0.39000 t
0.45000 0.51000 0.45000 0.70000 t
0.01000 setlinewidth
1 setlinecap 1 setlinejoin
0 gray
120 420 -0.04000 0.04000 0.45000 0.45000 0.25 a
showpage
%%Page: bottomassembly 10
/Helvetica findfont 10 scalefont setfont
30 30 moveto ((null)) show
30 41 moveto (bottomassembly) show
( \(mirrored\)) show
(, scale = 1:1.000) show
newpath
72 72 scale 4.25000 5.50000 translate
90 rotate
1 1 scale % calibration
1 -1 scale
1 dup neg scale
-3.00000 -2.50000 translate
/gray { setgray } bind def
/rgb { setrgbcolor } bind def
0 setgray 0 setlinewidth 0 0 moveto 0 5.00000 lineto 6.00000 5.00000 lineto 6.00000 0 lineto closepath stroke
gsave 0.00000 setlinewidth 0.00000 0.00000 translate -0.00000 -0.00000 scale
2.00000 0.00000 moveto 0.00000 0.00000 0.20000 0 90 arc 0.00000 2.00000 lineto
0.40000 0.00000 moveto 0 -0.20000 rlineto
stroke grestore
gsave 0.00000 setlinewidth 6.00000 0.00000 translate 0.00000 -0.00000 scale
2.00000 0.00000 moveto 0.00000 0.00000 0.20000 0 90 arc 0.00000 2.00000 lineto
stroke grestore
gsave 0.00000 setlinewidth 6.00000 5.00000 translate 0.00000 0.00000 scale
2.00000 0.00000 moveto 0.00000 0.00000 0.20000 0 90 arc 0.00000 2.00000 lineto
stroke grestore
gsave 0.00000 setlinewidth 0.00000 5.00000 translate -0.00000 0.00000 scale
2.00000 0.00000 moveto 0.00000 0.00000 0.20000 0 90 arc 0.00000 2.00000 lineto
stroke grestore
/ts 1 def
/ty ts neg def /tx 0 def /Helvetica findfont ts scalefont setfont
/t { moveto lineto stroke } bind def
/dr { /y2 exch def /x2 exch def /y1 exch def /x1 exch def
      x1 y1 moveto x1 y2 lineto x2 y2 lineto x2 y1 lineto closepath stroke } bind def
/r { /y2 exch def /x2 exch def /y1 exch def /x1 exch def
     x1 y1 moveto x1 y2 lineto x2 y2 lineto x2 y1 lineto closepath fill } bind def
/c { 0 360 arc fill } bind def
/a { gsave setlinewidth translate scale 0 0 1 5 3 roll arc stroke grestore} bind def
showpage
%%Page: fab 11
/Helvetica findfont 10 scalefont setfont
30 30 moveto ((null)) show
30 41 moveto (fab) show
(, scale = 1:1.000) show
newpath
72 72 scale 4.25000 5.50000 translate
90 rotate
1 1 scale % calibration
1 dup neg scale
-3.00000 -2.50000 translate
% PrintFab overhang natural 1.25000, needed 0.90000
/gray { setgray } bind def
/rgb { setrgbcolor } bind def
0 setgray 0 setlinewidth 0 0 moveto 0 5.00000 lineto 6.00000 5.00000 lineto 6.00000 0 lineto closepath stroke
gsave 0.00000 setlinewidth 0.00000 0.00000 translate -0.00000 -0.00000 scale
2.00000 0.00000 moveto 0.00000 0.00000 0.20000 0 90 arc 0.00000 2.00000 lineto
0.40000 0.00000 moveto 0 -0.20000 rlineto
stroke grestore
gsave 0.00000 setlinewidth 6.00000 0.00000 translate 0.00000 -0.00000 scale
2.00000 0.00000 moveto 0.00000 0.00000 0.20000 0 90 arc 0.00000 2.00000 lineto
stroke grestore
gsave 0.00000 setlinewidth 6.00000 5.00000 translate 0.00000 0.00000 scale
2.00000 0.00000 moveto 0.00000 0.00000 0.20000 0 90 arc 0.00000 2.00000 lineto
stroke grestore
gsave 0.00000 setlinewidth 0.00000 5.00000 translate -0.00000 0.00000 scale
2.00000 0.00000 moveto 0.00000 0.00000 0.20000 0 90 arc 0.00000 2.00000 lineto
stroke grestore
/ts 1 def
/ty ts neg def /tx 0 def /Helvetica findfont ts scalefont setfont
/t { moveto lineto stroke } bind def
/dr { /y2 exch def /x2 exch def /y1 exch def /x1 exch def
      x1 y1 moveto x1 y2 lineto x2 y2 lineto x2 y1 lineto closepath stroke } bind def
/r { /y2 exch def /x2 exch def /y1 exch def /x1 exch def
     x1 y1 moveto x1 y2 lineto x2 y2 lineto x2 y1 lineto closepath fill } bind def
/c { 0 360 arc fill } bind def
/a { gsave setlinewidth translate scale 0 0 1 5 3 roll arc stroke grestore} bind def
0.00600 setlinewidth
1 setlinecap 1 setlinejoin
0 gray
0.03000 -0.73500 0.03750 -0.72750 t
0.00750 -0.73500 0.03000 -0.73500 t
0.00000 -0.72750 0.00750 -0.73500 t
0.00000 -0.72750 0.00000 -0.71250 t
0.00000 -0.71250 0.00750 -0.70500 t
0.00750 -0.70500 0.03000 -0.70500 t
0.03000 -0.70500 0.03750 -0.69750 t
0.03750 -0.69750 0.03750 -0.68250 t
0.03000 -0.67500 0.03750 -0.68250 t
0.00750 -0.67500 0.03000 -0.67500 t
0.00000 -0.68250 0.00750 -0.67500 t
0.05550 -0.70500 0.05550 -0.68250 t
0.05550 -0.68250 0.06300 -0.67500 t
0.08550 -0.70500 0.08550 -0.66000 t
0.07800 -0.65250 0.08550 -0.66000 t
0.06300 -0.65250 0.07800 -0.65250 t
0.05550 -0.66000 0.06300 -0.65250 t
0.06300 -0.67500 0.07800 -0.67500 t
0.07800 -0.67500 0.08550 -0.68250 t
0.11100 -0.69750 0.11100 -0.67500 t
0.11100 -0.69750 0.11850 -0.70500 t
0.11850 -0.70500 0.12600 -0.70500 t
0.12600 -0.70500 0.13350 -0.69750 t
0.13350 -0.69750 0.13350 -0.67500 t
0.13350 -0.69750 0.14100 -0.70500 t
0.14100 -0.70500 0.14850 -0.70500 t
0.14850 -0.70500 0.15600 -0.69750 t
0.15600 -0.69750 0.15600 -0.67500 t
0.10350 -0.70500 0.11100 -0.69750 t
0.17400 -0.73500 0.17400 -0.67500 t
0.17400 -0.68250 0.18150 -0.67500 t
0.18150 -0.67500 0.19650 -0.67500 t
0.19650 -0.67500 0.20400 -0.68250 t
0.20400 -0.69750 0.20400 -0.68250 t
0.19650 -0.70500 0.20400 -0.69750 t
0.18150 -0.70500 0.19650 -0.70500 t
0.17400 -0.69750 0.18150 -0.70500 t
0.22200 -0.69750 0.22200 -0.68250 t
0.22200 -0.69750 0.22950 -0.70500 t
0.22950 -0.70500 0.24450 -0.70500 t
0.24450 -0.70500 0.25200 -0.69750 t
0.25200 -0.69750 0.25200 -0.68250 t
0.24450 -0.67500 0.25200 -0.68250 t
0.22950 -0.67500 0.24450 -0.67500 t
0.22200 -0.68250 0.22950 -0.67500 t
0.27000 -0.73500 0.27000 -0.68250 t
0.27000 -0.68250 0.27750 -0.67500 t
0.00000 -0.65750 0.29250 -0.65750 t
0.41750 -0.73500 0.41750 -0.67500 t
0.43700 -0.73500 0.44750 -0.72450 t
0.44750 -0.72450 0.44750 -0.68550 t
0.43700 -0.67500 0.44750 -0.68550 t
0.41000 -0.67500 0.43700 -0.67500 t
0.41000 -0.73500 0.43700 -0.73500 t
0.00750 setlinewidth
0.46550 -0.72000 0.46550 -0.71850 t
0.00600 setlinewidth
0.46550 -0.69750 0.46550 -0.67500 t
0.50300 -0.70500 0.51050 -0.69750 t
0.48800 -0.70500 0.50300 -0.70500 t
0.48050 -0.69750 0.48800 -0.70500 t
0.48050 -0.69750 0.48050 -0.68250 t
0.48050 -0.68250 0.48800 -0.67500 t
0.51050 -0.70500 0.51050 -0.68250 t
0.51050 -0.68250 0.51800 -0.67500 t
0.48800 -0.67500 0.50300 -0.67500 t
0.50300 -0.67500 0.51050 -0.68250 t
0.54350 -0.69750 0.54350 -0.67500 t
0.54350 -0.69750 0.55100 -0.70500 t
0.55100 -0.70500 0.55850 -0.70500 t
0.55850 -0.70500 0.56600 -0.69750 t
0.56600 -0.69750 0.56600 -0.67500 t
0.56600 -0.69750 0.57350 -0.70500 t
0.57350 -0.70500 0.58100 -0.70500 t
0.58100 -0.70500 0.58850 -0.69750 t
0.58850 -0.69750 0.58850 -0.67500 t
0.53600 -0.70500 0.54350 -0.69750 t
0.60650 -0.67500 0.61400 -0.67500 t
0.65900 -0.68250 0.66650 -0.67500 t
0.65900 -0.72750 0.66650 -0.73500 t
0.65900 -0.72750 0.65900 -0.68250 t
0.68450 -0.73500 0.69950 -0.73500 t
0.69200 -0.73500 0.69200 -0.67500 t
0.68450 -0.67500 0.69950 -0.67500 t
0.72500 -0.69750 0.72500 -0.67500 t
0.72500 -0.69750 0.73250 -0.70500 t
0.73250 -0.70500 0.74000 -0.70500 t
0.74000 -0.70500 0.74750 -0.69750 t
0.74750 -0.69750 0.74750 -0.67500 t
0.71750 -0.70500 0.72500 -0.69750 t
0.77300 -0.70500 0.79550 -0.70500 t
0.76550 -0.69750 0.77300 -0.70500 t
0.76550 -0.69750 0.76550 -0.68250 t
0.76550 -0.68250 0.77300 -0.67500 t
0.77300 -0.67500 0.79550 -0.67500 t
0.81350 -0.73500 0.81350 -0.67500 t
0.81350 -0.69750 0.82100 -0.70500 t
0.82100 -0.70500 0.83600 -0.70500 t
0.83600 -0.70500 0.84350 -0.69750 t
0.84350 -0.69750 0.84350 -0.67500 t
0.86150 -0.73500 0.86900 -0.72750 t
0.86900 -0.72750 0.86900 -0.68250 t
0.86150 -0.67500 0.86900 -0.68250 t
0.41000 -0.65750 0.88700 -0.65750 t
0.96050 -0.67500 0.98000 -0.67500 t
0.95000 -0.68550 0.96050 -0.67500 t
0.95000 -0.72450 0.95000 -0.68550 t
0.95000 -0.72450 0.96050 -0.73500 t
0.96050 -0.73500 0.98000 -0.73500 t
0.99800 -0.69750 0.99800 -0.68250 t
0.99800 -0.69750 1.00550 -0.70500 t
1.00550 -0.70500 1.02050 -0.70500 t
1.02050 -0.70500 1.02800 -0.69750 t
1.02800 -0.69750 1.02800 -0.68250 t
1.02050 -0.67500 1.02800 -0.68250 t
1.00550 -0.67500 1.02050 -0.67500 t
0.99800 -0.68250 1.00550 -0.67500 t
1.04600 -0.70500 1.04600 -0.68250 t
1.04600 -0.68250 1.05350 -0.67500 t
1.05350 -0.67500 1.06850 -0.67500 t
1.06850 -0.67500 1.07600 -0.68250 t
1.07600 -0.70500 1.07600 -0.68250 t
1.10150 -0.69750 1.10150 -0.67500 t
1.10150 -0.69750 1.10900 -0.70500 t
1.10900 -0.70500 1.11650 -0.70500 t
1.11650 -0.70500 1.12400 -0.69750 t
1.12400 -0.69750 1.12400 -0.67500 t
1.09400 -0.70500 1.10150 -0.69750 t
1.14950 -0.73500 1.14950 -0.68250 t
1.14950 -0.68250 1.15700 -0.67500 t
1.14200 -0.71250 1.15700 -0.71250 t
0.95000 -0.65750 1.17200 -0.65750 t
1.30750 -0.73500 1.30750 -0.67500 t
1.30000 -0.73500 1.33000 -0.73500 t
1.33000 -0.73500 1.33750 -0.72750 t
1.33750 -0.72750 1.33750 -0.71250 t
1.33000 -0.70500 1.33750 -0.71250 t
1.30750 -0.70500 1.33000 -0.70500 t
1.35550 -0.73500 1.35550 -0.68250 t
1.35550 -0.68250 1.36300 -0.67500 t
1.40050 -0.70500 1.40800 -0.69750 t
1.38550 -0.70500 1.40050 -0.70500 t
1.37800 -0.69750 1.38550 -0.70500 t
1.37800 -0.69750 1.37800 -0.68250 t
1.37800 -0.68250 1.38550 -0.67500 t
1.40800 -0.70500 1.40800 -0.68250 t
1.40800 -0.68250 1.41550 -0.67500 t
1.38550 -0.67500 1.40050 -0.67500 t
1.40050 -0.67500 1.40800 -0.68250 t
1.44100 -0.73500 1.44100 -0.68250 t
1.44100 -0.68250 1.44850 -0.67500 t
1.43350 -0.71250 1.44850 -0.71250 t
1.47100 -0.67500 1.49350 -0.67500 t
1.46350 -0.68250 1.47100 -0.67500 t
1.46350 -0.69750 1.46350 -0.68250 t
1.46350 -0.69750 1.47100 -0.70500 t
1.47100 -0.70500 1.48600 -0.70500 t
1.48600 -0.70500 1.49350 -0.69750 t
1.46350 -0.69000 1.49350 -0.69000 t
1.49350 -0.69750 1.49350 -0.69000 t
1.54150 -0.73500 1.54150 -0.67500 t
1.53400 -0.67500 1.54150 -0.68250 t
1.51900 -0.67500 1.53400 -0.67500 t
1.51150 -0.68250 1.51900 -0.67500 t
1.51150 -0.69750 1.51150 -0.68250 t
1.51150 -0.69750 1.51900 -0.70500 t
1.51900 -0.70500 1.53400 -0.70500 t
1.53400 -0.70500 1.54150 -0.69750 t
1.57450 -0.70500 1.57450 -0.69750 t
1.57450 -0.68250 1.57450 -0.67500 t
1.55950 -0.72750 1.55950 -0.72000 t
1.55950 -0.72750 1.56700 -0.73500 t
1.56700 -0.73500 1.58200 -0.73500 t
1.58200 -0.73500 1.58950 -0.72750 t
1.58950 -0.72750 1.58950 -0.72000 t
1.57450 -0.70500 1.58950 -0.72000 t
1.30000 -0.65750 1.60750 -0.65750 t
0.00000 -0.88500 0.03000 -0.88500 t
0.01500 -0.88500 0.01500 -0.82500 t
0.04800 -0.88500 0.04800 -0.82500 t
0.04800 -0.84750 0.05550 -0.85500 t
0.05550 -0.85500 0.07050 -0.85500 t
0.07050 -0.85500 0.07800 -0.84750 t
0.07800 -0.84750 0.07800 -0.82500 t
0.10350 -0.82500 0.12600 -0.82500 t
0.09600 -0.83250 0.10350 -0.82500 t
0.09600 -0.84750 0.09600 -0.83250 t
0.09600 -0.84750 0.10350 -0.85500 t
0.10350 -0.85500 0.11850 -0.85500 t
0.11850 -0.85500 0.12600 -0.84750 t
0.09600 -0.84000 0.12600 -0.84000 t
0.12600 -0.84750 0.12600 -0.84000 t
0.15150 -0.84750 0.15150 -0.82500 t
0.15150 -0.84750 0.15900 -0.85500 t
0.15900 -0.85500 0.17400 -0.85500 t
0.14400 -0.85500 0.15150 -0.84750 t
0.19950 -0.82500 0.22200 -0.82500 t
0.19200 -0.83250 0.19950 -0.82500 t
0.19200 -0.84750 0.19200 -0.83250 t
0.19200 -0.84750 0.19950 -0.85500 t
0.19950 -0.85500 0.21450 -0.85500 t
0.21450 -0.85500 0.22200 -0.84750 t
0.19200 -0.84000 0.22200 -0.84000 t
0.22200 -0.84750 0.22200 -0.84000 t
0.28950 -0.85500 0.29700 -0.84750 t
0.27450 -0.85500 0.28950 -0.85500 t
0.26700 -0.84750 0.27450 -0.85500 t
0.26700 -0.84750 0.26700 -0.83250 t
0.26700 -0.83250 0.27450 -0.82500 t
0.29700 -0.85500 0.29700 -0.83250 t
0.29700 -0.83250 0.30450 -0.82500 t
0.27450 -0.82500 0.28950 -0.82500 t
0.28950 -0.82500 0.29700 -0.83250 t
0.33000 -0.84750 0.33000 -0.82500 t
0.33000 -0.84750 0.33750 -0.85500 t
0.33750 -0.85500 0.35250 -0.85500 t
0.32250 -0.85500 0.33000 -0.84750 t
0.37800 -0.82500 0.40050 -0.82500 t
0.37050 -0.83250 0.37800 -0.82500 t
0.37050 -0.84750 0.37050 -0.83250 t
0.37050 -0.84750 0.37800 -0.85500 t
0.37800 -0.85500 0.39300 -0.85500 t
0.39300 -0.85500 0.40050 -0.84750 t
0.37050 -0.84000 0.40050 -0.84000 t
0.40050 -0.84750 0.40050 -0.84000 t
0.44550 -0.83250 0.45300 -0.82500 t
0.44550 -0.87750 0.44550 -0.83250 t
0.44550 -0.87750 0.45300 -0.88500 t
0.45300 -0.88500 0.46800 -0.88500 t
0.46800 -0.88500 0.47550 -0.87750 t
0.47550 -0.87750 0.47550 -0.83250 t
0.46800 -0.82500 0.47550 -0.83250 t
0.45300 -0.82500 0.46800 -0.82500 t
0.44550 -0.84000 0.47550 -0.87000 t
0.55050 -0.88500 0.55050 -0.82500 t
0.54300 -0.82500 0.55050 -0.83250 t
0.52800 -0.82500 0.54300 -0.82500 t
0.52050 -0.83250 0.52800 -0.82500 t
0.52050 -0.84750 0.52050 -0.83250 t
0.52050 -0.84750 0.52800 -0.85500 t
0.52800 -0.85500 0.54300 -0.85500 t
0.54300 -0.85500 0.55050 -0.84750 t
0.00750 setlinewidth
0.56850 -0.87000 0.56850 -0.86850 t
0.00600 setlinewidth
0.56850 -0.84750 0.56850 -0.82500 t
0.59100 -0.87750 0.59100 -0.82500 t
0.59100 -0.87750 0.59850 -0.88500 t
0.59850 -0.88500 0.60600 -0.88500 t
0.58350 -0.85500 0.59850 -0.85500 t
0.62850 -0.87750 0.62850 -0.82500 t
0.62850 -0.87750 0.63600 -0.88500 t
0.63600 -0.88500 0.64350 -0.88500 t
0.62100 -0.85500 0.63600 -0.85500 t
0.66600 -0.82500 0.68850 -0.82500 t
0.65850 -0.83250 0.66600 -0.82500 t
0.65850 -0.84750 0.65850 -0.83250 t
0.65850 -0.84750 0.66600 -0.85500 t
0.66600 -0.85500 0.68100 -0.85500 t
0.68100 -0.85500 0.68850 -0.84750 t
0.65850 -0.84000 0.68850 -0.84000 t
0.68850 -0.84750 0.68850 -0.84000 t
0.71400 -0.84750 0.71400 -0.82500 t
0.71400 -0.84750 0.72150 -0.85500 t
0.72150 -0.85500 0.73650 -0.85500 t
0.70650 -0.85500 0.71400 -0.84750 t
0.76200 -0.82500 0.78450 -0.82500 t
0.75450 -0.83250 0.76200 -0.82500 t
0.75450 -0.84750 0.75450 -0.83250 t
0.75450 -0.84750 0.76200 -0.85500 t
0.76200 -0.85500 0.77700 -0.85500 t
0.77700 -0.85500 0.78450 -0.84750 t
0.75450 -0.84000 0.78450 -0.84000 t
0.78450 -0.84750 0.78450 -0.84000 t
0.81000 -0.84750 0.81000 -0.82500 t
0.81000 -0.84750 0.81750 -0.85500 t
0.81750 -0.85500 0.82500 -0.85500 t
0.82500 -0.85500 0.83250 -0.84750 t
0.83250 -0.84750 0.83250 -0.82500 t
0.80250 -0.85500 0.81000 -0.84750 t
0.85800 -0.88500 0.85800 -0.83250 t
0.85800 -0.83250 0.86550 -0.82500 t
0.85050 -0.86250 0.86550 -0.86250 t
0.93750 -0.88500 0.93750 -0.82500 t
0.93000 -0.82500 0.93750 -0.83250 t
0.91500 -0.82500 0.93000 -0.82500 t
0.90750 -0.83250 0.91500 -0.82500 t
0.90750 -0.84750 0.90750 -0.83250 t
0.90750 -0.84750 0.91500 -0.85500 t
0.91500 -0.85500 0.93000 -0.85500 t
0.93000 -0.85500 0.93750 -0.84750 t
0.96300 -0.84750 0.96300 -0.82500 t
0.96300 -0.84750 0.97050 -0.85500 t
0.97050 -0.85500 0.98550 -0.85500 t
0.95550 -0.85500 0.96300 -0.84750 t
0.00750 setlinewidth
1.00350 -0.87000 1.00350 -0.86850 t
0.00600 setlinewidth
1.00350 -0.84750 1.00350 -0.82500 t
1.01850 -0.88500 1.01850 -0.83250 t
1.01850 -0.83250 1.02600 -0.82500 t
1.04100 -0.88500 1.04100 -0.83250 t
1.04100 -0.83250 1.04850 -0.82500 t
1.09800 -0.82500 1.12050 -0.82500 t
1.12050 -0.82500 1.12800 -0.83250 t
1.12050 -0.84000 1.12800 -0.83250 t
1.09800 -0.84000 1.12050 -0.84000 t
1.09050 -0.84750 1.09800 -0.84000 t
1.09050 -0.84750 1.09800 -0.85500 t
1.09800 -0.85500 1.12050 -0.85500 t
1.12050 -0.85500 1.12800 -0.84750 t
1.09050 -0.83250 1.09800 -0.82500 t
0.00750 setlinewidth
1.14600 -0.87000 1.14600 -0.86850 t
0.00600 setlinewidth
1.14600 -0.84750 1.14600 -0.82500 t
1.16100 -0.85500 1.19100 -0.85500 t
1.16100 -0.82500 1.19100 -0.85500 t
1.16100 -0.82500 1.19100 -0.82500 t
1.21650 -0.82500 1.23900 -0.82500 t
1.20900 -0.83250 1.21650 -0.82500 t
1.20900 -0.84750 1.20900 -0.83250 t
1.20900 -0.84750 1.21650 -0.85500 t
1.21650 -0.85500 1.23150 -0.85500 t
1.23150 -0.85500 1.23900 -0.84750 t
1.20900 -0.84000 1.23900 -0.84000 t
1.23900 -0.84750 1.23900 -0.84000 t
1.26450 -0.82500 1.28700 -0.82500 t
1.28700 -0.82500 1.29450 -0.83250 t
1.28700 -0.84000 1.29450 -0.83250 t
1.26450 -0.84000 1.28700 -0.84000 t
1.25700 -0.84750 1.26450 -0.84000 t
1.25700 -0.84750 1.26450 -0.85500 t
1.26450 -0.85500 1.28700 -0.85500 t
1.28700 -0.85500 1.29450 -0.84750 t
1.25700 -0.83250 1.26450 -0.82500 t
1.33950 -0.85500 1.33950 -0.83250 t
1.33950 -0.83250 1.34700 -0.82500 t
1.34700 -0.82500 1.36200 -0.82500 t
1.36200 -0.82500 1.36950 -0.83250 t
1.36950 -0.85500 1.36950 -0.83250 t
1.39500 -0.82500 1.41750 -0.82500 t
1.41750 -0.82500 1.42500 -0.83250 t
1.41750 -0.84000 1.42500 -0.83250 t
1.39500 -0.84000 1.41750 -0.84000 t
1.38750 -0.84750 1.39500 -0.84000 t
1.38750 -0.84750 1.39500 -0.85500 t
1.39500 -0.85500 1.41750 -0.85500 t
1.41750 -0.85500 1.42500 -0.84750 t
1.38750 -0.83250 1.39500 -0.82500 t
1.45050 -0.82500 1.47300 -0.82500 t
1.44300 -0.83250 1.45050 -0.82500 t
1.44300 -0.84750 1.44300 -0.83250 t
1.44300 -0.84750 1.45050 -0.85500 t
1.45050 -0.85500 1.46550 -0.85500 t
1.46550 -0.85500 1.47300 -0.84750 t
1.44300 -0.84000 1.47300 -0.84000 t
1.47300 -0.84750 1.47300 -0.84000 t
1.52100 -0.88500 1.52100 -0.82500 t
1.51350 -0.82500 1.52100 -0.83250 t
1.49850 -0.82500 1.51350 -0.82500 t
1.49100 -0.83250 1.49850 -0.82500 t
1.49100 -0.84750 1.49100 -0.83250 t
1.49100 -0.84750 1.49850 -0.85500 t
1.49850 -0.85500 1.51350 -0.85500 t
1.51350 -0.85500 1.52100 -0.84750 t
0.00750 setlinewidth
1.56600 -0.87000 1.56600 -0.86850 t
0.00600 setlinewidth
1.56600 -0.84750 1.56600 -0.82500 t
1.58850 -0.84750 1.58850 -0.82500 t
1.58850 -0.84750 1.59600 -0.85500 t
1.59600 -0.85500 1.60350 -0.85500 t
1.60350 -0.85500 1.61100 -0.84750 t
1.61100 -0.84750 1.61100 -0.82500 t
1.58100 -0.85500 1.58850 -0.84750 t
1.66350 -0.88500 1.66350 -0.83250 t
1.66350 -0.83250 1.67100 -0.82500 t
1.65600 -0.86250 1.67100 -0.86250 t
1.68600 -0.88500 1.68600 -0.82500 t
1.68600 -0.84750 1.69350 -0.85500 t
1.69350 -0.85500 1.70850 -0.85500 t
1.70850 -0.85500 1.71600 -0.84750 t
1.71600 -0.84750 1.71600 -0.82500 t
0.00750 setlinewidth
1.73400 -0.87000 1.73400 -0.86850 t
0.00600 setlinewidth
1.73400 -0.84750 1.73400 -0.82500 t
1.75650 -0.82500 1.77900 -0.82500 t
1.77900 -0.82500 1.78650 -0.83250 t
1.77900 -0.84000 1.78650 -0.83250 t
1.75650 -0.84000 1.77900 -0.84000 t
1.74900 -0.84750 1.75650 -0.84000 t
1.74900 -0.84750 1.75650 -0.85500 t
1.75650 -0.85500 1.77900 -0.85500 t
1.77900 -0.85500 1.78650 -0.84750 t
1.74900 -0.83250 1.75650 -0.82500 t
1.83150 -0.88500 1.83150 -0.83250 t
1.83150 -0.83250 1.83900 -0.82500 t
1.87650 -0.85500 1.88400 -0.84750 t
1.86150 -0.85500 1.87650 -0.85500 t
1.85400 -0.84750 1.86150 -0.85500 t
1.85400 -0.84750 1.85400 -0.83250 t
1.85400 -0.83250 1.86150 -0.82500 t
1.88400 -0.85500 1.88400 -0.83250 t
1.88400 -0.83250 1.89150 -0.82500 t
1.86150 -0.82500 1.87650 -0.82500 t
1.87650 -0.82500 1.88400 -0.83250 t
1.90950 -0.85500 1.90950 -0.83250 t
1.90950 -0.83250 1.91700 -0.82500 t
1.93950 -0.85500 1.93950 -0.81000 t
1.93200 -0.80250 1.93950 -0.81000 t
1.91700 -0.80250 1.93200 -0.80250 t
1.90950 -0.81000 1.91700 -0.80250 t
1.91700 -0.82500 1.93200 -0.82500 t
1.93200 -0.82500 1.93950 -0.83250 t
1.95750 -0.84750 1.95750 -0.83250 t
1.95750 -0.84750 1.96500 -0.85500 t
1.96500 -0.85500 1.98000 -0.85500 t
1.98000 -0.85500 1.98750 -0.84750 t
1.98750 -0.84750 1.98750 -0.83250 t
1.98000 -0.82500 1.98750 -0.83250 t
1.96500 -0.82500 1.98000 -0.82500 t
1.95750 -0.83250 1.96500 -0.82500 t
2.00550 -0.85500 2.00550 -0.83250 t
2.00550 -0.83250 2.01300 -0.82500 t
2.01300 -0.82500 2.02800 -0.82500 t
2.02800 -0.82500 2.03550 -0.83250 t
2.03550 -0.85500 2.03550 -0.83250 t
2.06100 -0.88500 2.06100 -0.83250 t
2.06100 -0.83250 2.06850 -0.82500 t
2.05350 -0.86250 2.06850 -0.86250 t
2.08350 -0.81000 2.09850 -0.82500 t
2.14350 -0.83250 2.15100 -0.82500 t
2.14350 -0.87750 2.14350 -0.83250 t
2.14350 -0.87750 2.15100 -0.88500 t
2.15100 -0.88500 2.16600 -0.88500 t
2.16600 -0.88500 2.17350 -0.87750 t
2.17350 -0.87750 2.17350 -0.83250 t
2.16600 -0.82500 2.17350 -0.83250 t
2.15100 -0.82500 2.16600 -0.82500 t
2.14350 -0.84000 2.17350 -0.87000 t
2.21850 -0.88500 2.21850 -0.82500 t
2.21850 -0.84750 2.22600 -0.85500 t
2.22600 -0.85500 2.24100 -0.85500 t
2.24100 -0.85500 2.24850 -0.84750 t
2.24850 -0.84750 2.24850 -0.82500 t
2.26650 -0.84750 2.26650 -0.83250 t
2.26650 -0.84750 2.27400 -0.85500 t
2.27400 -0.85500 2.28900 -0.85500 t
2.28900 -0.85500 2.29650 -0.84750 t
2.29650 -0.84750 2.29650 -0.83250 t
2.28900 -0.82500 2.29650 -0.83250 t
2.27400 -0.82500 2.28900 -0.82500 t
2.26650 -0.83250 2.27400 -0.82500 t
2.31450 -0.88500 2.31450 -0.83250 t
2.31450 -0.83250 2.32200 -0.82500 t
2.34450 -0.82500 2.36700 -0.82500 t
2.33700 -0.83250 2.34450 -0.82500 t
2.33700 -0.84750 2.33700 -0.83250 t
2.33700 -0.84750 2.34450 -0.85500 t
2.34450 -0.85500 2.35950 -0.85500 t
2.35950 -0.85500 2.36700 -0.84750 t
2.33700 -0.84000 2.36700 -0.84000 t
2.36700 -0.84750 2.36700 -0.84000 t
2.39250 -0.82500 2.41500 -0.82500 t
2.41500 -0.82500 2.42250 -0.83250 t
2.41500 -0.84000 2.42250 -0.83250 t
2.39250 -0.84000 2.41500 -0.84000 t
2.38500 -0.84750 2.39250 -0.84000 t
2.38500 -0.84750 2.39250 -0.85500 t
2.39250 -0.85500 2.41500 -0.85500 t
2.41500 -0.85500 2.42250 -0.84750 t
2.38500 -0.83250 2.39250 -0.82500 t
2.47500 -0.88500 2.47500 -0.83250 t
2.47500 -0.83250 2.48250 -0.82500 t
2.46750 -0.86250 2.48250 -0.86250 t
2.49750 -0.84750 2.49750 -0.83250 t
2.49750 -0.84750 2.50500 -0.85500 t
2.50500 -0.85500 2.52000 -0.85500 t
2.52000 -0.85500 2.52750 -0.84750 t
2.52750 -0.84750 2.52750 -0.83250 t
2.52000 -0.82500 2.52750 -0.83250 t
2.50500 -0.82500 2.52000 -0.82500 t
2.49750 -0.83250 2.50500 -0.82500 t
2.55300 -0.88500 2.55300 -0.83250 t
2.55300 -0.83250 2.56050 -0.82500 t
2.54550 -0.86250 2.56050 -0.86250 t
2.59800 -0.85500 2.60550 -0.84750 t
2.58300 -0.85500 2.59800 -0.85500 t
2.57550 -0.84750 2.58300 -0.85500 t
2.57550 -0.84750 2.57550 -0.83250 t
2.57550 -0.83250 2.58300 -0.82500 t
2.60550 -0.85500 2.60550 -0.83250 t
2.60550 -0.83250 2.61300 -0.82500 t
2.58300 -0.82500 2.59800 -0.82500 t
2.59800 -0.82500 2.60550 -0.83250 t
2.63100 -0.88500 2.63100 -0.83250 t
2.63100 -0.83250 2.63850 -0.82500 t
0.01000 setlinewidth
0.00000 0.00000 6.00000 0.00000 t
0.00000 0.00000 0.00000 5.00000 t
6.00000 0.00000 6.00000 5.00000 t
0.00000 5.00000 6.00000 5.00000 t
0.00600 setlinewidth
2.00000 -0.13500 2.00000 -0.07500 t
2.00000 -0.13500 2.02250 -0.10500 t
2.02250 -0.10500 2.04500 -0.13500 t
2.04500 -0.13500 2.04500 -0.07500 t
2.08550 -0.10500 2.09300 -0.09750 t
2.07050 -0.10500 2.08550 -0.10500 t
2.06300 -0.09750 2.07050 -0.10500 t
2.06300 -0.09750 2.06300 -0.08250 t
2.06300 -0.08250 2.07050 -0.07500 t
2.09300 -0.10500 2.09300 -0.08250 t
2.09300 -0.08250 2.10050 -0.07500 t
2.07050 -0.07500 2.08550 -0.07500 t
2.08550 -0.07500 2.09300 -0.08250 t
2.11850 -0.10500 2.14850 -0.07500 t
2.11850 -0.07500 2.14850 -0.10500 t
0.00750 setlinewidth
2.16650 -0.12000 2.16650 -0.11850 t
0.00600 setlinewidth
2.16650 -0.09750 2.16650 -0.07500 t
2.18900 -0.09750 2.18900 -0.07500 t
2.18900 -0.09750 2.19650 -0.10500 t
2.19650 -0.10500 2.20400 -0.10500 t
2.20400 -0.10500 2.21150 -0.09750 t
2.21150 -0.09750 2.21150 -0.07500 t
2.21150 -0.09750 2.21900 -0.10500 t
2.21900 -0.10500 2.22650 -0.10500 t
2.22650 -0.10500 2.23400 -0.09750 t
2.23400 -0.09750 2.23400 -0.07500 t
2.18150 -0.10500 2.18900 -0.09750 t
2.25200 -0.10500 2.25200 -0.08250 t
2.25200 -0.08250 2.25950 -0.07500 t
2.25950 -0.07500 2.27450 -0.07500 t
2.27450 -0.07500 2.28200 -0.08250 t
2.28200 -0.10500 2.28200 -0.08250 t
2.30750 -0.09750 2.30750 -0.07500 t
2.30750 -0.09750 2.31500 -0.10500 t
2.31500 -0.10500 2.32250 -0.10500 t
2.32250 -0.10500 2.33000 -0.09750 t
2.33000 -0.09750 2.33000 -0.07500 t
2.33000 -0.09750 2.33750 -0.10500 t
2.33750 -0.10500 2.34500 -0.10500 t
2.34500 -0.10500 2.35250 -0.09750 t
2.35250 -0.09750 2.35250 -0.07500 t
2.30000 -0.10500 2.30750 -0.09750 t
2.40500 -0.13500 2.40500 -0.07500 t
2.42450 -0.13500 2.43500 -0.12450 t
2.43500 -0.12450 2.43500 -0.08550 t
2.42450 -0.07500 2.43500 -0.08550 t
2.39750 -0.07500 2.42450 -0.07500 t
2.39750 -0.13500 2.42450 -0.13500 t
0.00750 setlinewidth
2.45300 -0.12000 2.45300 -0.11850 t
0.00600 setlinewidth
2.45300 -0.09750 2.45300 -0.07500 t
2.47550 -0.09750 2.47550 -0.07500 t
2.47550 -0.09750 2.48300 -0.10500 t
2.48300 -0.10500 2.49050 -0.10500 t
2.49050 -0.10500 2.49800 -0.09750 t
2.49800 -0.09750 2.49800 -0.07500 t
2.49800 -0.09750 2.50550 -0.10500 t
2.50550 -0.10500 2.51300 -0.10500 t
2.51300 -0.10500 2.52050 -0.09750 t
2.52050 -0.09750 2.52050 -0.07500 t
2.46800 -0.10500 2.47550 -0.09750 t
2.54600 -0.07500 2.56850 -0.07500 t
2.53850 -0.08250 2.54600 -0.07500 t
2.53850 -0.09750 2.53850 -0.08250 t
2.53850 -0.09750 2.54600 -0.10500 t
2.54600 -0.10500 2.56100 -0.10500 t
2.56100 -0.10500 2.56850 -0.09750 t
2.53850 -0.09000 2.56850 -0.09000 t
2.56850 -0.09750 2.56850 -0.09000 t
2.59400 -0.09750 2.59400 -0.07500 t
2.59400 -0.09750 2.60150 -0.10500 t
2.60150 -0.10500 2.60900 -0.10500 t
2.60900 -0.10500 2.61650 -0.09750 t
2.61650 -0.09750 2.61650 -0.07500 t
2.58650 -0.10500 2.59400 -0.09750 t
2.64200 -0.07500 2.66450 -0.07500 t
2.66450 -0.07500 2.67200 -0.08250 t
2.66450 -0.09000 2.67200 -0.08250 t
2.64200 -0.09000 2.66450 -0.09000 t
2.63450 -0.09750 2.64200 -0.09000 t
2.63450 -0.09750 2.64200 -0.10500 t
2.64200 -0.10500 2.66450 -0.10500 t
2.66450 -0.10500 2.67200 -0.09750 t
2.63450 -0.08250 2.64200 -0.07500 t
0.00750 setlinewidth
2.69000 -0.12000 2.69000 -0.11850 t
0.00600 setlinewidth
2.69000 -0.09750 2.69000 -0.07500 t
2.70500 -0.09750 2.70500 -0.08250 t
2.70500 -0.09750 2.71250 -0.10500 t
2.71250 -0.10500 2.72750 -0.10500 t
2.72750 -0.10500 2.73500 -0.09750 t
2.73500 -0.09750 2.73500 -0.08250 t
2.72750 -0.07500 2.73500 -0.08250 t
2.71250 -0.07500 2.72750 -0.07500 t
2.70500 -0.08250 2.71250 -0.07500 t
2.76050 -0.09750 2.76050 -0.07500 t
2.76050 -0.09750 2.76800 -0.10500 t
2.76800 -0.10500 2.77550 -0.10500 t
2.77550 -0.10500 2.78300 -0.09750 t
2.78300 -0.09750 2.78300 -0.07500 t
2.75300 -0.10500 2.76050 -0.09750 t
2.80850 -0.07500 2.83100 -0.07500 t
2.83100 -0.07500 2.83850 -0.08250 t
2.83100 -0.09000 2.83850 -0.08250 t
2.80850 -0.09000 2.83100 -0.09000 t
2.80100 -0.09750 2.80850 -0.09000 t
2.80100 -0.09750 2.80850 -0.10500 t
2.80850 -0.10500 2.83100 -0.10500 t
2.83100 -0.10500 2.83850 -0.09750 t
2.80100 -0.08250 2.80850 -0.07500 t
2.85650 -0.11250 2.86400 -0.11250 t
2.85650 -0.09750 2.86400 -0.09750 t
2.93150 -0.13500 2.93900 -0.12750 t
2.91650 -0.13500 2.93150 -0.13500 t
2.90900 -0.12750 2.91650 -0.13500 t
2.90900 -0.12750 2.90900 -0.08250 t
2.90900 -0.08250 2.91650 -0.07500 t
2.93150 -0.10800 2.93900 -0.10050 t
2.90900 -0.10800 2.93150 -0.10800 t
2.91650 -0.07500 2.93150 -0.07500 t
2.93150 -0.07500 2.93900 -0.08250 t
2.93900 -0.10050 2.93900 -0.08250 t
2.95700 -0.08250 2.96450 -0.07500 t
2.95700 -0.12750 2.95700 -0.08250 t
2.95700 -0.12750 2.96450 -0.13500 t
2.96450 -0.13500 2.97950 -0.13500 t
2.97950 -0.13500 2.98700 -0.12750 t
2.98700 -0.12750 2.98700 -0.08250 t
2.97950 -0.07500 2.98700 -0.08250 t
2.96450 -0.07500 2.97950 -0.07500 t
2.95700 -0.09000 2.98700 -0.12000 t
3.00500 -0.08250 3.01250 -0.07500 t
3.00500 -0.12750 3.00500 -0.08250 t
3.00500 -0.12750 3.01250 -0.13500 t
3.01250 -0.13500 3.02750 -0.13500 t
3.02750 -0.13500 3.03500 -0.12750 t
3.03500 -0.12750 3.03500 -0.08250 t
3.02750 -0.07500 3.03500 -0.08250 t
3.01250 -0.07500 3.02750 -0.07500 t
3.00500 -0.09000 3.03500 -0.12000 t
3.05300 -0.08250 3.06050 -0.07500 t
3.05300 -0.12750 3.05300 -0.08250 t
3.05300 -0.12750 3.06050 -0.13500 t
3.06050 -0.13500 3.07550 -0.13500 t
3.07550 -0.13500 3.08300 -0.12750 t
3.08300 -0.12750 3.08300 -0.08250 t
3.07550 -0.07500 3.08300 -0.08250 t
3.06050 -0.07500 3.07550 -0.07500 t
3.05300 -0.09000 3.08300 -0.12000 t
3.10100 -0.07500 3.10850 -0.07500 t
3.12650 -0.08250 3.13400 -0.07500 t
3.12650 -0.12750 3.12650 -0.08250 t
3.12650 -0.12750 3.13400 -0.13500 t
3.13400 -0.13500 3.14900 -0.13500 t
3.14900 -0.13500 3.15650 -0.12750 t
3.15650 -0.12750 3.15650 -0.08250 t
3.14900 -0.07500 3.15650 -0.08250 t
3.13400 -0.07500 3.14900 -0.07500 t
3.12650 -0.09000 3.15650 -0.12000 t
3.17450 -0.08250 3.18200 -0.07500 t
3.17450 -0.12750 3.17450 -0.08250 t
3.17450 -0.12750 3.18200 -0.13500 t
3.18200 -0.13500 3.19700 -0.13500 t
3.19700 -0.13500 3.20450 -0.12750 t
3.20450 -0.12750 3.20450 -0.08250 t
3.19700 -0.07500 3.20450 -0.08250 t
3.18200 -0.07500 3.19700 -0.07500 t
3.17450 -0.09000 3.20450 -0.12000 t
3.22250 -0.08250 3.23000 -0.07500 t
3.22250 -0.12750 3.22250 -0.08250 t
3.22250 -0.12750 3.23000 -0.13500 t
3.23000 -0.13500 3.24500 -0.13500 t
3.24500 -0.13500 3.25250 -0.12750 t
3.25250 -0.12750 3.25250 -0.08250 t
3.24500 -0.07500 3.25250 -0.08250 t
3.23000 -0.07500 3.24500 -0.07500 t
3.22250 -0.09000 3.25250 -0.12000 t
3.27050 -0.08250 3.27800 -0.07500 t
3.27050 -0.12750 3.27050 -0.08250 t
3.27050 -0.12750 3.27800 -0.13500 t
3.27800 -0.13500 3.29300 -0.13500 t
3.29300 -0.13500 3.30050 -0.12750 t
3.30050 -0.12750 3.30050 -0.08250 t
3.29300 -0.07500 3.30050 -0.08250 t
3.27800 -0.07500 3.29300 -0.07500 t
3.27050 -0.09000 3.30050 -0.12000 t
3.31850 -0.08250 3.32600 -0.07500 t
3.31850 -0.12750 3.31850 -0.08250 t
3.31850 -0.12750 3.32600 -0.13500 t
3.32600 -0.13500 3.34100 -0.13500 t
3.34100 -0.13500 3.34850 -0.12750 t
3.34850 -0.12750 3.34850 -0.08250 t
3.34100 -0.07500 3.34850 -0.08250 t
3.32600 -0.07500 3.34100 -0.07500 t
3.31850 -0.09000 3.34850 -0.12000 t
3.36650 -0.08250 3.37400 -0.07500 t
3.36650 -0.12750 3.36650 -0.08250 t
3.36650 -0.12750 3.37400 -0.13500 t
3.37400 -0.13500 3.38900 -0.13500 t
3.38900 -0.13500 3.39650 -0.12750 t
3.39650 -0.12750 3.39650 -0.08250 t
3.38900 -0.07500 3.39650 -0.08250 t
3.37400 -0.07500 3.38900 -0.07500 t
3.36650 -0.09000 3.39650 -0.12000 t
3.44900 -0.09750 3.44900 -0.07500 t
3.44900 -0.09750 3.45650 -0.10500 t
3.45650 -0.10500 3.46400 -0.10500 t
3.46400 -0.10500 3.47150 -0.09750 t
3.47150 -0.09750 3.47150 -0.07500 t
3.47150 -0.09750 3.47900 -0.10500 t
3.47900 -0.10500 3.48650 -0.10500 t
3.48650 -0.10500 3.49400 -0.09750 t
3.49400 -0.09750 3.49400 -0.07500 t
3.44150 -0.10500 3.44900 -0.09750 t
0.00750 setlinewidth
3.51200 -0.12000 3.51200 -0.11850 t
0.00600 setlinewidth
3.51200 -0.09750 3.51200 -0.07500 t
3.52700 -0.13500 3.52700 -0.08250 t
3.52700 -0.08250 3.53450 -0.07500 t
3.55700 -0.07500 3.57950 -0.07500 t
3.57950 -0.07500 3.58700 -0.08250 t
3.57950 -0.09000 3.58700 -0.08250 t
3.55700 -0.09000 3.57950 -0.09000 t
3.54950 -0.09750 3.55700 -0.09000 t
3.54950 -0.09750 3.55700 -0.10500 t
3.55700 -0.10500 3.57950 -0.10500 t
3.57950 -0.10500 3.58700 -0.09750 t
3.54950 -0.08250 3.55700 -0.07500 t
3.63200 -0.10500 3.63200 -0.08250 t
3.63200 -0.08250 3.63950 -0.07500 t
3.63950 -0.07500 3.64700 -0.07500 t
3.64700 -0.07500 3.65450 -0.08250 t
3.65450 -0.10500 3.65450 -0.08250 t
3.65450 -0.08250 3.66200 -0.07500 t
3.66200 -0.07500 3.66950 -0.07500 t
3.66950 -0.07500 3.67700 -0.08250 t
3.67700 -0.10500 3.67700 -0.08250 t
0.00750 setlinewidth
3.69500 -0.12000 3.69500 -0.11850 t
0.00600 setlinewidth
3.69500 -0.09750 3.69500 -0.07500 t
3.74000 -0.13500 3.74000 -0.07500 t
3.73250 -0.07500 3.74000 -0.08250 t
3.71750 -0.07500 3.73250 -0.07500 t
3.71000 -0.08250 3.71750 -0.07500 t
3.71000 -0.09750 3.71000 -0.08250 t
3.71000 -0.09750 3.71750 -0.10500 t
3.71750 -0.10500 3.73250 -0.10500 t
3.73250 -0.10500 3.74000 -0.09750 t
3.76550 -0.07500 3.78800 -0.07500 t
3.75800 -0.08250 3.76550 -0.07500 t
3.75800 -0.09750 3.75800 -0.08250 t
3.75800 -0.09750 3.76550 -0.10500 t
3.76550 -0.10500 3.78050 -0.10500 t
3.78050 -0.10500 3.78800 -0.09750 t
3.75800 -0.09000 3.78800 -0.09000 t
3.78800 -0.09750 3.78800 -0.09000 t
3.80600 -0.06000 3.82100 -0.07500 t
3.86600 -0.13500 3.89600 -0.13500 t
3.86600 -0.13500 3.86600 -0.10500 t
3.86600 -0.10500 3.87350 -0.11250 t
3.87350 -0.11250 3.88850 -0.11250 t
3.88850 -0.11250 3.89600 -0.10500 t
3.89600 -0.10500 3.89600 -0.08250 t
3.88850 -0.07500 3.89600 -0.08250 t
3.87350 -0.07500 3.88850 -0.07500 t
3.86600 -0.08250 3.87350 -0.07500 t
3.91400 -0.08250 3.92150 -0.07500 t
3.91400 -0.12750 3.91400 -0.08250 t
3.91400 -0.12750 3.92150 -0.13500 t
3.92150 -0.13500 3.93650 -0.13500 t
3.93650 -0.13500 3.94400 -0.12750 t
3.94400 -0.12750 3.94400 -0.08250 t
3.93650 -0.07500 3.94400 -0.08250 t
3.92150 -0.07500 3.93650 -0.07500 t
3.91400 -0.09000 3.94400 -0.12000 t
3.96200 -0.08250 3.96950 -0.07500 t
3.96200 -0.12750 3.96200 -0.08250 t
3.96200 -0.12750 3.96950 -0.13500 t
3.96950 -0.13500 3.98450 -0.13500 t
3.98450 -0.13500 3.99200 -0.12750 t
3.99200 -0.12750 3.99200 -0.08250 t
3.98450 -0.07500 3.99200 -0.08250 t
3.96950 -0.07500 3.98450 -0.07500 t
3.96200 -0.09000 3.99200 -0.12000 t
4.01000 -0.08250 4.01750 -0.07500 t
4.01000 -0.12750 4.01000 -0.08250 t
4.01000 -0.12750 4.01750 -0.13500 t
4.01750 -0.13500 4.03250 -0.13500 t
4.03250 -0.13500 4.04000 -0.12750 t
4.04000 -0.12750 4.04000 -0.08250 t
4.03250 -0.07500 4.04000 -0.08250 t
4.01750 -0.07500 4.03250 -0.07500 t
4.01000 -0.09000 4.04000 -0.12000 t
4.05800 -0.07500 4.06550 -0.07500 t
4.08350 -0.08250 4.09100 -0.07500 t
4.08350 -0.12750 4.08350 -0.08250 t
4.08350 -0.12750 4.09100 -0.13500 t
4.09100 -0.13500 4.10600 -0.13500 t
4.10600 -0.13500 4.11350 -0.12750 t
4.11350 -0.12750 4.11350 -0.08250 t
4.10600 -0.07500 4.11350 -0.08250 t
4.09100 -0.07500 4.10600 -0.07500 t
4.08350 -0.09000 4.11350 -0.12000 t
4.13150 -0.08250 4.13900 -0.07500 t
4.13150 -0.12750 4.13150 -0.08250 t
4.13150 -0.12750 4.13900 -0.13500 t
4.13900 -0.13500 4.15400 -0.13500 t
4.15400 -0.13500 4.16150 -0.12750 t
4.16150 -0.12750 4.16150 -0.08250 t
4.15400 -0.07500 4.16150 -0.08250 t
4.13900 -0.07500 4.15400 -0.07500 t
4.13150 -0.09000 4.16150 -0.12000 t
4.17950 -0.08250 4.18700 -0.07500 t
4.17950 -0.12750 4.17950 -0.08250 t
4.17950 -0.12750 4.18700 -0.13500 t
4.18700 -0.13500 4.20200 -0.13500 t
4.20200 -0.13500 4.20950 -0.12750 t
4.20950 -0.12750 4.20950 -0.08250 t
4.20200 -0.07500 4.20950 -0.08250 t
4.18700 -0.07500 4.20200 -0.07500 t
4.17950 -0.09000 4.20950 -0.12000 t
4.22750 -0.08250 4.23500 -0.07500 t
4.22750 -0.12750 4.22750 -0.08250 t
4.22750 -0.12750 4.23500 -0.13500 t
4.23500 -0.13500 4.25000 -0.13500 t
4.25000 -0.13500 4.25750 -0.12750 t
4.25750 -0.12750 4.25750 -0.08250 t
4.25000 -0.07500 4.25750 -0.08250 t
4.23500 -0.07500 4.25000 -0.07500 t
4.22750 -0.09000 4.25750 -0.12000 t
4.27550 -0.08250 4.28300 -0.07500 t
4.27550 -0.12750 4.27550 -0.08250 t
4.27550 -0.12750 4.28300 -0.13500 t
4.28300 -0.13500 4.29800 -0.13500 t
4.29800 -0.13500 4.30550 -0.12750 t
4.30550 -0.12750 4.30550 -0.08250 t
4.29800 -0.07500 4.30550 -0.08250 t
4.28300 -0.07500 4.29800 -0.07500 t
4.27550 -0.09000 4.30550 -0.12000 t
4.32350 -0.08250 4.33100 -0.07500 t
4.32350 -0.12750 4.32350 -0.08250 t
4.32350 -0.12750 4.33100 -0.13500 t
4.33100 -0.13500 4.34600 -0.13500 t
4.34600 -0.13500 4.35350 -0.12750 t
4.35350 -0.12750 4.35350 -0.08250 t
4.34600 -0.07500 4.35350 -0.08250 t
4.33100 -0.07500 4.34600 -0.07500 t
4.32350 -0.09000 4.35350 -0.12000 t
4.40600 -0.09750 4.40600 -0.07500 t
4.40600 -0.09750 4.41350 -0.10500 t
4.41350 -0.10500 4.42100 -0.10500 t
4.42100 -0.10500 4.42850 -0.09750 t
4.42850 -0.09750 4.42850 -0.07500 t
4.42850 -0.09750 4.43600 -0.10500 t
4.43600 -0.10500 4.44350 -0.10500 t
4.44350 -0.10500 4.45100 -0.09750 t
4.45100 -0.09750 4.45100 -0.07500 t
4.39850 -0.10500 4.40600 -0.09750 t
0.00750 setlinewidth
4.46900 -0.12000 4.46900 -0.11850 t
0.00600 setlinewidth
4.46900 -0.09750 4.46900 -0.07500 t
4.48400 -0.13500 4.48400 -0.08250 t
4.48400 -0.08250 4.49150 -0.07500 t
4.51400 -0.07500 4.53650 -0.07500 t
4.53650 -0.07500 4.54400 -0.08250 t
4.53650 -0.09000 4.54400 -0.08250 t
4.51400 -0.09000 4.53650 -0.09000 t
4.50650 -0.09750 4.51400 -0.09000 t
4.50650 -0.09750 4.51400 -0.10500 t
4.51400 -0.10500 4.53650 -0.10500 t
4.53650 -0.10500 4.54400 -0.09750 t
4.50650 -0.08250 4.51400 -0.07500 t
4.58900 -0.13500 4.58900 -0.07500 t
4.58900 -0.09750 4.59650 -0.10500 t
4.59650 -0.10500 4.61150 -0.10500 t
4.61150 -0.10500 4.61900 -0.09750 t
4.61900 -0.09750 4.61900 -0.07500 t
0.00750 setlinewidth
4.63700 -0.12000 4.63700 -0.11850 t
0.00600 setlinewidth
4.63700 -0.09750 4.63700 -0.07500 t
4.67450 -0.10500 4.68200 -0.09750 t
4.65950 -0.10500 4.67450 -0.10500 t
4.65200 -0.09750 4.65950 -0.10500 t
4.65200 -0.09750 4.65200 -0.08250 t
4.65200 -0.08250 4.65950 -0.07500 t
4.65950 -0.07500 4.67450 -0.07500 t
4.67450 -0.07500 4.68200 -0.08250 t
4.65200 -0.06000 4.65950 -0.05250 t
4.65950 -0.05250 4.67450 -0.05250 t
4.67450 -0.05250 4.68200 -0.06000 t
4.68200 -0.10500 4.68200 -0.06000 t
4.70000 -0.13500 4.70000 -0.07500 t
4.70000 -0.09750 4.70750 -0.10500 t
4.70750 -0.10500 4.72250 -0.10500 t
4.72250 -0.10500 4.73000 -0.09750 t
4.73000 -0.09750 4.73000 -0.07500 t
0.97275 5.09500 1.00275 5.09500 t
1.00275 5.09500 1.01025 5.08750 t
1.01025 5.06950 1.01025 5.08750 t
1.00275 5.06200 1.01025 5.06950 t
0.98025 5.06200 1.00275 5.06200 t
0.98025 5.03500 0.98025 5.09500 t
0.97275 5.03500 1.00275 5.03500 t
1.00275 5.03500 1.01025 5.04250 t
1.01025 5.04250 1.01025 5.05450 t
1.00275 5.06200 1.01025 5.05450 t
1.02825 5.07250 1.02825 5.08750 t
1.02825 5.07250 1.03575 5.06500 t
1.03575 5.06500 1.05075 5.06500 t
1.05075 5.06500 1.05825 5.07250 t
1.05825 5.07250 1.05825 5.08750 t
1.05075 5.09500 1.05825 5.08750 t
1.03575 5.09500 1.05075 5.09500 t
1.02825 5.08750 1.03575 5.09500 t
1.09875 5.06500 1.10625 5.07250 t
1.08375 5.06500 1.09875 5.06500 t
1.07625 5.07250 1.08375 5.06500 t
1.07625 5.07250 1.07625 5.08750 t
1.07625 5.08750 1.08375 5.09500 t
1.10625 5.06500 1.10625 5.08750 t
1.10625 5.08750 1.11375 5.09500 t
1.08375 5.09500 1.09875 5.09500 t
1.09875 5.09500 1.10625 5.08750 t
1.13925 5.07250 1.13925 5.09500 t
1.13925 5.07250 1.14675 5.06500 t
1.14675 5.06500 1.16175 5.06500 t
1.13175 5.06500 1.13925 5.07250 t
1.20975 5.03500 1.20975 5.09500 t
1.20225 5.09500 1.20975 5.08750 t
1.18725 5.09500 1.20225 5.09500 t
1.17975 5.08750 1.18725 5.09500 t
1.17975 5.07250 1.17975 5.08750 t
1.17975 5.07250 1.18725 5.06500 t
1.18725 5.06500 1.20225 5.06500 t
1.20225 5.06500 1.20975 5.07250 t
1.25475 5.07250 1.25475 5.08750 t
1.25475 5.07250 1.26225 5.06500 t
1.26225 5.06500 1.27725 5.06500 t
1.27725 5.06500 1.28475 5.07250 t
1.28475 5.07250 1.28475 5.08750 t
1.27725 5.09500 1.28475 5.08750 t
1.26225 5.09500 1.27725 5.09500 t
1.25475 5.08750 1.26225 5.09500 t
1.30275 5.06500 1.30275 5.08750 t
1.30275 5.08750 1.31025 5.09500 t
1.31025 5.09500 1.32525 5.09500 t
1.32525 5.09500 1.33275 5.08750 t
1.33275 5.06500 1.33275 5.08750 t
1.35825 5.03500 1.35825 5.08750 t
1.35825 5.08750 1.36575 5.09500 t
1.35075 5.05750 1.36575 5.05750 t
1.38075 5.03500 1.38075 5.08750 t
1.38075 5.08750 1.38825 5.09500 t
0.00750 setlinewidth
1.40325 5.05000 1.40325 5.05150 t
0.00600 setlinewidth
1.40325 5.07250 1.40325 5.09500 t
1.42575 5.07250 1.42575 5.09500 t
1.42575 5.07250 1.43325 5.06500 t
1.43325 5.06500 1.44075 5.06500 t
1.44075 5.06500 1.44825 5.07250 t
1.44825 5.07250 1.44825 5.09500 t
1.41825 5.06500 1.42575 5.07250 t
1.47375 5.09500 1.49625 5.09500 t
1.46625 5.08750 1.47375 5.09500 t
1.46625 5.07250 1.46625 5.08750 t
1.46625 5.07250 1.47375 5.06500 t
1.47375 5.06500 1.48875 5.06500 t
1.48875 5.06500 1.49625 5.07250 t
1.46625 5.08000 1.49625 5.08000 t
1.49625 5.07250 1.49625 5.08000 t
0.00750 setlinewidth
1.54125 5.05000 1.54125 5.05150 t
0.00600 setlinewidth
1.54125 5.07250 1.54125 5.09500 t
1.56375 5.09500 1.58625 5.09500 t
1.58625 5.09500 1.59375 5.08750 t
1.58625 5.08000 1.59375 5.08750 t
1.56375 5.08000 1.58625 5.08000 t
1.55625 5.07250 1.56375 5.08000 t
1.55625 5.07250 1.56375 5.06500 t
1.56375 5.06500 1.58625 5.06500 t
1.58625 5.06500 1.59375 5.07250 t
1.55625 5.08750 1.56375 5.09500 t
1.64625 5.03500 1.64625 5.08750 t
1.64625 5.08750 1.65375 5.09500 t
1.63875 5.05750 1.65375 5.05750 t
1.66875 5.03500 1.66875 5.09500 t
1.66875 5.07250 1.67625 5.06500 t
1.67625 5.06500 1.69125 5.06500 t
1.69125 5.06500 1.69875 5.07250 t
1.69875 5.07250 1.69875 5.09500 t
1.72425 5.09500 1.74675 5.09500 t
1.71675 5.08750 1.72425 5.09500 t
1.71675 5.07250 1.71675 5.08750 t
1.71675 5.07250 1.72425 5.06500 t
1.72425 5.06500 1.73925 5.06500 t
1.73925 5.06500 1.74675 5.07250 t
1.71675 5.08000 1.74675 5.08000 t
1.74675 5.07250 1.74675 5.08000 t
1.79925 5.06500 1.82175 5.06500 t
1.79175 5.07250 1.79925 5.06500 t
1.79175 5.07250 1.79175 5.08750 t
1.79175 5.08750 1.79925 5.09500 t
1.79925 5.09500 1.82175 5.09500 t
1.84725 5.09500 1.86975 5.09500 t
1.83975 5.08750 1.84725 5.09500 t
1.83975 5.07250 1.83975 5.08750 t
1.83975 5.07250 1.84725 5.06500 t
1.84725 5.06500 1.86225 5.06500 t
1.86225 5.06500 1.86975 5.07250 t
1.83975 5.08000 1.86975 5.08000 t
1.86975 5.07250 1.86975 5.08000 t
1.89525 5.07250 1.89525 5.09500 t
1.89525 5.07250 1.90275 5.06500 t
1.90275 5.06500 1.91025 5.06500 t
1.91025 5.06500 1.91775 5.07250 t
1.91775 5.07250 1.91775 5.09500 t
1.88775 5.06500 1.89525 5.07250 t
1.94325 5.03500 1.94325 5.08750 t
1.94325 5.08750 1.95075 5.09500 t
1.93575 5.05750 1.95075 5.05750 t
1.97325 5.09500 1.99575 5.09500 t
1.96575 5.08750 1.97325 5.09500 t
1.96575 5.07250 1.96575 5.08750 t
1.96575 5.07250 1.97325 5.06500 t
1.97325 5.06500 1.98825 5.06500 t
1.98825 5.06500 1.99575 5.07250 t
1.96575 5.08000 1.99575 5.08000 t
1.99575 5.07250 1.99575 5.08000 t
2.02125 5.07250 2.02125 5.09500 t
2.02125 5.07250 2.02875 5.06500 t
2.02875 5.06500 2.04375 5.06500 t
2.01375 5.06500 2.02125 5.07250 t
2.06175 5.03500 2.06175 5.08750 t
2.06175 5.08750 2.06925 5.09500 t
0.00750 setlinewidth
2.08425 5.05000 2.08425 5.05150 t
0.00600 setlinewidth
2.08425 5.07250 2.08425 5.09500 t
2.10675 5.07250 2.10675 5.09500 t
2.10675 5.07250 2.11425 5.06500 t
2.11425 5.06500 2.12175 5.06500 t
2.12175 5.06500 2.12925 5.07250 t
2.12925 5.07250 2.12925 5.09500 t
2.09925 5.06500 2.10675 5.07250 t
2.15475 5.09500 2.17725 5.09500 t
2.14725 5.08750 2.15475 5.09500 t
2.14725 5.07250 2.14725 5.08750 t
2.14725 5.07250 2.15475 5.06500 t
2.15475 5.06500 2.16975 5.06500 t
2.16975 5.06500 2.17725 5.07250 t
2.14725 5.08000 2.17725 5.08000 t
2.17725 5.07250 2.17725 5.08000 t
2.22225 5.07250 2.22225 5.08750 t
2.22225 5.07250 2.22975 5.06500 t
2.22975 5.06500 2.24475 5.06500 t
2.24475 5.06500 2.25225 5.07250 t
2.25225 5.07250 2.25225 5.08750 t
2.24475 5.09500 2.25225 5.08750 t
2.22975 5.09500 2.24475 5.09500 t
2.22225 5.08750 2.22975 5.09500 t
2.27775 5.04250 2.27775 5.09500 t
2.27775 5.04250 2.28525 5.03500 t
2.28525 5.03500 2.29275 5.03500 t
2.27025 5.06500 2.28525 5.06500 t
2.34225 5.03500 2.34225 5.08750 t
2.34225 5.08750 2.34975 5.09500 t
2.33475 5.05750 2.34975 5.05750 t
2.36475 5.03500 2.36475 5.09500 t
2.36475 5.07250 2.37225 5.06500 t
2.37225 5.06500 2.38725 5.06500 t
2.38725 5.06500 2.39475 5.07250 t
2.39475 5.07250 2.39475 5.09500 t
0.00750 setlinewidth
2.41275 5.05000 2.41275 5.05150 t
0.00600 setlinewidth
2.41275 5.07250 2.41275 5.09500 t
2.43525 5.09500 2.45775 5.09500 t
2.45775 5.09500 2.46525 5.08750 t
2.45775 5.08000 2.46525 5.08750 t
2.43525 5.08000 2.45775 5.08000 t
2.42775 5.07250 2.43525 5.08000 t
2.42775 5.07250 2.43525 5.06500 t
2.43525 5.06500 2.45775 5.06500 t
2.45775 5.06500 2.46525 5.07250 t
2.42775 5.08750 2.43525 5.09500 t
2.51025 5.08750 2.51775 5.09500 t
2.51025 5.07550 2.51025 5.08750 t
2.51025 5.07550 2.52075 5.06500 t
2.52075 5.06500 2.52975 5.06500 t
2.52975 5.06500 2.54025 5.07550 t
2.54025 5.07550 2.54025 5.08750 t
2.53275 5.09500 2.54025 5.08750 t
2.51775 5.09500 2.53275 5.09500 t
2.51025 5.05450 2.52075 5.06500 t
2.51025 5.04250 2.51025 5.05450 t
2.51025 5.04250 2.51775 5.03500 t
2.51775 5.03500 2.53275 5.03500 t
2.53275 5.03500 2.54025 5.04250 t
2.54025 5.04250 2.54025 5.05450 t
2.52975 5.06500 2.54025 5.05450 t
2.55825 5.09500 2.56575 5.09500 t
2.58375 5.08750 2.59125 5.09500 t
2.58375 5.04250 2.58375 5.08750 t
2.58375 5.04250 2.59125 5.03500 t
2.59125 5.03500 2.60625 5.03500 t
2.60625 5.03500 2.61375 5.04250 t
2.61375 5.04250 2.61375 5.08750 t
2.60625 5.09500 2.61375 5.08750 t
2.59125 5.09500 2.60625 5.09500 t
2.58375 5.08000 2.61375 5.05000 t
2.63175 5.08750 2.63925 5.09500 t
2.63175 5.04250 2.63175 5.08750 t
2.63175 5.04250 2.63925 5.03500 t
2.63925 5.03500 2.65425 5.03500 t
2.65425 5.03500 2.66175 5.04250 t
2.66175 5.04250 2.66175 5.08750 t
2.65425 5.09500 2.66175 5.08750 t
2.63925 5.09500 2.65425 5.09500 t
2.63175 5.08000 2.66175 5.05000 t
2.67975 5.08750 2.68725 5.09500 t
2.67975 5.04250 2.67975 5.08750 t
2.67975 5.04250 2.68725 5.03500 t
2.68725 5.03500 2.70225 5.03500 t
2.70225 5.03500 2.70975 5.04250 t
2.70975 5.04250 2.70975 5.08750 t
2.70225 5.09500 2.70975 5.08750 t
2.68725 5.09500 2.70225 5.09500 t
2.67975 5.08000 2.70975 5.05000 t
2.72775 5.08750 2.73525 5.09500 t
2.72775 5.04250 2.72775 5.08750 t
2.72775 5.04250 2.73525 5.03500 t
2.73525 5.03500 2.75025 5.03500 t
2.75025 5.03500 2.75775 5.04250 t
2.75775 5.04250 2.75775 5.08750 t
2.75025 5.09500 2.75775 5.08750 t
2.73525 5.09500 2.75025 5.09500 t
2.72775 5.08000 2.75775 5.05000 t
2.77575 5.08750 2.78325 5.09500 t
2.77575 5.04250 2.77575 5.08750 t
2.77575 5.04250 2.78325 5.03500 t
2.78325 5.03500 2.79825 5.03500 t
2.79825 5.03500 2.80575 5.04250 t
2.80575 5.04250 2.80575 5.08750 t
2.79825 5.09500 2.80575 5.08750 t
2.78325 5.09500 2.79825 5.09500 t
2.77575 5.08000 2.80575 5.05000 t
2.82375 5.08750 2.83125 5.09500 t
2.82375 5.04250 2.82375 5.08750 t
2.82375 5.04250 2.83125 5.03500 t
2.83125 5.03500 2.84625 5.03500 t
2.84625 5.03500 2.85375 5.04250 t
2.85375 5.04250 2.85375 5.08750 t
2.84625 5.09500 2.85375 5.08750 t
2.83125 5.09500 2.84625 5.09500 t
2.82375 5.08000 2.85375 5.05000 t
2.90625 5.07250 2.90625 5.09500 t
2.90625 5.07250 2.91375 5.06500 t
2.91375 5.06500 2.92125 5.06500 t
2.92125 5.06500 2.92875 5.07250 t
2.92875 5.07250 2.92875 5.09500 t
2.92875 5.07250 2.93625 5.06500 t
2.93625 5.06500 2.94375 5.06500 t
2.94375 5.06500 2.95125 5.07250 t
2.95125 5.07250 2.95125 5.09500 t
2.89875 5.06500 2.90625 5.07250 t
0.00750 setlinewidth
2.96925 5.05000 2.96925 5.05150 t
0.00600 setlinewidth
2.96925 5.07250 2.96925 5.09500 t
2.98425 5.03500 2.98425 5.08750 t
2.98425 5.08750 2.99175 5.09500 t
3.04125 5.07250 3.04125 5.09500 t
3.04125 5.07250 3.04875 5.06500 t
3.04875 5.06500 3.06375 5.06500 t
3.03375 5.06500 3.04125 5.07250 t
3.08925 5.09500 3.11175 5.09500 t
3.08175 5.08750 3.08925 5.09500 t
3.08175 5.07250 3.08175 5.08750 t
3.08175 5.07250 3.08925 5.06500 t
3.08925 5.06500 3.10425 5.06500 t
3.10425 5.06500 3.11175 5.07250 t
3.08175 5.08000 3.11175 5.08000 t
3.11175 5.07250 3.11175 5.08000 t
3.13725 5.06500 3.15975 5.06500 t
3.12975 5.07250 3.13725 5.06500 t
3.12975 5.07250 3.12975 5.08750 t
3.12975 5.08750 3.13725 5.09500 t
3.13725 5.09500 3.15975 5.09500 t
3.18525 5.03500 3.18525 5.08750 t
3.18525 5.08750 3.19275 5.09500 t
3.17775 5.05750 3.19275 5.05750 t
3.23025 5.06500 3.23775 5.07250 t
3.21525 5.06500 3.23025 5.06500 t
3.20775 5.07250 3.21525 5.06500 t
3.20775 5.07250 3.20775 5.08750 t
3.20775 5.08750 3.21525 5.09500 t
3.23775 5.06500 3.23775 5.08750 t
3.23775 5.08750 3.24525 5.09500 t
3.21525 5.09500 3.23025 5.09500 t
3.23025 5.09500 3.23775 5.08750 t
3.27075 5.07250 3.27075 5.09500 t
3.27075 5.07250 3.27825 5.06500 t
3.27825 5.06500 3.28575 5.06500 t
3.28575 5.06500 3.29325 5.07250 t
3.29325 5.07250 3.29325 5.09500 t
3.26325 5.06500 3.27075 5.07250 t
3.33375 5.06500 3.34125 5.07250 t
3.31875 5.06500 3.33375 5.06500 t
3.31125 5.07250 3.31875 5.06500 t
3.31125 5.07250 3.31125 5.08750 t
3.31125 5.08750 3.31875 5.09500 t
3.31875 5.09500 3.33375 5.09500 t
3.33375 5.09500 3.34125 5.08750 t
3.31125 5.11000 3.31875 5.11750 t
3.31875 5.11750 3.33375 5.11750 t
3.33375 5.11750 3.34125 5.11000 t
3.34125 5.06500 3.34125 5.11000 t
3.35925 5.03500 3.35925 5.08750 t
3.35925 5.08750 3.36675 5.09500 t
3.38925 5.09500 3.41175 5.09500 t
3.38175 5.08750 3.38925 5.09500 t
3.38175 5.07250 3.38175 5.08750 t
3.38175 5.07250 3.38925 5.06500 t
3.38925 5.06500 3.40425 5.06500 t
3.40425 5.06500 3.41175 5.07250 t
3.38175 5.08000 3.41175 5.08000 t
3.41175 5.07250 3.41175 5.08000 t
3.45675 5.06500 3.48675 5.06500 t
3.53175 5.08750 3.53925 5.09500 t
3.53175 5.04250 3.53175 5.08750 t
3.53175 5.04250 3.53925 5.03500 t
3.53925 5.03500 3.55425 5.03500 t
3.55425 5.03500 3.56175 5.04250 t
3.56175 5.04250 3.56175 5.08750 t
3.55425 5.09500 3.56175 5.08750 t
3.53925 5.09500 3.55425 5.09500 t
3.53175 5.08000 3.56175 5.05000 t
3.57975 5.11000 3.59475 5.09500 t
3.61275 5.08750 3.62025 5.09500 t
3.61275 5.04250 3.61275 5.08750 t
3.61275 5.04250 3.62025 5.03500 t
3.62025 5.03500 3.63525 5.03500 t
3.63525 5.03500 3.64275 5.04250 t
3.64275 5.04250 3.64275 5.08750 t
3.63525 5.09500 3.64275 5.08750 t
3.62025 5.09500 3.63525 5.09500 t
3.61275 5.08000 3.64275 5.05000 t
3.69525 5.03500 3.69525 5.08750 t
3.69525 5.08750 3.70275 5.09500 t
3.68775 5.05750 3.70275 5.05750 t
3.71775 5.07250 3.71775 5.08750 t
3.71775 5.07250 3.72525 5.06500 t
3.72525 5.06500 3.74025 5.06500 t
3.74025 5.06500 3.74775 5.07250 t
3.74775 5.07250 3.74775 5.08750 t
3.74025 5.09500 3.74775 5.08750 t
3.72525 5.09500 3.74025 5.09500 t
3.71775 5.08750 3.72525 5.09500 t
3.81525 5.03500 3.82275 5.04250 t
3.80025 5.03500 3.81525 5.03500 t
3.79275 5.04250 3.80025 5.03500 t
3.79275 5.04250 3.79275 5.08750 t
3.79275 5.08750 3.80025 5.09500 t
3.81525 5.06200 3.82275 5.06950 t
3.79275 5.06200 3.81525 5.06200 t
3.80025 5.09500 3.81525 5.09500 t
3.81525 5.09500 3.82275 5.08750 t
3.82275 5.06950 3.82275 5.08750 t
3.84075 5.08750 3.84825 5.09500 t
3.84075 5.04250 3.84075 5.08750 t
3.84075 5.04250 3.84825 5.03500 t
3.84825 5.03500 3.86325 5.03500 t
3.86325 5.03500 3.87075 5.04250 t
3.87075 5.04250 3.87075 5.08750 t
3.86325 5.09500 3.87075 5.08750 t
3.84825 5.09500 3.86325 5.09500 t
3.84075 5.08000 3.87075 5.05000 t
3.88875 5.08750 3.89625 5.09500 t
3.88875 5.04250 3.88875 5.08750 t
3.88875 5.04250 3.89625 5.03500 t
3.89625 5.03500 3.91125 5.03500 t
3.91125 5.03500 3.91875 5.04250 t
3.91875 5.04250 3.91875 5.08750 t
3.91125 5.09500 3.91875 5.08750 t
3.89625 5.09500 3.91125 5.09500 t
3.88875 5.08000 3.91875 5.05000 t
3.93675 5.08750 3.94425 5.09500 t
3.93675 5.04250 3.93675 5.08750 t
3.93675 5.04250 3.94425 5.03500 t
3.94425 5.03500 3.95925 5.03500 t
3.95925 5.03500 3.96675 5.04250 t
3.96675 5.04250 3.96675 5.08750 t
3.95925 5.09500 3.96675 5.08750 t
3.94425 5.09500 3.95925 5.09500 t
3.93675 5.08000 3.96675 5.05000 t
3.98475 5.09500 3.99225 5.09500 t
4.01025 5.08750 4.01775 5.09500 t
4.01025 5.04250 4.01025 5.08750 t
4.01025 5.04250 4.01775 5.03500 t
4.01775 5.03500 4.03275 5.03500 t
4.03275 5.03500 4.04025 5.04250 t
4.04025 5.04250 4.04025 5.08750 t
4.03275 5.09500 4.04025 5.08750 t
4.01775 5.09500 4.03275 5.09500 t
4.01025 5.08000 4.04025 5.05000 t
4.05825 5.08750 4.06575 5.09500 t
4.05825 5.04250 4.05825 5.08750 t
4.05825 5.04250 4.06575 5.03500 t
4.06575 5.03500 4.08075 5.03500 t
4.08075 5.03500 4.08825 5.04250 t
4.08825 5.04250 4.08825 5.08750 t
4.08075 5.09500 4.08825 5.08750 t
4.06575 5.09500 4.08075 5.09500 t
4.05825 5.08000 4.08825 5.05000 t
4.10625 5.08750 4.11375 5.09500 t
4.10625 5.04250 4.10625 5.08750 t
4.10625 5.04250 4.11375 5.03500 t
4.11375 5.03500 4.12875 5.03500 t
4.12875 5.03500 4.13625 5.04250 t
4.13625 5.04250 4.13625 5.08750 t
4.12875 5.09500 4.13625 5.08750 t
4.11375 5.09500 4.12875 5.09500 t
4.10625 5.08000 4.13625 5.05000 t
4.15425 5.08750 4.16175 5.09500 t
4.15425 5.04250 4.15425 5.08750 t
4.15425 5.04250 4.16175 5.03500 t
4.16175 5.03500 4.17675 5.03500 t
4.17675 5.03500 4.18425 5.04250 t
4.18425 5.04250 4.18425 5.08750 t
4.17675 5.09500 4.18425 5.08750 t
4.16175 5.09500 4.17675 5.09500 t
4.15425 5.08000 4.18425 5.05000 t
4.20225 5.08750 4.20975 5.09500 t
4.20225 5.04250 4.20225 5.08750 t
4.20225 5.04250 4.20975 5.03500 t
4.20975 5.03500 4.22475 5.03500 t
4.22475 5.03500 4.23225 5.04250 t
4.23225 5.04250 4.23225 5.08750 t
4.22475 5.09500 4.23225 5.08750 t
4.20975 5.09500 4.22475 5.09500 t
4.20225 5.08000 4.23225 5.05000 t
4.25025 5.08750 4.25775 5.09500 t
4.25025 5.04250 4.25025 5.08750 t
4.25025 5.04250 4.25775 5.03500 t
4.25775 5.03500 4.27275 5.03500 t
4.27275 5.03500 4.28025 5.04250 t
4.28025 5.04250 4.28025 5.08750 t
4.27275 5.09500 4.28025 5.08750 t
4.25775 5.09500 4.27275 5.09500 t
4.25025 5.08000 4.28025 5.05000 t
4.29825 5.11000 4.31325 5.09500 t
4.33125 5.03500 4.36125 5.03500 t
4.33125 5.03500 4.33125 5.06500 t
4.33125 5.06500 4.33875 5.05750 t
4.33875 5.05750 4.35375 5.05750 t
4.35375 5.05750 4.36125 5.06500 t
4.36125 5.06500 4.36125 5.08750 t
4.35375 5.09500 4.36125 5.08750 t
4.33875 5.09500 4.35375 5.09500 t
4.33125 5.08750 4.33875 5.09500 t
4.37925 5.08750 4.38675 5.09500 t
4.37925 5.04250 4.37925 5.08750 t
4.37925 5.04250 4.38675 5.03500 t
4.38675 5.03500 4.40175 5.03500 t
4.40175 5.03500 4.40925 5.04250 t
4.40925 5.04250 4.40925 5.08750 t
4.40175 5.09500 4.40925 5.08750 t
4.38675 5.09500 4.40175 5.09500 t
4.37925 5.08000 4.40925 5.05000 t
4.42725 5.08750 4.43475 5.09500 t
4.42725 5.04250 4.42725 5.08750 t
4.42725 5.04250 4.43475 5.03500 t
4.43475 5.03500 4.44975 5.03500 t
4.44975 5.03500 4.45725 5.04250 t
4.45725 5.04250 4.45725 5.08750 t
4.44975 5.09500 4.45725 5.08750 t
4.43475 5.09500 4.44975 5.09500 t
4.42725 5.08000 4.45725 5.05000 t
4.47525 5.08750 4.48275 5.09500 t
4.47525 5.04250 4.47525 5.08750 t
4.47525 5.04250 4.48275 5.03500 t
4.48275 5.03500 4.49775 5.03500 t
4.49775 5.03500 4.50525 5.04250 t
4.50525 5.04250 4.50525 5.08750 t
4.49775 5.09500 4.50525 5.08750 t
4.48275 5.09500 4.49775 5.09500 t
4.47525 5.08000 4.50525 5.05000 t
4.52325 5.09500 4.53075 5.09500 t
4.54875 5.08750 4.55625 5.09500 t
4.54875 5.04250 4.54875 5.08750 t
4.54875 5.04250 4.55625 5.03500 t
4.55625 5.03500 4.57125 5.03500 t
4.57125 5.03500 4.57875 5.04250 t
4.57875 5.04250 4.57875 5.08750 t
4.57125 5.09500 4.57875 5.08750 t
4.55625 5.09500 4.57125 5.09500 t
4.54875 5.08000 4.57875 5.05000 t
4.59675 5.08750 4.60425 5.09500 t
4.59675 5.04250 4.59675 5.08750 t
4.59675 5.04250 4.60425 5.03500 t
4.60425 5.03500 4.61925 5.03500 t
4.61925 5.03500 4.62675 5.04250 t
4.62675 5.04250 4.62675 5.08750 t
4.61925 5.09500 4.62675 5.08750 t
4.60425 5.09500 4.61925 5.09500 t
4.59675 5.08000 4.62675 5.05000 t
4.64475 5.08750 4.65225 5.09500 t
4.64475 5.04250 4.64475 5.08750 t
4.64475 5.04250 4.65225 5.03500 t
4.65225 5.03500 4.66725 5.03500 t
4.66725 5.03500 4.67475 5.04250 t
4.67475 5.04250 4.67475 5.08750 t
4.66725 5.09500 4.67475 5.08750 t
4.65225 5.09500 4.66725 5.09500 t
4.64475 5.08000 4.67475 5.05000 t
4.69275 5.08750 4.70025 5.09500 t
4.69275 5.04250 4.69275 5.08750 t
4.69275 5.04250 4.70025 5.03500 t
4.70025 5.03500 4.71525 5.03500 t
4.71525 5.03500 4.72275 5.04250 t
4.72275 5.04250 4.72275 5.08750 t
4.71525 5.09500 4.72275 5.08750 t
4.70025 5.09500 4.71525 5.09500 t
4.69275 5.08000 4.72275 5.05000 t
4.74075 5.08750 4.74825 5.09500 t
4.74075 5.04250 4.74075 5.08750 t
4.74075 5.04250 4.74825 5.03500 t
4.74825 5.03500 4.76325 5.03500 t
4.76325 5.03500 4.77075 5.04250 t
4.77075 5.04250 4.77075 5.08750 t
4.76325 5.09500 4.77075 5.08750 t
4.74825 5.09500 4.76325 5.09500 t
4.74075 5.08000 4.77075 5.05000 t
4.78875 5.08750 4.79625 5.09500 t
4.78875 5.04250 4.78875 5.08750 t
4.78875 5.04250 4.79625 5.03500 t
4.79625 5.03500 4.81125 5.03500 t
4.81125 5.03500 4.81875 5.04250 t
4.81875 5.04250 4.81875 5.08750 t
4.81125 5.09500 4.81875 5.08750 t
4.79625 5.09500 4.81125 5.09500 t
4.78875 5.08000 4.81875 5.05000 t
4.87125 5.07250 4.87125 5.09500 t
4.87125 5.07250 4.87875 5.06500 t
4.87875 5.06500 4.88625 5.06500 t
4.88625 5.06500 4.89375 5.07250 t
4.89375 5.07250 4.89375 5.09500 t
4.89375 5.07250 4.90125 5.06500 t
4.90125 5.06500 4.90875 5.06500 t
4.90875 5.06500 4.91625 5.07250 t
4.91625 5.07250 4.91625 5.09500 t
4.86375 5.06500 4.87125 5.07250 t
0.00750 setlinewidth
4.93425 5.05000 4.93425 5.05150 t
0.00600 setlinewidth
4.93425 5.07250 4.93425 5.09500 t
4.94925 5.03500 4.94925 5.08750 t
4.94925 5.08750 4.95675 5.09500 t
4.97925 5.09500 5.00175 5.09500 t
5.00175 5.09500 5.00925 5.08750 t
5.00175 5.08000 5.00925 5.08750 t
4.97925 5.08000 5.00175 5.08000 t
4.97175 5.07250 4.97925 5.08000 t
4.97175 5.07250 4.97925 5.06500 t
4.97925 5.06500 5.00175 5.06500 t
5.00175 5.06500 5.00925 5.07250 t
4.97175 5.08750 4.97925 5.09500 t
2.00750 -0.28500 2.00750 -0.22500 t
2.02700 -0.28500 2.03750 -0.27450 t
2.03750 -0.27450 2.03750 -0.23550 t
2.02700 -0.22500 2.03750 -0.23550 t
2.00000 -0.22500 2.02700 -0.22500 t
2.00000 -0.28500 2.02700 -0.28500 t
2.07800 -0.25500 2.08550 -0.24750 t
2.06300 -0.25500 2.07800 -0.25500 t
2.05550 -0.24750 2.06300 -0.25500 t
2.05550 -0.24750 2.05550 -0.23250 t
2.05550 -0.23250 2.06300 -0.22500 t
2.08550 -0.25500 2.08550 -0.23250 t
2.08550 -0.23250 2.09300 -0.22500 t
2.06300 -0.22500 2.07800 -0.22500 t
2.07800 -0.22500 2.08550 -0.23250 t
2.11850 -0.28500 2.11850 -0.23250 t
2.11850 -0.23250 2.12600 -0.22500 t
2.11100 -0.26250 2.12600 -0.26250 t
2.14850 -0.22500 2.17100 -0.22500 t
2.14100 -0.23250 2.14850 -0.22500 t
2.14100 -0.24750 2.14100 -0.23250 t
2.14100 -0.24750 2.14850 -0.25500 t
2.14850 -0.25500 2.16350 -0.25500 t
2.16350 -0.25500 2.17100 -0.24750 t
2.14100 -0.24000 2.17100 -0.24000 t
2.17100 -0.24750 2.17100 -0.24000 t
2.18900 -0.26250 2.19650 -0.26250 t
2.18900 -0.24750 2.19650 -0.24750 t
2.24150 -0.28500 2.24150 -0.22500 t
2.24150 -0.28500 2.26400 -0.25500 t
2.26400 -0.25500 2.28650 -0.28500 t
2.28650 -0.28500 2.28650 -0.22500 t
2.30450 -0.24750 2.30450 -0.23250 t
2.30450 -0.24750 2.31200 -0.25500 t
2.31200 -0.25500 2.32700 -0.25500 t
2.32700 -0.25500 2.33450 -0.24750 t
2.33450 -0.24750 2.33450 -0.23250 t
2.32700 -0.22500 2.33450 -0.23250 t
2.31200 -0.22500 2.32700 -0.22500 t
2.30450 -0.23250 2.31200 -0.22500 t
2.36000 -0.24750 2.36000 -0.22500 t
2.36000 -0.24750 2.36750 -0.25500 t
2.36750 -0.25500 2.37500 -0.25500 t
2.37500 -0.25500 2.38250 -0.24750 t
2.38250 -0.24750 2.38250 -0.22500 t
2.35250 -0.25500 2.36000 -0.24750 t
2.42750 -0.27300 2.43950 -0.28500 t
2.43950 -0.28500 2.43950 -0.22500 t
2.42750 -0.22500 2.45000 -0.22500 t
2.46800 -0.23250 2.47550 -0.22500 t
2.46800 -0.24450 2.46800 -0.23250 t
2.46800 -0.24450 2.47850 -0.25500 t
2.47850 -0.25500 2.48750 -0.25500 t
2.48750 -0.25500 2.49800 -0.24450 t
2.49800 -0.24450 2.49800 -0.23250 t
2.49050 -0.22500 2.49800 -0.23250 t
2.47550 -0.22500 2.49050 -0.22500 t
2.46800 -0.26550 2.47850 -0.25500 t
2.46800 -0.27750 2.46800 -0.26550 t
2.46800 -0.27750 2.47550 -0.28500 t
2.47550 -0.28500 2.49050 -0.28500 t
2.49050 -0.28500 2.49800 -0.27750 t
2.49800 -0.27750 2.49800 -0.26550 t
2.48750 -0.25500 2.49800 -0.26550 t
2.54300 -0.28500 2.54300 -0.22500 t
2.54300 -0.28500 2.56550 -0.25500 t
2.56550 -0.25500 2.58800 -0.28500 t
2.58800 -0.28500 2.58800 -0.22500 t
2.62850 -0.25500 2.63600 -0.24750 t
2.61350 -0.25500 2.62850 -0.25500 t
2.60600 -0.24750 2.61350 -0.25500 t
2.60600 -0.24750 2.60600 -0.23250 t
2.60600 -0.23250 2.61350 -0.22500 t
2.63600 -0.25500 2.63600 -0.23250 t
2.63600 -0.23250 2.64350 -0.22500 t
2.61350 -0.22500 2.62850 -0.22500 t
2.62850 -0.22500 2.63600 -0.23250 t
2.66150 -0.25500 2.66150 -0.23250 t
2.66150 -0.23250 2.66900 -0.22500 t
2.69150 -0.25500 2.69150 -0.21000 t
2.68400 -0.20250 2.69150 -0.21000 t
2.66900 -0.20250 2.68400 -0.20250 t
2.66150 -0.21000 2.66900 -0.20250 t
2.66900 -0.22500 2.68400 -0.22500 t
2.68400 -0.22500 2.69150 -0.23250 t
2.73650 -0.27750 2.74400 -0.28500 t
2.74400 -0.28500 2.76650 -0.28500 t
2.76650 -0.28500 2.77400 -0.27750 t
2.77400 -0.27750 2.77400 -0.26250 t
2.73650 -0.22500 2.77400 -0.26250 t
2.73650 -0.22500 2.77400 -0.22500 t
2.79200 -0.23250 2.79950 -0.22500 t
2.79200 -0.27750 2.79200 -0.23250 t
2.79200 -0.27750 2.79950 -0.28500 t
2.79950 -0.28500 2.81450 -0.28500 t
2.81450 -0.28500 2.82200 -0.27750 t
2.82200 -0.27750 2.82200 -0.23250 t
2.81450 -0.22500 2.82200 -0.23250 t
2.79950 -0.22500 2.81450 -0.22500 t
2.79200 -0.24000 2.82200 -0.27000 t
2.84000 -0.27300 2.85200 -0.28500 t
2.85200 -0.28500 2.85200 -0.22500 t
2.84000 -0.22500 2.86250 -0.22500 t
2.88050 -0.28500 2.91050 -0.28500 t
2.88050 -0.28500 2.88050 -0.25500 t
2.88050 -0.25500 2.88800 -0.26250 t
2.88800 -0.26250 2.90300 -0.26250 t
2.90300 -0.26250 2.91050 -0.25500 t
2.91050 -0.25500 2.91050 -0.23250 t
2.90300 -0.22500 2.91050 -0.23250 t
2.88800 -0.22500 2.90300 -0.22500 t
2.88050 -0.23250 2.88800 -0.22500 t
2.95550 -0.23250 2.96300 -0.22500 t
2.95550 -0.27750 2.95550 -0.23250 t
2.95550 -0.27750 2.96300 -0.28500 t
2.96300 -0.28500 2.97800 -0.28500 t
2.97800 -0.28500 2.98550 -0.27750 t
2.98550 -0.27750 2.98550 -0.23250 t
2.97800 -0.22500 2.98550 -0.23250 t
2.96300 -0.22500 2.97800 -0.22500 t
2.95550 -0.24000 2.98550 -0.27000 t
3.02600 -0.28500 3.03350 -0.27750 t
3.01100 -0.28500 3.02600 -0.28500 t
3.00350 -0.27750 3.01100 -0.28500 t
3.00350 -0.27750 3.00350 -0.23250 t
3.00350 -0.23250 3.01100 -0.22500 t
3.02600 -0.25800 3.03350 -0.25050 t
3.00350 -0.25800 3.02600 -0.25800 t
3.01100 -0.22500 3.02600 -0.22500 t
3.02600 -0.22500 3.03350 -0.23250 t
3.03350 -0.25050 3.03350 -0.23250 t
3.05150 -0.26250 3.05900 -0.26250 t
3.05150 -0.24750 3.05900 -0.24750 t
3.07700 -0.24750 3.10700 -0.28500 t
3.07700 -0.24750 3.11450 -0.24750 t
3.10700 -0.28500 3.10700 -0.22500 t
3.13250 -0.28500 3.16250 -0.28500 t
3.13250 -0.28500 3.13250 -0.25500 t
3.13250 -0.25500 3.14000 -0.26250 t
3.14000 -0.26250 3.15500 -0.26250 t
3.15500 -0.26250 3.16250 -0.25500 t
3.16250 -0.25500 3.16250 -0.23250 t
3.15500 -0.22500 3.16250 -0.23250 t
3.14000 -0.22500 3.15500 -0.22500 t
3.13250 -0.23250 3.14000 -0.22500 t
3.18050 -0.26250 3.18800 -0.26250 t
3.18050 -0.24750 3.18800 -0.24750 t
3.20600 -0.27300 3.21800 -0.28500 t
3.21800 -0.28500 3.21800 -0.22500 t
3.20600 -0.22500 3.22850 -0.22500 t
3.24650 -0.27750 3.25400 -0.28500 t
3.25400 -0.28500 3.26900 -0.28500 t
3.26900 -0.28500 3.27650 -0.27750 t
3.26900 -0.22500 3.27650 -0.23250 t
3.25400 -0.22500 3.26900 -0.22500 t
3.24650 -0.23250 3.25400 -0.22500 t
3.25400 -0.25800 3.26900 -0.25800 t
3.27650 -0.27750 3.27650 -0.26550 t
3.27650 -0.25050 3.27650 -0.23250 t
3.27650 -0.25050 3.26900 -0.25800 t
3.27650 -0.26550 3.26900 -0.25800 t
3.32900 -0.28500 3.32900 -0.22500 t
3.32150 -0.28500 3.35150 -0.28500 t
3.35150 -0.28500 3.35900 -0.27750 t
3.35900 -0.27750 3.35900 -0.26250 t
3.35150 -0.25500 3.35900 -0.26250 t
3.32900 -0.25500 3.35150 -0.25500 t
3.37700 -0.28500 3.37700 -0.22500 t
3.37700 -0.28500 3.39950 -0.25500 t
3.39950 -0.25500 3.42200 -0.28500 t
3.42200 -0.28500 3.42200 -0.22500 t
3.49700 -0.28500 3.50450 -0.27750 t
3.47450 -0.28500 3.49700 -0.28500 t
3.46700 -0.27750 3.47450 -0.28500 t
3.46700 -0.27750 3.46700 -0.23250 t
3.46700 -0.23250 3.47450 -0.22500 t
3.47450 -0.22500 3.49700 -0.22500 t
3.49700 -0.22500 3.50450 -0.23250 t
3.50450 -0.24750 3.50450 -0.23250 t
3.49700 -0.25500 3.50450 -0.24750 t
3.48200 -0.25500 3.49700 -0.25500 t
3.52250 -0.28500 3.52250 -0.22500 t
3.52250 -0.28500 3.54500 -0.25500 t
3.54500 -0.25500 3.56750 -0.28500 t
3.56750 -0.28500 3.56750 -0.22500 t
3.58550 -0.28500 3.61550 -0.28500 t
3.60050 -0.28500 3.60050 -0.22500 t
3.66050 -0.28500 3.66050 -0.23250 t
3.66050 -0.23250 3.66800 -0.22500 t
3.66800 -0.22500 3.68300 -0.22500 t
3.68300 -0.22500 3.69050 -0.23250 t
3.69050 -0.28500 3.69050 -0.23250 t
3.70850 -0.28500 3.73850 -0.28500 t
3.72350 -0.28500 3.72350 -0.22500 t
3.76700 -0.22500 3.78650 -0.22500 t
3.75650 -0.23550 3.76700 -0.22500 t
3.75650 -0.27450 3.75650 -0.23550 t
3.75650 -0.27450 3.76700 -0.28500 t
3.76700 -0.28500 3.78650 -0.28500 t
2.00000 -0.42000 2.00000 -0.37500 t
2.00000 -0.42000 2.01050 -0.43500 t
2.01050 -0.43500 2.02700 -0.43500 t
2.02700 -0.43500 2.03750 -0.42000 t
2.03750 -0.42000 2.03750 -0.37500 t
2.00000 -0.40500 2.03750 -0.40500 t
2.05550 -0.40500 2.05550 -0.38250 t
2.05550 -0.38250 2.06300 -0.37500 t
2.06300 -0.37500 2.07800 -0.37500 t
2.07800 -0.37500 2.08550 -0.38250 t
2.08550 -0.40500 2.08550 -0.38250 t
2.11100 -0.43500 2.11100 -0.38250 t
2.11100 -0.38250 2.11850 -0.37500 t
2.10350 -0.41250 2.11850 -0.41250 t
2.13350 -0.43500 2.13350 -0.37500 t
2.13350 -0.39750 2.14100 -0.40500 t
2.14100 -0.40500 2.15600 -0.40500 t
2.15600 -0.40500 2.16350 -0.39750 t
2.16350 -0.39750 2.16350 -0.37500 t
2.18150 -0.39750 2.18150 -0.38250 t
2.18150 -0.39750 2.18900 -0.40500 t
2.18900 -0.40500 2.20400 -0.40500 t
2.20400 -0.40500 2.21150 -0.39750 t
2.21150 -0.39750 2.21150 -0.38250 t
2.20400 -0.37500 2.21150 -0.38250 t
2.18900 -0.37500 2.20400 -0.37500 t
2.18150 -0.38250 2.18900 -0.37500 t
2.23700 -0.39750 2.23700 -0.37500 t
2.23700 -0.39750 2.24450 -0.40500 t
2.24450 -0.40500 2.25950 -0.40500 t
2.22950 -0.40500 2.23700 -0.39750 t
2.27750 -0.41250 2.28500 -0.41250 t
2.27750 -0.39750 2.28500 -0.39750 t
2.34050 -0.43500 2.35250 -0.43500 t
2.35250 -0.43500 2.35250 -0.38250 t
2.34500 -0.37500 2.35250 -0.38250 t
2.33750 -0.37500 2.34500 -0.37500 t
2.33000 -0.38250 2.33750 -0.37500 t
2.33000 -0.39000 2.33000 -0.38250 t
2.37050 -0.39750 2.37050 -0.38250 t
2.37050 -0.39750 2.37800 -0.40500 t
2.37800 -0.40500 2.39300 -0.40500 t
2.39300 -0.40500 2.40050 -0.39750 t
2.40050 -0.39750 2.40050 -0.38250 t
2.39300 -0.37500 2.40050 -0.38250 t
2.37800 -0.37500 2.39300 -0.37500 t
2.37050 -0.38250 2.37800 -0.37500 t
2.41850 -0.43500 2.41850 -0.37500 t
2.41850 -0.39750 2.42600 -0.40500 t
2.42600 -0.40500 2.44100 -0.40500 t
2.44100 -0.40500 2.44850 -0.39750 t
2.44850 -0.39750 2.44850 -0.37500 t
2.47400 -0.39750 2.47400 -0.37500 t
2.47400 -0.39750 2.48150 -0.40500 t
2.48150 -0.40500 2.48900 -0.40500 t
2.48900 -0.40500 2.49650 -0.39750 t
2.49650 -0.39750 2.49650 -0.37500 t
2.46650 -0.40500 2.47400 -0.39750 t
2.55200 -0.43500 2.56400 -0.43500 t
2.56400 -0.43500 2.56400 -0.38250 t
2.55650 -0.37500 2.56400 -0.38250 t
2.54900 -0.37500 2.55650 -0.37500 t
2.54150 -0.38250 2.54900 -0.37500 t
2.54150 -0.39000 2.54150 -0.38250 t
2.58200 -0.37500 2.58950 -0.37500 t
2.63450 -0.43500 2.63450 -0.37500 t
2.63450 -0.43500 2.65700 -0.40500 t
2.65700 -0.40500 2.67950 -0.43500 t
2.67950 -0.43500 2.67950 -0.37500 t
2.70500 -0.40500 2.72750 -0.40500 t
2.69750 -0.39750 2.70500 -0.40500 t
2.69750 -0.39750 2.69750 -0.38250 t
2.69750 -0.38250 2.70500 -0.37500 t
2.70500 -0.37500 2.72750 -0.37500 t
2.75300 -0.43500 2.75300 -0.37500 t
2.77250 -0.43500 2.78300 -0.42450 t
2.78300 -0.42450 2.78300 -0.38550 t
2.77250 -0.37500 2.78300 -0.38550 t
2.74550 -0.37500 2.77250 -0.37500 t
2.74550 -0.43500 2.77250 -0.43500 t
2.80100 -0.39750 2.80100 -0.38250 t
2.80100 -0.39750 2.80850 -0.40500 t
2.80850 -0.40500 2.82350 -0.40500 t
2.82350 -0.40500 2.83100 -0.39750 t
2.83100 -0.39750 2.83100 -0.38250 t
2.82350 -0.37500 2.83100 -0.38250 t
2.80850 -0.37500 2.82350 -0.37500 t
2.80100 -0.38250 2.80850 -0.37500 t
2.85650 -0.39750 2.85650 -0.37500 t
2.85650 -0.39750 2.86400 -0.40500 t
2.86400 -0.40500 2.87150 -0.40500 t
2.87150 -0.40500 2.87900 -0.39750 t
2.87900 -0.39750 2.87900 -0.37500 t
2.84900 -0.40500 2.85650 -0.39750 t
2.89700 -0.39750 2.89700 -0.38250 t
2.89700 -0.39750 2.90450 -0.40500 t
2.90450 -0.40500 2.91950 -0.40500 t
2.91950 -0.40500 2.92700 -0.39750 t
2.92700 -0.39750 2.92700 -0.38250 t
2.91950 -0.37500 2.92700 -0.38250 t
2.90450 -0.37500 2.91950 -0.37500 t
2.89700 -0.38250 2.90450 -0.37500 t
2.94500 -0.40500 2.94500 -0.38250 t
2.94500 -0.38250 2.95250 -0.37500 t
2.95250 -0.37500 2.96750 -0.37500 t
2.96750 -0.37500 2.97500 -0.38250 t
2.97500 -0.40500 2.97500 -0.38250 t
3.01550 -0.40500 3.02300 -0.39750 t
3.00050 -0.40500 3.01550 -0.40500 t
2.99300 -0.39750 3.00050 -0.40500 t
2.99300 -0.39750 2.99300 -0.38250 t
2.99300 -0.38250 3.00050 -0.37500 t
3.00050 -0.37500 3.01550 -0.37500 t
3.01550 -0.37500 3.02300 -0.38250 t
2.99300 -0.36000 3.00050 -0.35250 t
3.00050 -0.35250 3.01550 -0.35250 t
3.01550 -0.35250 3.02300 -0.36000 t
3.02300 -0.40500 3.02300 -0.36000 t
3.04100 -0.43500 3.04100 -0.37500 t
3.04100 -0.39750 3.04850 -0.40500 t
3.04850 -0.40500 3.06350 -0.40500 t
3.06350 -0.40500 3.07100 -0.39750 t
3.07100 -0.39750 3.07100 -0.37500 t
2.00000 -0.58500 2.03000 -0.58500 t
2.01500 -0.58500 2.01500 -0.52500 t
0.00750 setlinewidth
2.04800 -0.57000 2.04800 -0.56850 t
0.00600 setlinewidth
2.04800 -0.54750 2.04800 -0.52500 t
2.07050 -0.58500 2.07050 -0.53250 t
2.07050 -0.53250 2.07800 -0.52500 t
2.06300 -0.56250 2.07800 -0.56250 t
2.09300 -0.58500 2.09300 -0.53250 t
2.09300 -0.53250 2.10050 -0.52500 t
2.12300 -0.52500 2.14550 -0.52500 t
2.11550 -0.53250 2.12300 -0.52500 t
2.11550 -0.54750 2.11550 -0.53250 t
2.11550 -0.54750 2.12300 -0.55500 t
2.12300 -0.55500 2.13800 -0.55500 t
2.13800 -0.55500 2.14550 -0.54750 t
2.11550 -0.54000 2.14550 -0.54000 t
2.14550 -0.54750 2.14550 -0.54000 t
2.16350 -0.56250 2.17100 -0.56250 t
2.16350 -0.54750 2.17100 -0.54750 t
2.21600 -0.53250 2.22350 -0.52500 t
2.21600 -0.57750 2.22350 -0.58500 t
2.21600 -0.57750 2.21600 -0.53250 t
2.24150 -0.55500 2.24150 -0.53250 t
2.24150 -0.53250 2.24900 -0.52500 t
2.24900 -0.52500 2.26400 -0.52500 t
2.26400 -0.52500 2.27150 -0.53250 t
2.27150 -0.55500 2.27150 -0.53250 t
2.29700 -0.54750 2.29700 -0.52500 t
2.29700 -0.54750 2.30450 -0.55500 t
2.30450 -0.55500 2.31200 -0.55500 t
2.31200 -0.55500 2.31950 -0.54750 t
2.31950 -0.54750 2.31950 -0.52500 t
2.28950 -0.55500 2.29700 -0.54750 t
2.33750 -0.58500 2.33750 -0.52500 t
2.33750 -0.54750 2.36000 -0.52500 t
2.33750 -0.54750 2.35250 -0.56250 t
2.38550 -0.54750 2.38550 -0.52500 t
2.38550 -0.54750 2.39300 -0.55500 t
2.39300 -0.55500 2.40050 -0.55500 t
2.40050 -0.55500 2.40800 -0.54750 t
2.40800 -0.54750 2.40800 -0.52500 t
2.37800 -0.55500 2.38550 -0.54750 t
2.42600 -0.54750 2.42600 -0.53250 t
2.42600 -0.54750 2.43350 -0.55500 t
2.43350 -0.55500 2.44850 -0.55500 t
2.44850 -0.55500 2.45600 -0.54750 t
2.45600 -0.54750 2.45600 -0.53250 t
2.44850 -0.52500 2.45600 -0.53250 t
2.43350 -0.52500 2.44850 -0.52500 t
2.42600 -0.53250 2.43350 -0.52500 t
2.47400 -0.55500 2.47400 -0.53250 t
2.47400 -0.53250 2.48150 -0.52500 t
2.48150 -0.52500 2.48900 -0.52500 t
2.48900 -0.52500 2.49650 -0.53250 t
2.49650 -0.55500 2.49650 -0.53250 t
2.49650 -0.53250 2.50400 -0.52500 t
2.50400 -0.52500 2.51150 -0.52500 t
2.51150 -0.52500 2.51900 -0.53250 t
2.51900 -0.55500 2.51900 -0.53250 t
2.54450 -0.54750 2.54450 -0.52500 t
2.54450 -0.54750 2.55200 -0.55500 t
2.55200 -0.55500 2.55950 -0.55500 t
2.55950 -0.55500 2.56700 -0.54750 t
2.56700 -0.54750 2.56700 -0.52500 t
2.53700 -0.55500 2.54450 -0.54750 t
2.58500 -0.58500 2.59250 -0.57750 t
2.59250 -0.57750 2.59250 -0.53250 t
2.58500 -0.52500 2.59250 -0.53250 t
2.63750 -0.55500 2.66750 -0.55500 t
2.71250 -0.58500 2.71250 -0.52500 t
2.71250 -0.58500 2.74250 -0.58500 t
2.71250 -0.55800 2.73500 -0.55800 t
2.78300 -0.55500 2.79050 -0.54750 t
2.76800 -0.55500 2.78300 -0.55500 t
2.76050 -0.54750 2.76800 -0.55500 t
2.76050 -0.54750 2.76050 -0.53250 t
2.76050 -0.53250 2.76800 -0.52500 t
2.79050 -0.55500 2.79050 -0.53250 t
2.79050 -0.53250 2.79800 -0.52500 t
2.76800 -0.52500 2.78300 -0.52500 t
2.78300 -0.52500 2.79050 -0.53250 t
2.81600 -0.58500 2.81600 -0.52500 t
2.81600 -0.53250 2.82350 -0.52500 t
2.82350 -0.52500 2.83850 -0.52500 t
2.83850 -0.52500 2.84600 -0.53250 t
2.84600 -0.54750 2.84600 -0.53250 t
2.83850 -0.55500 2.84600 -0.54750 t
2.82350 -0.55500 2.83850 -0.55500 t
2.81600 -0.54750 2.82350 -0.55500 t
2.87150 -0.54750 2.87150 -0.52500 t
2.87150 -0.54750 2.87900 -0.55500 t
2.87900 -0.55500 2.89400 -0.55500 t
2.86400 -0.55500 2.87150 -0.54750 t
0.00750 setlinewidth
2.91200 -0.57000 2.91200 -0.56850 t
0.00600 setlinewidth
2.91200 -0.54750 2.91200 -0.52500 t
2.93450 -0.55500 2.95700 -0.55500 t
2.92700 -0.54750 2.93450 -0.55500 t
2.92700 -0.54750 2.92700 -0.53250 t
2.92700 -0.53250 2.93450 -0.52500 t
2.93450 -0.52500 2.95700 -0.52500 t
2.99750 -0.55500 3.00500 -0.54750 t
2.98250 -0.55500 2.99750 -0.55500 t
2.97500 -0.54750 2.98250 -0.55500 t
2.97500 -0.54750 2.97500 -0.53250 t
2.97500 -0.53250 2.98250 -0.52500 t
3.00500 -0.55500 3.00500 -0.53250 t
3.00500 -0.53250 3.01250 -0.52500 t
2.98250 -0.52500 2.99750 -0.52500 t
2.99750 -0.52500 3.00500 -0.53250 t
3.03800 -0.58500 3.03800 -0.53250 t
3.03800 -0.53250 3.04550 -0.52500 t
3.03050 -0.56250 3.04550 -0.56250 t
0.00750 setlinewidth
3.06050 -0.57000 3.06050 -0.56850 t
0.00600 setlinewidth
3.06050 -0.54750 3.06050 -0.52500 t
3.07550 -0.54750 3.07550 -0.53250 t
3.07550 -0.54750 3.08300 -0.55500 t
3.08300 -0.55500 3.09800 -0.55500 t
3.09800 -0.55500 3.10550 -0.54750 t
3.10550 -0.54750 3.10550 -0.53250 t
3.09800 -0.52500 3.10550 -0.53250 t
3.08300 -0.52500 3.09800 -0.52500 t
3.07550 -0.53250 3.08300 -0.52500 t
3.13100 -0.54750 3.13100 -0.52500 t
3.13100 -0.54750 3.13850 -0.55500 t
3.13850 -0.55500 3.14600 -0.55500 t
3.14600 -0.55500 3.15350 -0.54750 t
3.15350 -0.54750 3.15350 -0.52500 t
3.12350 -0.55500 3.13100 -0.54750 t
3.20600 -0.58500 3.20600 -0.52500 t
3.22550 -0.58500 3.23600 -0.57450 t
3.23600 -0.57450 3.23600 -0.53550 t
3.22550 -0.52500 3.23600 -0.53550 t
3.19850 -0.52500 3.22550 -0.52500 t
3.19850 -0.58500 3.22550 -0.58500 t
3.26150 -0.54750 3.26150 -0.52500 t
3.26150 -0.54750 3.26900 -0.55500 t
3.26900 -0.55500 3.28400 -0.55500 t
3.25400 -0.55500 3.26150 -0.54750 t
3.32450 -0.55500 3.33200 -0.54750 t
3.30950 -0.55500 3.32450 -0.55500 t
3.30200 -0.54750 3.30950 -0.55500 t
3.30200 -0.54750 3.30200 -0.53250 t
3.30200 -0.53250 3.30950 -0.52500 t
3.33200 -0.55500 3.33200 -0.53250 t
3.33200 -0.53250 3.33950 -0.52500 t
3.30950 -0.52500 3.32450 -0.52500 t
3.32450 -0.52500 3.33200 -0.53250 t
3.35750 -0.55500 3.35750 -0.53250 t
3.35750 -0.53250 3.36500 -0.52500 t
3.36500 -0.52500 3.37250 -0.52500 t
3.37250 -0.52500 3.38000 -0.53250 t
3.38000 -0.55500 3.38000 -0.53250 t
3.38000 -0.53250 3.38750 -0.52500 t
3.38750 -0.52500 3.39500 -0.52500 t
3.39500 -0.52500 3.40250 -0.53250 t
3.40250 -0.55500 3.40250 -0.53250 t
0.00750 setlinewidth
3.42050 -0.57000 3.42050 -0.56850 t
0.00600 setlinewidth
3.42050 -0.54750 3.42050 -0.52500 t
3.44300 -0.54750 3.44300 -0.52500 t
3.44300 -0.54750 3.45050 -0.55500 t
3.45050 -0.55500 3.45800 -0.55500 t
3.45800 -0.55500 3.46550 -0.54750 t
3.46550 -0.54750 3.46550 -0.52500 t
3.43550 -0.55500 3.44300 -0.54750 t
3.50600 -0.55500 3.51350 -0.54750 t
3.49100 -0.55500 3.50600 -0.55500 t
3.48350 -0.54750 3.49100 -0.55500 t
3.48350 -0.54750 3.48350 -0.53250 t
3.48350 -0.53250 3.49100 -0.52500 t
3.49100 -0.52500 3.50600 -0.52500 t
3.50600 -0.52500 3.51350 -0.53250 t
3.48350 -0.51000 3.49100 -0.50250 t
3.49100 -0.50250 3.50600 -0.50250 t
3.50600 -0.50250 3.51350 -0.51000 t
3.51350 -0.55500 3.51350 -0.51000 t
showpage
%%Trailer
%%Pages: 11
%%EOF
