v 20130925 2
B 2700 300 400 400 3 0 0 0 -1 -1 0 -1 -1 -1 -1 -1
B 2700 700 400 400 3 0 0 0 -1 -1 0 -1 -1 -1 -1 -1
B 3100 700 400 400 3 0 0 0 -1 -1 0 -1 -1 -1 -1 -1
B 3100 300 400 400 3 0 0 0 -1 -1 0 -1 -1 -1 -1 -1
B 3500 700 400 400 3 0 0 0 -1 -1 0 -1 -1 -1 -1 -1
B 3500 300 400 400 3 0 0 0 -1 -1 0 -1 -1 -1 -1 -1
B 3900 300 400 400 3 0 0 0 -1 -1 0 -1 -1 -1 -1 -1
B 3900 700 400 400 3 0 0 0 -1 -1 0 -1 -1 -1 -1 -1
B 4300 700 400 400 3 0 0 0 -1 -1 0 -1 -1 -1 -1 -1
B 4300 300 400 400 3 0 0 0 -1 -1 0 -1 -1 -1 -1 -1
B 4700 700 400 400 3 0 0 0 -1 -1 0 -1 -1 -1 -1 -1
B 4700 300 400 400 3 0 0 0 -1 -1 0 -1 -1 -1 -1 -1
B 5100 300 400 400 3 0 0 0 -1 -1 0 -1 -1 -1 -1 -1
B 5100 700 400 400 3 0 0 0 -1 -1 0 -1 -1 -1 -1 -1
B 5500 700 400 400 3 0 0 0 -1 -1 0 -1 -1 -1 -1 -1
B 5500 300 400 400 3 0 0 0 -1 -1 0 -1 -1 -1 -1 -1
B 5900 700 400 400 3 0 0 0 -1 -1 0 -1 -1 -1 -1 -1
B 5900 300 400 400 3 0 0 0 -1 -1 0 -1 -1 -1 -1 -1
B 6300 300 400 400 3 0 0 0 -1 -1 0 -1 -1 -1 -1 -1
B 6300 700 400 400 3 0 0 0 -1 -1 0 -1 -1 -1 -1 -1
B 6700 700 400 400 3 0 0 0 -1 -1 0 -1 -1 -1 -1 -1
B 6700 300 400 400 3 0 0 0 -1 -1 0 -1 -1 -1 -1 -1
B 7100 700 400 400 3 0 0 0 -1 -1 0 -1 -1 -1 -1 -1
B 7100 300 400 400 3 0 0 0 -1 -1 0 -1 -1 -1 -1 -1
B 300 300 400 400 3 0 0 0 -1 -1 0 -1 -1 -1 -1 -1
B 300 700 400 400 3 0 0 0 -1 -1 0 -1 -1 -1 -1 -1
B 700 700 400 400 3 0 0 0 -1 -1 0 -1 -1 -1 -1 -1
B 700 300 400 400 3 0 0 0 -1 -1 0 -1 -1 -1 -1 -1
B 1100 700 400 400 3 0 0 0 -1 -1 0 -1 -1 -1 -1 -1
B 1100 300 400 400 3 0 0 0 -1 -1 0 -1 -1 -1 -1 -1
B 1500 300 400 400 3 0 0 0 -1 -1 0 -1 -1 -1 -1 -1
B 1500 700 400 400 3 0 0 0 -1 -1 0 -1 -1 -1 -1 -1
B 1900 700 400 400 3 0 0 0 -1 -1 0 -1 -1 -1 -1 -1
B 1900 300 400 400 3 0 0 0 -1 -1 0 -1 -1 -1 -1 -1
B 2300 700 400 400 3 0 0 0 -1 -1 0 -1 -1 -1 -1 -1
B 2300 300 400 400 3 0 0 0 -1 -1 0 -1 -1 -1 -1 -1
P 7300 1400 7300 1100 1 0 0
{
T 7300 1400 5 10 0 0 0 0 1
pintype=pas
T 7155 1000 5 10 1 1 180 6 1
pinlabel=5V0
T 7250 1195 5 10 0 1 90 0 1
pinnumber=20
T 7300 1400 5 10 0 0 0 0 1
pinseq=0
}
P 7300 0 7300 300 1 0 0
{
T 7300 0 5 10 0 0 0 0 1
pintype=pas
T 7445 600 5 10 1 1 180 0 1
pinlabel=5V0
T 7250 205 5 10 0 1 90 6 1
pinnumber=21
T 7300 0 5 10 0 0 0 0 1
pinseq=2
}
P 6900 1400 6900 1100 1 0 0
{
T 6900 1400 5 10 0 0 0 0 1
pintype=unknown
T 6755 1000 5 10 1 1 180 6 1
pinlabel=22
T 6850 1195 5 10 0 1 90 0 1
pinnumber=22
T 6900 1400 5 10 0 0 0 0 1
pinseq=3
}
P 6900 0 6900 300 1 0 0
{
T 6900 0 5 10 0 0 0 0 1
pintype=pas
T 6945 600 5 10 1 1 180 0 1
pinlabel=23
T 6850 205 5 10 0 1 90 6 1
pinnumber=23
T 6900 0 5 10 0 0 0 0 1
pinseq=4
}
P 6500 1400 6500 1100 1 0 0
{
T 6500 1400 5 10 0 0 0 0 1
pintype=pas
T 6355 1000 5 10 1 1 180 6 1
pinlabel=24
T 6450 1195 5 10 0 1 90 0 1
pinnumber=24
T 6500 1400 5 10 0 0 0 0 1
pinseq=5
}
P 6500 0 6500 300 1 0 0
{
T 6500 0 5 10 0 0 0 0 1
pintype=pas
T 6545 600 5 10 1 1 180 0 1
pinlabel=25
T 6450 205 5 10 0 1 90 6 1
pinnumber=25
T 6500 0 5 10 0 0 0 0 1
pinseq=6
}
P 6100 1400 6100 1100 1 0 0
{
T 6100 1400 5 10 0 0 0 0 1
pintype=pas
T 5955 1000 5 10 1 1 180 6 1
pinlabel=26
T 6050 1195 5 10 0 1 90 0 1
pinnumber=26
T 6100 1400 5 10 0 0 0 0 1
pinseq=7
}
P 6100 0 6100 300 1 0 0
{
T 6100 0 5 10 0 0 0 0 1
pintype=pas
T 6145 600 5 10 1 1 180 0 1
pinlabel=27
T 6050 205 5 10 0 1 90 6 1
pinnumber=27
T 6100 0 5 10 0 0 0 0 1
pinseq=8
}
P 500 1400 500 1100 1 0 0
{
T 500 1400 5 10 0 0 0 0 1
pintype=pas
T 326 993 5 10 1 1 180 6 1
pinlabel=Gnd
T 450 1195 5 10 0 1 90 0 1
pinnumber=54
T 500 1400 5 10 0 0 0 0 1
pinseq=17
}
P 500 0 500 300 1 0 0
{
T 500 0 5 10 0 0 0 0 1
pintype=pas
T 671 601 5 10 1 1 180 0 1
pinlabel=Gnd
T 450 205 5 10 0 1 90 6 1
pinnumber=55
T 500 0 5 10 0 0 0 0 1
pinseq=18
}
P 5700 1400 5700 1100 1 0 0
{
T 5700 1400 5 10 0 0 0 0 1
pintype=pas
T 5555 1000 5 10 1 1 180 6 1
pinlabel=28
T 5650 1195 5 10 0 1 90 0 1
pinnumber=28
T 5700 1400 5 10 0 0 0 0 1
pinseq=9
}
P 5700 0 5700 300 1 0 0
{
T 5700 0 5 10 0 0 0 0 1
pintype=pas
T 5745 600 5 10 1 1 180 0 1
pinlabel=29
T 5650 205 5 10 0 1 90 6 1
pinnumber=29
T 5700 0 5 10 0 0 0 0 1
pinseq=10
}
P 5300 1400 5300 1100 1 0 0
{
T 5300 1400 5 10 0 0 0 0 1
pintype=pas
T 5155 1000 5 10 1 1 180 6 1
pinlabel=30
T 5250 1195 5 10 0 1 90 0 1
pinnumber=30
T 5300 1400 5 10 0 0 0 0 1
pinseq=11
}
P 5300 0 5300 300 1 0 0
{
T 5300 0 5 10 0 0 0 0 1
pintype=pas
T 5345 600 5 10 1 1 180 0 1
pinlabel=31
T 5250 205 5 10 0 1 90 6 1
pinnumber=31
T 5300 0 5 10 0 0 0 0 1
pinseq=12
}
P 4900 1400 4900 1100 1 0 0
{
T 4900 1400 5 10 0 0 0 0 1
pintype=pas
T 4755 1000 5 10 1 1 180 6 1
pinlabel=32
T 4850 1195 5 10 0 1 90 0 1
pinnumber=32
T 4900 1400 5 10 0 0 0 0 1
pinseq=13
}
P 4900 0 4900 300 1 0 0
{
T 4900 0 5 10 0 0 0 0 1
pintype=pas
T 4945 600 5 10 1 1 180 0 1
pinlabel=33
T 4850 205 5 10 0 1 90 6 1
pinnumber=33
T 4900 0 5 10 0 0 0 0 1
pinseq=14
}
P 4500 1400 4500 1100 1 0 0
{
T 4500 1400 5 10 0 0 0 0 1
pintype=pas
T 4355 1000 5 10 1 1 180 6 1
pinlabel=34
T 4450 1195 5 10 0 1 90 0 1
pinnumber=34
T 4500 1400 5 10 0 0 0 0 1
pinseq=15
}
P 4500 0 4500 300 1 0 0
{
T 4500 0 5 10 0 0 0 0 1
pintype=pas
T 4545 600 5 10 1 1 180 0 1
pinlabel=35
T 4450 205 5 10 0 1 90 6 1
pinnumber=35
T 4500 0 5 10 0 0 0 0 1
pinseq=16
}
P 4100 1400 4100 1100 1 0 0
{
T 4100 1400 5 10 0 0 0 0 1
pintype=pas
T 3955 1000 5 10 1 1 180 6 1
pinlabel=36
T 4050 1195 5 10 0 1 90 0 1
pinnumber=36
T 4100 1400 5 10 0 0 0 0 1
pinseq=17
}
P 4100 0 4100 300 1 0 0
{
T 4100 0 5 10 0 0 0 0 1
pintype=pas
T 4145 600 5 10 1 1 180 0 1
pinlabel=37
T 4050 205 5 10 0 1 90 6 1
pinnumber=37
T 4100 0 5 10 0 0 0 0 1
pinseq=18
}
P 3700 1400 3700 1100 1 0 0
{
T 3700 1400 5 10 0 0 0 0 1
pintype=pas
T 3555 1000 5 10 1 1 180 6 1
pinlabel=38
T 3650 1195 5 10 0 1 90 0 1
pinnumber=38
T 3700 1400 5 10 0 0 0 0 1
pinseq=19
}
P 3700 0 3700 300 1 0 0
{
T 3700 0 5 10 0 0 0 0 1
pintype=pas
T 3745 600 5 10 1 1 180 0 1
pinlabel=39
T 3650 205 5 10 0 1 90 6 1
pinnumber=39
T 3700 0 5 10 0 0 0 0 1
pinseq=20
}
P 3300 1400 3300 1100 1 0 0
{
T 3300 1400 5 10 0 0 0 0 1
pintype=pas
T 3155 1000 5 10 1 1 180 6 1
pinlabel=40
T 3250 1195 5 10 0 1 90 0 1
pinnumber=40
T 3300 1400 5 10 0 0 0 0 1
pinseq=21
}
P 3300 0 3300 300 1 0 0
{
T 3300 0 5 10 0 0 0 0 1
pintype=pas
T 3345 600 5 10 1 1 180 0 1
pinlabel=41
T 3250 205 5 10 0 1 90 6 1
pinnumber=41
T 3300 0 5 10 0 0 0 0 1
pinseq=22
}
P 2900 1400 2900 1100 1 0 0
{
T 2900 1400 5 10 0 0 0 0 1
pintype=pas
T 2755 1000 5 10 1 1 180 6 1
pinlabel=42
T 2850 1195 5 10 0 1 90 0 1
pinnumber=42
T 2900 1400 5 10 0 0 0 0 1
pinseq=23
}
P 2500 1400 2500 1100 1 0 0
{
T 2500 1400 5 10 0 0 0 0 1
pintype=pas
T 2355 1000 5 10 1 1 180 6 1
pinlabel=44
T 2450 1195 5 10 0 1 90 0 1
pinnumber=44
T 2500 1400 5 10 0 0 0 0 1
pinseq=24
}
P 2100 1400 2100 1100 1 0 0
{
T 2100 1400 5 10 0 0 0 0 1
pintype=pas
T 1955 1000 5 10 1 1 180 6 1
pinlabel=46
T 2050 1195 5 10 0 1 90 0 1
pinnumber=46
T 2100 1400 5 10 0 0 0 0 1
pinseq=28
}
P 1700 1400 1700 1100 1 0 0
{
T 1700 1400 5 10 0 0 0 0 1
pintype=pas
T 1555 1000 5 10 1 1 180 6 1
pinlabel=48
T 1650 1195 5 10 0 1 90 0 1
pinnumber=48
T 1700 1400 5 10 0 0 0 0 1
pinseq=29
}
P 2900 0 2900 300 1 0 0
{
T 2900 0 5 10 0 0 0 0 1
pintype=pas
T 2945 600 5 10 1 1 180 0 1
pinlabel=43
T 2850 205 5 10 0 1 90 6 1
pinnumber=43
T 2900 0 5 10 0 0 0 0 1
pinseq=24
}
P 2500 0 2500 300 1 0 0
{
T 2500 0 5 10 0 0 0 0 1
pintype=pas
T 2545 600 5 10 1 1 180 0 1
pinlabel=45
T 2450 205 5 10 0 1 90 6 1
pinnumber=45
T 2500 0 5 10 0 0 0 0 1
pinseq=26
}
P 2100 0 2100 300 1 0 0
{
T 2100 0 5 10 0 0 0 0 1
pintype=pas
T 2145 600 5 10 1 1 180 0 1
pinlabel=47
T 2050 205 5 10 0 1 90 6 1
pinnumber=47
T 2100 0 5 10 0 0 0 0 1
pinseq=28
}
P 1700 0 1700 300 1 0 0
{
T 1700 0 5 10 0 0 0 0 1
pintype=pas
T 1745 600 5 10 1 1 180 0 1
pinlabel=49
T 1650 205 5 10 0 1 90 6 1
pinnumber=49
T 1700 0 5 10 0 0 0 0 1
pinseq=30
}
P 1300 1400 1300 1100 1 0 0
{
T 1300 1400 5 10 0 0 0 0 1
pintype=pas
T 1155 1000 5 10 1 1 180 6 1
pinlabel=50
T 1250 1195 5 10 0 1 90 0 1
pinnumber=50
T 1300 1400 5 10 0 0 0 0 1
pinseq=31
}
P 900 1400 900 1100 1 0 0
{
T 900 1400 5 10 0 0 0 0 1
pintype=pas
T 755 1000 5 10 1 1 180 6 1
pinlabel=52
T 850 1195 5 10 0 1 90 0 1
pinnumber=52
T 900 1400 5 10 0 0 0 0 1
pinseq=33
}
P 1300 0 1300 300 1 0 0
{
T 1300 0 5 10 0 0 0 0 1
pintype=pas
T 1345 600 5 10 1 1 180 0 1
pinlabel=51
T 1250 205 5 10 0 1 90 6 1
pinnumber=51
T 1300 0 5 10 0 0 0 0 1
pinseq=32
}
P 900 0 900 300 1 0 0
{
T 900 0 5 10 0 0 0 0 1
pintype=pas
T 945 600 5 10 1 1 180 0 1
pinlabel=53
T 850 205 5 10 0 1 90 6 1
pinnumber=53
T 900 0 5 10 0 0 0 0 1
pinseq=34
}
T 300 -5 8 10 0 1 0 0 1
device=CHIPKITJ15
T 300 -5 8 10 0 1 0 0 1
description=Connector at rear of Arduino/ChipKIT
T 300 -5 8 10 0 1 0 0 1
footprint=HEADER36-2
T 0 895 8 10 1 1 0 0 1
refdes=J?
B 300 300 7200 800 3 0 0 0 -1 -1 0 -1 -1 -1 -1 -1
