v 20130925 2
T 700 3700 8 10 1 1 0 6 1
refdes=CONN?
T 300 3650 5 10 0 0 0 0 1
device=ArduinoConn3
T 300 3850 5 10 0 0 0 0 1
footprint=SIP8N
T 300 4050 5 10 0 0 0 0 1
author=Leon Kos
T 300 4250 5 10 0 0 0 0 1
description=generic connector
T 300 4450 5 10 0 0 0 0 1
numslots=0
P 0 3200 200 3200 1 0 0
{
T 200 3250 5 8 0 1 0 6 1
pinnumber=1
T 200 3150 5 8 0 1 0 8 1
pinseq=1
T 350 3200 9 8 1 1 0 0 1
pinlabel=7
T 350 3200 5 8 0 1 0 2 1
pintype=pas
}
V 250 3200 50 6 0 0 0 -1 -1 0 -1 -1 -1 -1 -1
P 0 2800 200 2800 1 0 0
{
T 200 2850 5 8 0 1 0 6 1
pinnumber=2
T 200 2750 5 8 0 1 0 8 1
pinseq=2
T 350 2800 9 8 1 1 0 0 1
pinlabel=6
T 350 2800 5 8 0 1 0 2 1
pintype=pas
}
V 250 2800 50 6 0 0 0 -1 -1 0 -1 -1 -1 -1 -1
P 0 2400 200 2400 1 0 0
{
T 200 2450 5 8 0 1 0 6 1
pinnumber=3
T 200 2350 5 8 0 1 0 8 1
pinseq=3
T 350 2400 9 8 1 1 0 0 1
pinlabel=5
T 350 2400 5 8 0 1 0 2 1
pintype=pas
}
V 250 2400 50 6 0 0 0 -1 -1 0 -1 -1 -1 -1 -1
P 0 2000 200 2000 1 0 0
{
T 200 2050 5 8 0 1 0 6 1
pinnumber=4
T 200 1950 5 8 0 1 0 8 1
pinseq=4
T 350 2000 9 8 1 1 0 0 1
pinlabel=4
T 350 2000 5 8 0 1 0 2 1
pintype=pas
}
V 250 2000 50 6 0 0 0 -1 -1 0 -1 -1 -1 -1 -1
P 0 1600 200 1600 1 0 0
{
T 200 1650 5 8 0 1 0 6 1
pinnumber=5
T 200 1550 5 8 0 1 0 8 1
pinseq=5
T 350 1600 9 8 1 1 0 0 1
pinlabel=3
T 350 1600 5 8 0 1 0 2 1
pintype=pas
}
V 250 1600 50 6 0 0 0 -1 -1 0 -1 -1 -1 -1 -1
P 0 1200 200 1200 1 0 0
{
T 200 1250 5 8 0 1 0 6 1
pinnumber=6
T 200 1150 5 8 0 1 0 8 1
pinseq=6
T 350 1200 9 8 1 1 0 0 1
pinlabel=2
T 350 1200 5 8 0 1 0 2 1
pintype=pas
}
V 250 1200 50 6 0 0 0 -1 -1 0 -1 -1 -1 -1 -1
P 0 800 200 800 1 0 0
{
T 200 850 5 8 0 1 0 6 1
pinnumber=7
T 200 750 5 8 0 1 0 8 1
pinseq=7
T 350 800 9 8 1 1 0 0 1
pinlabel=1 Tx
T 350 800 5 8 0 1 0 2 1
pintype=pas
}
V 250 800 50 6 0 0 0 -1 -1 0 -1 -1 -1 -1 -1
P 0 400 200 400 1 0 0
{
T 200 450 5 8 0 1 0 6 1
pinnumber=8
T 200 350 5 8 0 1 0 8 1
pinseq=8
T 350 400 9 8 1 1 0 0 1
pinlabel=0 Rx
T 350 400 5 8 0 1 0 2 1
pintype=pas
}
V 250 400 50 6 0 0 0 -1 -1 0 -1 -1 -1 -1 -1
B 300 0 400 3600 3 0 0 0 -1 -1 0 -1 -1 -1 -1 -1
