v 20110115 2
B 300 0 2500 6000 3 0 0 0 -1 -1 0 -1 -1 -1 -1 -1
P 200 5600 0 5600 1 0 1
{
T 200 5650 5 8 1 1 0 6 1
pinnumber=1
T 200 5550 5 8 0 1 0 8 1
pinseq=1
T 350 5600 9 8 1 1 0 0 1
pinlabel=MCLR
T 350 5600 5 8 0 1 0 2 1
pintype=in
}
P 300 5200 0 5200 1 0 1
{
T 200 5250 5 8 1 1 0 6 1
pinnumber=2
T 200 5150 5 8 0 1 0 8 1
pinseq=2
T 350 5200 9 8 1 1 0 0 1
pinlabel=RB0/AN0/EMUD3
T 350 5200 5 8 0 1 0 2 1
pintype=io
}
P 300 4800 0 4800 1 0 1
{
T 200 4850 5 8 1 1 0 6 1
pinnumber=3
T 200 4750 5 8 0 1 0 8 1
pinseq=3
T 350 4800 9 8 1 1 0 0 1
pinlabel=RB1/AN1/EMUC3
T 350 4800 5 8 0 1 0 2 1
pintype=io
}
P 300 4400 0 4400 1 0 1
{
T 200 4450 5 8 1 1 0 6 1
pinnumber=4
T 200 4350 5 8 0 1 0 8 1
pinseq=4
T 350 4400 9 8 1 1 0 0 1
pinlabel=RB2/AN2
T 350 4400 5 8 0 1 0 2 1
pintype=io
}
P 300 4000 0 4000 1 0 1
{
T 200 4050 5 8 1 1 0 6 1
pinnumber=5
T 200 3950 5 8 0 1 0 8 1
pinseq=5
T 350 4000 9 8 1 1 0 0 1
pinlabel=RB3/AN3
T 350 4000 5 8 0 1 0 2 1
pintype=io
}
P 300 3600 0 3600 1 0 1
{
T 200 3650 5 8 1 1 0 6 1
pinnumber=6
T 200 3550 5 8 0 1 0 8 1
pinseq=6
T 350 3600 9 8 1 1 0 0 1
pinlabel=RB4/AN4
T 350 3600 5 8 0 1 0 2 1
pintype=io
}
P 300 3200 0 3200 1 0 1
{
T 200 3250 5 8 1 1 0 6 1
pinnumber=7
T 200 3150 5 8 0 1 0 8 1
pinseq=7
T 350 3200 9 8 1 1 0 0 1
pinlabel=RB5/AN5
T 350 3200 5 8 0 1 0 2 1
pintype=io
}
P 300 2800 0 2800 1 0 1
{
T 200 2850 5 8 1 1 0 6 1
pinnumber=8
T 200 2750 5 8 0 1 0 8 1
pinseq=8
T 350 2800 9 8 1 1 0 0 1
pinlabel=Vss
T 350 2800 5 8 0 1 0 2 1
pintype=pwr
}
P 300 2400 0 2400 1 0 1
{
T 200 2450 5 8 1 1 0 6 1
pinnumber=9
T 200 2350 5 8 0 1 0 8 1
pinseq=9
T 350 2400 9 8 1 1 0 0 1
pinlabel=OSC1/CLKIN
T 350 2400 5 8 0 1 0 2 1
pintype=in
}
P 300 2000 0 2000 1 0 1
{
T 200 2050 5 8 1 1 0 6 1
pinnumber=10
T 200 1950 5 8 0 1 0 8 1
pinseq=10
T 350 2000 9 8 1 1 0 0 1
pinlabel=OSC2/CLKO/CLKOUT
T 350 2000 5 8 0 1 0 2 1
pintype=out
}
P 300 1600 0 1600 1 0 1
{
T 200 1650 5 8 1 1 0 6 1
pinnumber=11
T 200 1550 5 8 0 1 0 8 1
pinseq=11
T 350 1600 9 8 1 1 0 0 1
pinlabel=RC13/UA1TX/EMUD1
T 350 1600 5 8 0 1 0 2 1
pintype=io
}
P 300 1200 0 1200 1 0 1
{
T 200 1250 5 8 1 1 0 6 1
pinnumber=12
T 200 1150 5 8 0 1 0 8 1
pinseq=12
T 350 1200 9 8 1 1 0 0 1
pinlabel=RC14/UA1RX/EMUC1
T 350 1200 5 8 0 1 0 2 1
pintype=io
}
P 300 800 0 800 1 0 1
{
T 200 850 5 8 1 1 0 6 1
pinnumber=13
T 200 750 5 8 0 1 0 8 1
pinseq=13
T 350 800 9 8 1 1 0 0 1
pinlabel=Vdd
T 350 800 5 8 0 1 0 2 1
pintype=io
}
P 300 400 0 400 1 0 1
{
T 200 450 5 8 1 1 0 6 1
pinnumber=14
T 200 350 5 8 0 1 0 8 1
pinseq=14
T 350 400 9 8 1 1 0 0 1
pinlabel=RD1/OC2/EMUD2
T 350 400 5 8 0 1 0 2 1
pintype=io
}
P 3100 400 2800 400 1 0 0
{
T 2900 450 5 8 1 1 0 0 1
pinnumber=15
T 2900 350 5 8 0 1 0 2 1
pinseq=15
T 2750 300 9 8 1 1 0 6 1
pinlabel=RD0/OC1/EMUC2
T 2750 400 5 8 0 1 0 8 1
pintype=io
}
P 3100 800 2800 800 1 0 0
{
T 2900 850 5 8 1 1 0 0 1
pinnumber=16
T 2900 750 5 8 0 1 0 2 1
pinseq=16
T 2750 700 9 8 1 1 0 6 1
pinlabel=RE8/INT0
T 2750 800 5 8 0 1 0 8 1
pintype=io
}
P 3100 1200 2800 1200 1 0 0
{
T 2900 1250 5 8 1 1 0 0 1
pinnumber=17
T 2900 1150 5 8 0 1 0 2 1
pinseq=17
T 2750 1100 9 8 1 1 0 6 1
pinlabel=PGD/U1TXRF3
T 2750 1200 5 8 0 1 0 8 1
pintype=io
}
P 3100 1600 2800 1600 1 0 0
{
T 2900 1650 5 8 1 1 0 0 1
pinnumber=18
T 2900 1550 5 8 0 1 0 2 1
pinseq=18
T 2750 1500 9 8 1 1 0 6 1
pinlabel=PGC/U1RX/RF2
T 2750 1600 5 8 0 1 0 8 1
pintype=io
}
P 3100 2000 2800 2000 1 0 0
{
T 2900 2050 5 8 1 1 0 0 1
pinnumber=19
T 2900 1950 5 8 0 1 0 2 1
pinseq=19
T 2750 1900 9 8 1 1 0 6 1
pinlabel=Vss
T 2750 2000 5 8 0 1 0 8 1
pintype=pwr
}
P 3100 2400 2800 2400 1 0 0
{
T 2900 2450 5 8 1 1 0 0 1
pinnumber=20
T 2900 2350 5 8 0 1 0 2 1
pinseq=20
T 2750 2300 9 8 1 1 0 6 1
pinlabel=Vdd
T 2750 2400 5 8 0 1 0 8 1
pintype=pwr
}
P 3100 2800 2800 2800 1 0 0
{
T 2900 2850 5 8 1 1 0 0 1
pinnumber=21
T 2900 2750 5 8 0 1 0 2 1
pinseq=21
T 2750 2700 9 8 1 1 0 6 1
pinlabel=RE5/PWM3H
T 2750 2800 5 8 0 1 0 8 1
pintype=io
}
P 3100 3200 2800 3200 1 0 0
{
T 2900 3250 5 8 1 1 0 0 1
pinnumber=22
T 2900 3150 5 8 0 1 0 2 1
pinseq=22
T 2750 3100 9 8 1 1 0 6 1
pinlabel=RE4/PWM3L
T 2750 3200 5 8 0 1 0 8 1
pintype=io
}
P 3100 3600 2800 3600 1 0 0
{
T 2900 3650 5 8 1 1 0 0 1
pinnumber=23
T 2900 3550 5 8 0 1 0 2 1
pinseq=23
T 2750 3500 9 8 1 1 0 6 1
pinlabel=RE3/PWM2H
T 2750 3600 5 8 0 1 0 8 1
pintype=io
}
P 3100 4000 2800 4000 1 0 0
{
T 2900 4050 5 8 1 1 0 0 1
pinnumber=24
T 2900 3950 5 8 0 1 0 2 1
pinseq=24
T 2750 3900 9 8 1 1 0 6 1
pinlabel=RE2/PWM2L
T 2750 4000 5 8 0 1 0 8 1
pintype=io
}
P 3100 4400 2800 4400 1 0 0
{
T 2900 4450 5 8 1 1 0 0 1
pinnumber=25
T 2900 4350 5 8 0 1 0 2 1
pinseq=25
T 2750 4300 9 8 1 1 0 6 1
pinlabel=RE1/PWM1H
T 2750 4400 5 8 0 1 0 8 1
pintype=io
}
P 3100 4800 2800 4800 1 0 0
{
T 2900 4850 5 8 1 1 0 0 1
pinnumber=26
T 2900 4750 5 8 0 1 0 2 1
pinseq=26
T 2750 4700 9 8 1 1 0 6 1
pinlabel=RE0/PWM1L
T 2750 4800 5 8 0 1 0 8 1
pintype=io
}
P 3100 5200 2800 5200 1 0 0
{
T 2900 5250 5 8 1 1 0 0 1
pinnumber=27
T 2900 5150 5 8 0 1 0 2 1
pinseq=27
T 2750 5100 9 8 1 1 0 6 1
pinlabel=AVss
T 2750 5200 5 8 0 1 0 8 1
pintype=io
}
P 3100 5600 2800 5600 1 0 0
{
T 2900 5650 5 8 1 1 0 0 1
pinnumber=28
T 2900 5550 5 8 0 1 0 2 1
pinseq=28
T 2750 5500 9 8 1 1 0 6 1
pinlabel=AVdd
T 2750 5600 5 8 0 1 0 8 1
pintype=io
}
L 350 5725 750 5725 3 0 0 0 -1 -1
T 2600 6100 8 10 1 1 0 0 1
refdes=U?
T 300 6250 5 10 0 0 0 0 1
device=dsPIC30F4102
T 300 6650 5 10 0 0 0 0 1
footprint=DIP28
T 300 6850 5 10 0 0 0 0 1
description=16-bit DSC
T 300 6450 5 10 0 0 0 0 1
numslots=0
T 300 7050 5 10 0 0 0 0 1
documentation=http://www.microchip.com/download/lit/pline/picmicro/families/16f87x/30292c.pdf
T 300 6050 9 10 1 0 0 0 1
dsPIC30F4012
V 250 5600 50 6 0 0 0 -1 -1 0 -1 -1 -1 -1 -1
