v 20110115 2
P 0 800 200 800 1 0 0
{
T 150 850 5 8 1 1 0 6 1
pinnumber=3
T 150 750 5 8 0 1 0 8 1
pinseq=3
T 205 746 9 8 1 1 0 0 1
pinlabel=SCK
T 250 800 5 8 0 1 0 2 1
pintype=in
}
P 0 600 200 600 1 0 0
{
T 150 650 5 8 1 1 0 6 1
pinnumber=2
T 150 550 5 8 0 1 0 8 1
pinseq=2
T 214 553 9 8 1 1 0 0 1
pinlabel=CS
T 250 600 5 8 0 1 0 2 1
pintype=in
}
P 1000 500 1200 500 1 0 1
{
T 1050 550 5 8 1 1 0 0 1
pinnumber=6
T 1050 450 5 8 0 1 0 2 1
pinseq=6
T 1000 500 9 8 0 1 0 6 1
pinlabel=outB
T 1000 500 5 8 0 1 0 8 1
pintype=out
}
P 500 1200 500 1400 1 0 1
{
T 550 1250 5 8 1 1 0 0 1
pinnumber=1
T 550 1200 5 8 0 1 0 2 1
pinseq=1
T 522 1179 9 8 1 1 0 5 1
pinlabel=Vdd
T 500 1150 5 8 0 1 0 5 1
pintype=pwr
}
P 500 200 500 0 1 0 1
{
T 550 50 5 8 1 1 0 0 1
pinnumber=7
T 550 100 5 8 0 1 0 2 1
pinseq=7
T 569 217 9 8 1 1 0 3 1
pinlabel=Vss
T 500 350 5 8 0 1 0 3 1
pintype=pwr
}
B 200 200 800 1000 3 0 0 0 -1 -1 0 -1 -1 -1 -1 -1
T 750 1500 5 10 0 0 0 0 1
device=OPAMP
P 0 1000 200 1000 1 0 0
{
T 150 1050 5 8 1 1 0 6 1
pinnumber=4
T 150 950 5 8 0 1 0 8 1
pinseq=4
T 203 943 9 8 1 1 0 0 1
pinlabel=SDI
T 250 1000 5 8 0 1 0 2 1
pintype=in
}
P 200 400 0 400 1 0 1
{
T 157 447 5 8 1 1 0 6 1
pinnumber=5
T 150 350 5 8 0 1 0 8 1
pinseq=5
T 208 355 9 8 1 1 0 0 1
pinlabel=LDAC
T 200 400 5 8 0 1 0 2 1
pintype=in
}
T 1000 1300 8 10 1 1 0 6 1
refdes=U?
T 750 2100 5 10 0 0 0 0 1
footprint=DIP8
T 750 2300 5 10 0 0 0 0 1
description=Dual SPI DAC
T 750 1900 5 10 0 0 0 0 1
numslots=0
T 750 1700 5 10 0 0 0 0 1
symversion=1.0
T 750 2500 5 10 0 0 0 0 1
comment=NC-PINS:8
P 1200 900 1000 900 1 0 0
{
T 900 900 5 10 0 0 180 6 1
pintype=out
T 945 895 5 10 0 1 0 6 1
pinlabel=outA
T 1052 945 5 10 1 1 0 0 1
pinnumber=8
T 900 900 5 10 0 0 180 6 1
pinseq=8
}
L 1000 500 700 700 3 0 0 0 -1 -1
L 1000 500 700 300 3 0 0 0 -1 -1
L 700 300 700 700 3 0 0 0 -1 -1
L 700 700 700 1100 3 0 0 0 -1 -1
L 700 1100 1000 900 3 0 0 0 -1 -1
L 1000 900 700 700 3 0 0 0 -1 -1
T 814 855 9 8 1 0 0 0 1
A
T 829 451 9 8 1 0 0 0 1
B
T 666 498 9 6 1 0 90 0 1
MCP48x2
