v 20121123 2
P 1100 7800 1400 7800 1 0 1
{
T 800 7750 5 8 1 1 0 0 1
pinnumber=21
T 1200 7850 5 8 0 0 0 0 1
pinseq=2
T 1200 7850 5 8 1 1 0 0 1
pinlabel=DB0
T 1200 7850 5 8 0 1 0 0 1
pintype=pas
}
P 0 7400 300 7400 1 0 0
{
T 400 7350 5 8 1 1 0 0 1
pinnumber=2
T 100 7450 5 8 0 0 0 0 1
pinseq=3
T 0 7450 5 8 1 1 0 0 1
pinlabel=Vcc
T 100 7450 5 8 0 1 0 0 1
pintype=pas
}
P 1100 7400 1400 7400 1 0 1
{
T 800 7350 5 8 1 1 0 0 1
pinnumber=22
T 1200 7450 5 8 0 0 0 0 1
pinseq=4
T 1200 7450 5 8 1 1 0 0 1
pinlabel=DB1
T 1200 7450 5 8 0 1 0 0 1
pintype=pas
}
P 0 7800 300 7800 1 0 0
{
T 450 7750 5 8 1 1 0 0 1
pinnumber=1
T 150 7850 5 8 0 0 0 0 1
pinseq=1
T 0 7850 5 8 1 1 0 0 1
pinlabel=Gnd
T 150 7850 5 8 0 1 0 0 1
pintype=pas
}
P 0 7000 300 7000 1 0 0
{
T 400 6950 5 8 1 1 0 0 1
pinnumber=3
T 100 7050 5 8 0 0 0 0 1
pinseq=5
T 0 7050 5 8 1 1 0 0 1
pinlabel=n/c
T 0 7050 5 8 0 1 0 0 1
pintype=pas
}
L 300 7200 1100 7200 3 0 0 0 -1 -1
L 300 6800 1100 6800 3 0 0 0 -1 -1
L 300 7600 1100 7600 3 0 0 0 -1 -1
L 300 6400 1100 6400 3 0 0 0 -1 -1
T 250 8500 5 10 0 1 0 0 1
device=HEADER40
P 1100 6200 1400 6200 1 0 1
{
T 800 6150 5 8 1 1 0 0 1
pinnumber=25
T 1200 6250 5 8 0 0 0 0 1
pinseq=10
T 1200 6250 5 8 1 1 0 0 1
pinlabel=DB4
T 1200 6250 5 8 0 1 0 0 1
pintype=pas
}
P 0 6200 300 6200 1 0 0
{
T 400 6150 5 8 1 1 0 0 1
pinnumber=5
T 100 6250 5 8 0 0 0 0 1
pinseq=9
T 0 6250 5 8 1 1 0 0 1
pinlabel=WR
T 100 6250 5 8 0 1 0 0 1
pintype=pas
}
P 1100 6600 1400 6600 1 0 1
{
T 800 6550 5 8 1 1 0 0 1
pinnumber=24
T 1200 6650 5 8 0 0 0 0 1
pinseq=8
T 1200 6650 5 8 1 1 0 0 1
pinlabel=DB3
T 1200 6650 5 8 0 1 0 0 1
pintype=pas
}
P 0 6600 300 6600 1 0 0
{
T 400 6550 5 8 1 1 0 0 1
pinnumber=4
T 100 6650 5 8 0 0 0 0 1
pinseq=7
T 0 6650 5 8 1 1 0 0 1
pinlabel=RS
T 100 6650 5 8 0 1 0 0 1
pintype=pas
}
P 1100 7000 1400 7000 1 0 1
{
T 800 6950 5 8 1 1 0 0 1
pinnumber=23
T 1200 7050 5 8 0 0 0 0 1
pinseq=6
T 1200 7050 5 8 1 1 0 0 1
pinlabel=DB2
T 1200 7050 5 8 0 1 0 0 1
pintype=pas
}
T 600 8100 8 10 1 1 0 0 1
refdes=J?
P 1100 4600 1400 4600 1 0 1
{
T 800 4550 5 8 1 1 0 0 1
pinnumber=29
T 1200 4650 5 8 0 0 0 0 1
pinseq=18
T 1200 4650 5 8 1 1 0 0 1
pinlabel=D_CLK
T 1200 4650 5 8 0 1 0 0 1
pintype=pas
}
P 1100 4200 1400 4200 1 0 1
{
T 800 4150 5 8 1 1 0 0 1
pinnumber=30
T 1200 4250 5 8 0 0 0 0 1
pinseq=20
T 1200 4250 5 8 1 1 0 0 1
pinlabel=D_CS
T 1200 4250 5 8 0 1 0 0 1
pintype=pas
}
P 0 4600 300 4600 1 0 0
{
T 400 4550 5 8 1 1 0 0 1
pinnumber=9
T 100 4650 5 8 0 0 0 0 1
pinseq=17
T 0 4650 5 8 1 1 0 0 1
pinlabel=DB10
T 100 4650 5 8 0 1 0 0 1
pintype=pas
}
P 0 4200 300 4200 1 0 0
{
T 400 4150 5 8 1 1 0 0 1
pinnumber=10
T 100 4250 5 8 0 0 0 0 1
pinseq=19
T 0 4250 5 8 1 1 0 0 1
pinlabel=DB11
T 100 4250 5 8 0 1 0 0 1
pintype=pas
}
P 1100 5000 1400 5000 1 0 1
{
T 800 4950 5 8 1 1 0 0 1
pinnumber=28
T 1200 5050 5 8 0 0 0 0 1
pinseq=16
T 1200 5050 5 8 1 1 0 0 1
pinlabel=DB7
T 1200 5050 5 8 0 1 0 0 1
pintype=pas
}
L 300 5200 1100 5200 3 0 0 0 -1 -1
L 300 4800 1100 4800 3 0 0 0 -1 -1
L 300 5600 1100 5600 3 0 0 0 -1 -1
L 300 4400 1100 4400 3 0 0 0 -1 -1
P 0 5000 300 5000 1 0 0
{
T 400 4950 5 8 1 1 0 0 1
pinnumber=8
T 100 5050 5 8 0 0 0 0 1
pinseq=15
T 0 5050 5 8 1 1 0 0 1
pinlabel=DB9
T 100 5050 5 8 0 1 0 0 1
pintype=pas
}
P 1100 5400 1400 5400 1 0 1
{
T 800 5350 5 8 1 1 0 0 1
pinnumber=27
T 1200 5450 5 8 0 0 0 0 1
pinseq=14
T 1200 5450 5 8 1 1 0 0 1
pinlabel=DB6
T 1200 5450 5 8 0 1 0 0 1
pintype=pas
}
P 0 5400 300 5400 1 0 0
{
T 400 5350 5 8 1 1 0 0 1
pinnumber=7
T 100 5450 5 8 0 0 0 0 1
pinseq=13
T 0 5450 5 8 1 1 0 0 1
pinlabel=DB8
T 100 5450 5 8 0 1 0 0 1
pintype=pas
}
P 1100 5800 1400 5800 1 0 1
{
T 800 5750 5 8 1 1 0 0 1
pinnumber=26
T 1200 5850 5 8 0 0 0 0 1
pinseq=12
T 1200 5850 5 8 1 1 0 0 1
pinlabel=DB5
T 1200 5850 5 8 0 1 0 0 1
pintype=pas
}
P 0 5800 300 5800 1 0 0
{
T 400 5750 5 8 1 1 0 0 1
pinnumber=6
T 100 5850 5 8 0 0 0 0 1
pinseq=11
T 0 5850 5 8 1 1 0 0 1
pinlabel=RD
T 100 5850 5 8 0 1 0 0 1
pintype=pas
}
L 300 6000 1100 6000 3 0 0 0 -1 -1
L 700 8000 700 4000 3 0 0 0 -1 -1
T 250 8700 8 10 0 0 0 0 1
pins=40
T 250 8900 8 10 0 0 0 0 1
class=IO
P 1100 3800 1400 3800 1 0 1
{
T 800 3750 5 8 1 1 0 0 1
pinnumber=31
T 1200 3850 5 8 0 0 0 0 1
pinseq=22
T 1200 3850 5 8 1 1 0 0 1
pinlabel=D_DIN
T 1200 3850 5 8 0 1 0 0 1
pintype=pas
}
P 0 3400 300 3400 1 0 0
{
T 350 3350 5 8 1 1 0 0 1
pinnumber=12
T 50 3450 5 8 0 0 0 0 1
pinseq=23
T 0 3450 5 8 1 1 0 0 1
pinlabel=DB13
T 50 3450 5 8 0 1 0 0 1
pintype=pas
}
P 1100 3400 1400 3400 1 0 1
{
T 800 3350 5 8 1 1 0 0 1
pinnumber=32
T 1200 3450 5 8 0 0 0 0 1
pinseq=24
T 1200 3450 5 8 1 1 0 0 1
pinlabel=D_BUSY
T 1200 3450 5 8 0 1 0 0 1
pintype=pas
}
P 0 3800 300 3800 1 0 0
{
T 400 3750 5 8 1 1 0 0 1
pinnumber=11
T 100 3850 5 8 0 0 0 0 1
pinseq=21
T 0 3850 5 8 1 1 0 0 1
pinlabel=DB12
T 100 3850 5 8 0 1 0 0 1
pintype=pas
}
P 0 3000 300 3000 1 0 0
{
T 350 2950 5 8 1 1 0 0 1
pinnumber=13
T 50 3050 5 8 0 0 0 0 1
pinseq=25
T 0 3050 5 8 1 1 0 0 1
pinlabel=DB14
T 50 3050 5 8 0 1 0 0 1
pintype=pas
}
L 300 3200 1100 3200 3 0 0 0 -1 -1
L 300 2800 1100 2800 3 0 0 0 -1 -1
L 300 3600 1100 3600 3 0 0 0 -1 -1
L 300 2400 1100 2400 3 0 0 0 -1 -1
P 1100 2200 1400 2200 1 0 1
{
T 800 2150 5 8 1 1 0 0 1
pinnumber=35
T 1200 2250 5 8 0 0 0 0 1
pinseq=30
T 1200 2250 5 8 1 1 0 0 1
pinlabel=SD_OUTF
T 1200 2250 5 8 0 1 0 0 1
pintype=pas
}
P 0 2200 300 2200 1 0 0
{
T 350 2150 5 8 1 1 0 0 1
pinnumber=15
T 50 2250 5 8 0 0 0 0 1
pinseq=29
T 0 2250 5 8 1 1 0 0 1
pinlabel=CS
T 50 2250 5 8 0 1 0 0 1
pintype=pas
}
P 1100 2600 1400 2600 1 0 1
{
T 800 2550 5 8 1 1 0 0 1
pinnumber=34
T 1200 2650 5 8 0 0 0 0 1
pinseq=28
T 1200 2650 5 8 1 1 0 0 1
pinlabel=D_Penirq
T 1200 2650 5 8 0 1 0 0 1
pintype=pas
}
P 0 2600 300 2600 1 0 0
{
T 350 2550 5 8 1 1 0 0 1
pinnumber=14
T 50 2650 5 8 0 0 0 0 1
pinseq=27
T 0 2650 5 8 1 1 0 0 1
pinlabel=DB15
T 50 2650 5 8 0 1 0 0 1
pintype=pas
}
P 1100 3000 1400 3000 1 0 1
{
T 800 2950 5 8 1 1 0 0 1
pinnumber=33
T 1200 3050 5 8 0 0 0 0 1
pinseq=26
T 1200 3050 5 8 1 1 0 0 1
pinlabel=D_OUT
T 1200 3050 5 8 0 1 0 0 1
pintype=pas
}
P 1100 600 1400 600 1 0 1
{
T 800 550 5 8 1 1 0 0 1
pinnumber=39
T 1200 650 5 8 0 0 0 0 1
pinseq=38
T 1200 650 5 8 1 1 0 0 1
pinlabel=F_WP
T 1200 650 5 8 0 1 0 0 1
pintype=pas
}
P 1100 200 1400 200 1 0 1
{
T 800 150 5 8 1 1 0 0 1
pinnumber=40
T 1200 250 5 8 0 0 0 0 1
pinseq=40
T 1200 250 5 8 1 1 0 0 1
pinlabel=F_HOLD
T 1200 250 5 8 0 1 0 0 1
pintype=pas
}
P 0 600 300 600 1 0 0
{
T 350 550 5 8 1 1 0 0 1
pinnumber=19
T 50 650 5 8 0 0 0 0 1
pinseq=37
T 0 650 5 8 1 1 0 0 1
pinlabel=LED-A
T 50 650 5 8 0 1 0 0 1
pintype=pas
}
P 0 200 300 200 1 0 0
{
T 350 150 5 8 1 1 0 0 1
pinnumber=20
T 50 250 5 8 0 0 0 0 1
pinseq=39
T 0 250 5 8 1 1 0 0 1
pinlabel=n/c
T 50 250 5 8 0 1 0 0 1
pintype=pas
}
P 1100 1000 1400 1000 1 0 1
{
T 800 950 5 8 1 1 0 0 1
pinnumber=38
T 1200 1050 5 8 0 0 0 0 1
pinseq=36
T 1200 1050 5 8 1 1 0 0 1
pinlabel=SD_CS
T 1200 1050 5 8 0 1 0 0 1
pintype=pas
}
L 300 1200 1100 1200 3 0 0 0 -1 -1
L 300 800 1100 800 3 0 0 0 -1 -1
L 300 1600 1100 1600 3 0 0 0 -1 -1
L 300 400 1100 400 3 0 0 0 -1 -1
P 0 1000 300 1000 1 0 0
{
T 350 950 5 8 1 1 0 0 1
pinnumber=18
T 50 1050 5 8 0 0 0 0 1
pinseq=35
T 0 1050 5 8 1 1 0 0 1
pinlabel=n/c
T 50 1050 5 8 0 1 0 0 1
pintype=pas
}
P 1100 1400 1400 1400 1 0 1
{
T 800 1350 5 8 1 1 0 0 1
pinnumber=37
T 1200 1450 5 8 0 0 0 0 1
pinseq=34
T 1200 1450 5 8 1 1 0 0 1
pinlabel=SD_DIN
T 1200 1450 5 8 0 1 0 0 1
pintype=pas
}
P 0 1400 300 1400 1 0 0
{
T 350 1350 5 8 1 1 0 0 1
pinnumber=17
T 50 1450 5 8 0 0 0 0 1
pinseq=33
T 0 1450 5 8 1 1 0 0 1
pinlabel=REST
T 50 1450 5 8 0 1 0 0 1
pintype=pas
}
P 1100 1800 1400 1800 1 0 1
{
T 800 1750 5 8 1 1 0 0 1
pinnumber=36
T 1200 1850 5 8 0 0 0 0 1
pinseq=32
T 1200 1850 5 8 1 1 0 0 1
pinlabel=SD_SCK
T 1200 1850 5 8 0 1 0 0 1
pintype=pas
}
P 0 1800 300 1800 1 0 0
{
T 350 1750 5 8 1 1 0 0 1
pinnumber=16
T 50 1850 5 8 0 0 0 0 1
pinseq=31
T 0 1850 5 8 1 1 0 0 1
pinlabel=F_CS
T 50 1850 5 8 0 1 0 0 1
pintype=pas
}
B 300 0 800 8000 3 0 0 0 -1 -1 0 -1 -1 -1 -1 -1
L 300 2000 1100 2000 3 0 0 0 -1 -1
L 700 4000 700 0 3 0 0 0 -1 -1
L 300 4000 1100 4000 3 0 0 0 -1 -1
