v 20130925 2
P 600 1000 600 800 1 0 0
{
T 500 850 5 6 1 1 0 0 1
pinnumber=3
T 500 850 5 6 0 0 0 0 1
pinseq=3
T 500 850 5 6 0 1 0 0 1
pinlabel=3
T 500 850 5 6 0 1 0 0 1
pintype=pas
}
P 600 200 600 0 1 0 1
{
T 500 50 5 6 1 1 0 0 1
pinnumber=1
T 500 50 5 6 0 0 0 0 1
pinseq=1
T 500 50 5 6 0 1 0 0 1
pinlabel=1
T 500 50 5 6 0 1 0 0 1
pintype=pas
}
V 500 501 301 3 0 0 0 -1 -1 0 -1 -1 -1 -1 -1
T 900 700 8 10 0 0 0 0 1
device=2N2222
L 600 200 400 400 3 0 0 0 -1 -1
L 600 800 400 600 3 0 0 0 -1 -1
L 400 700 400 300 3 0 0 0 -1 -1
P 0 500 184 500 1 0 0
{
T 100 550 5 6 1 1 0 0 1
pinnumber=2
T 100 550 5 6 0 0 0 0 1
pinseq=2
T 100 550 5 6 0 1 0 0 1
pinlabel=2
T 100 550 5 6 0 1 0 0 1
pintype=pas
}
L 400 500 184 500 3 0 0 0 -1 -1
L 600 200 564 272 3 0 0 0 -1 -1
L 600 200 528 236 3 0 0 0 -1 -1
L 528 236 564 272 3 0 0 0 -1 -1
T 900 500 8 10 1 1 0 0 1
refdes=Q?
T 900 300 9 10 1 0 0 0 1
2N2222
T 95 2095 8 10 0 0 0 0 1
device=2N2222
T 95 1895 8 10 0 0 0 0 1
description=2N2222 NPN Bipolar transistor - EBC pinout
T 95 1695 8 10 0 0 0 0 1
author=Lawrence Hallman
T 95 1495 8 10 0 0 0 0 1
dist-license=GPL
T 95 1295 8 10 0 0 0 0 1
use-license=Unlimited
