v 20121123 2
P 0 400 300 400 1 0 0
{
T 200 450 5 8 1 1 0 6 1
pinnumber=3
T 200 350 5 8 0 1 0 8 1
pinseq=3
T 350 400 9 8 0 1 0 1 1
pinlabel=IN-
T 350 400 5 8 0 1 0 2 1
pintype=in
}
P 1600 700 1300 700 1 0 0
{
T 1400 750 5 8 1 1 0 0 1
pinnumber=6
T 1400 650 5 8 0 1 0 2 1
pinseq=6
T 1250 700 9 8 0 1 0 6 1
pinlabel=OUT
T 1250 700 5 8 0 1 0 8 1
pintype=out
}
P 500 0 500 300 1 0 0
{
T 450 205 5 8 1 1 90 6 1
pinnumber=4
T 550 200 5 8 0 1 90 8 1
pinseq=4
T 500 55 9 8 0 1 90 0 1
pinlabel=AGND
T 500 350 5 8 0 1 90 2 1
pintype=pwr
}
T 100 2540 5 10 0 0 0 0 1
device=LM380N-8
T 100 2340 5 10 0 0 0 0 1
footprint=DIP8
T 100 2140 5 10 0 0 0 0 1
numslots=0
T 100 2750 5 10 0 0 0 0 1
description=2.5W Audio Power Amplifier
T 100 2950 5 10 0 0 0 0 1
documentation=http://www.ti.com/lit/gpn/lm380
L 300 1200 300 200 3 0 0 0 -1 -1
L 300 200 1300 700 3 0 0 0 -1 -1
L 300 1200 1300 700 3 0 0 0 -1 -1
T 100 1940 5 10 0 0 0 0 1
author=Andreas Czechanowski (dl4sdcATgmxDOTde)
P 1100 0 1100 600 1 0 0
{
T 1050 205 5 8 1 1 90 6 1
pinnumber=5
T 1150 200 5 8 0 1 90 8 1
pinseq=5
T 1100 55 9 8 0 1 90 0 1
pinlabel=GND
T 1100 350 5 8 0 1 90 2 1
pintype=pwr
}
P 1100 1400 1100 800 1 0 0
{
T 1050 1195 5 8 1 1 90 0 1
pinnumber=7
T 1150 1200 5 8 0 1 90 2 1
pinseq=7
T 1050 895 9 8 1 1 90 0 1
pinlabel=Vs
T 1100 1050 5 8 0 1 90 8 1
pintype=pwr
}
P 0 1000 300 1000 1 0 0
{
T 200 1050 5 8 1 1 0 6 1
pinnumber=2
T 200 950 5 8 0 1 0 8 1
pinseq=2
T 350 1000 9 8 0 1 0 1 1
pinlabel=IN+
T 350 1000 5 8 0 1 0 2 1
pintype=in
}
T 1200 1200 8 10 1 1 0 0 1
refdes=U?
T 100 3150 5 10 0 0 0 0 1
symversion=0.1
T 1200 1000 9 10 1 0 0 0 1
LM380
T 100 1740 5 10 0 0 0 0 1
dist-license=GNU GPL v2
T 100 1540 5 10 0 0 0 0 1
use-license=unlimited
P 0 700 300 700 1 0 0
{
T 200 750 5 8 1 1 0 6 1
pinnumber=8
T 200 650 5 8 0 1 0 8 1
pinseq=8
T 350 700 9 8 0 1 0 1 1
pinlabel=BYP
T 350 700 5 8 0 1 0 2 1
pintype=pas
}
L 400 1050 400 950 3 10 0 0 -1 -1
L 350 1000 450 1000 3 10 0 0 -1 -1
L 350 400 450 400 3 10 0 0 -1 -1
