v 20130925 2
T 250 350 0 1 0 0 0 0 1
gedasymbols::url=http://www.gedasymbols.org/user/lawrence_hallman/symbols/Digital/TTL/74LS147.sym
B 1800 700 2100 2600 3 0 0 0 -1 -1 0 -1 -1 -1 -1 -1
{
T 1800 3300 5 10 0 0 0 0 1
numslots=0
}
P 1500 3000 1800 3000 1 0 0
{
T 1600 3100 5 8 1 1 0 0 1
pinnumber=1
T 1900 3000 9 8 1 1 0 0 1
pinlabel=Q0
T 1500 3000 5 8 0 1 0 0 1
pinseq=1
T 1500 3000 5 8 0 1 0 0 1
pintype=out
}
P 1500 2700 1800 2700 1 0 0
{
T 1600 2800 5 8 1 1 0 0 1
pinnumber=2
T 1900 2700 9 8 1 1 0 0 1
pinlabel=Q1
T 1500 2700 5 8 0 1 0 0 1
pinseq=2
T 1600 1800 5 8 0 1 0 0 1
pintype=out
}
P 1500 2400 1800 2400 1 0 0
{
T 1600 2500 5 8 1 1 0 0 1
pinnumber=3
T 1900 2400 9 8 1 1 0 0 1
pinlabel=Q2
T 1500 2400 5 8 0 1 0 0 1
pinseq=3
T 1500 2400 5 8 0 1 0 0 1
pintype=out
}
P 1500 2100 1800 2100 1 0 0
{
T 1600 2200 5 8 1 1 0 0 1
pinnumber=4
T 1900 2100 9 8 1 1 0 0 1
pinlabel=Q3
T 1500 2100 5 8 0 1 0 0 1
pinseq=4
T 1500 2100 5 8 0 1 0 0 1
pintype=out
}
P 1500 1800 1800 1800 1 0 0
{
T 1600 1900 5 8 1 1 0 0 1
pinnumber=5
T 1900 1800 9 8 1 1 0 0 1
pinlabel=Q4
T 1500 1800 5 8 0 1 0 0 1
pinseq=5
T 1500 1800 5 8 0 1 0 0 1
pintype=out
}
P 1500 1500 1800 1500 1 0 0
{
T 1600 1600 5 8 1 1 0 0 1
pinnumber=6
T 1900 1500 9 8 1 1 0 0 1
pinlabel=Q5
T 1500 1500 5 8 0 1 0 0 1
pinseq=6
T 1500 1500 5 8 0 1 0 0 1
pintype=out
}
P 1500 1200 1800 1200 1 0 0
{
T 1600 1300 5 8 1 1 0 0 1
pinnumber=7
T 1900 1200 9 8 1 1 0 0 1
pinlabel=Q6
T 1500 1200 5 8 0 1 0 0 1
pinseq=7
T 1500 1200 5 8 0 1 0 0 1
pintype=out
}
P 1500 900 1800 900 1 0 0
{
T 1705 945 5 8 1 1 0 6 1
pinnumber=8
T 1905 895 9 8 1 1 0 0 1
pinlabel=GND
T 1500 900 5 8 0 1 180 6 1
pinseq=8
T 1500 900 5 8 0 1 180 6 1
pintype=pwr
}
P 4200 900 3900 900 1 0 0
{
T 4100 1000 5 8 1 1 0 6 1
pinnumber=9
T 3800 900 9 8 1 1 0 6 1
pinlabel=Q7
T 4200 900 5 8 0 1 0 6 1
pinseq=9
T 4200 900 5 8 0 1 0 6 1
pintype=out
}
P 4200 2400 3900 2400 1 0 0
{
T 4000 2500 5 8 1 1 0 0 1
pinnumber=14
T 3630 2400 9 8 1 1 0 0 1
pinlabel=P1
T 4200 2400 5 8 0 1 0 0 1
pinseq=14
T 4200 2400 5 8 0 1 0 0 1
pintype=in
}
P 4200 2100 3900 2100 1 0 0
{
T 4000 2200 5 8 1 1 0 0 1
pinnumber=13
T 3640 2100 9 8 1 1 0 0 1
pinlabel=P2
T 4200 2100 5 8 0 1 0 0 1
pinseq=13
T 4200 2100 5 8 0 1 0 0 1
pintype=in
}
P 4200 1800 3900 1800 1 0 0
{
T 4000 1900 5 8 1 1 0 0 1
pinnumber=12
T 3630 1800 9 8 1 1 0 0 1
pinlabel=P3
T 4200 1800 5 8 0 1 0 0 1
pinseq=12
T 4200 1800 5 8 0 1 0 0 1
pintype=in
}
P 4200 1500 3900 1500 1 0 0
{
T 4000 1600 5 8 1 1 0 0 1
pinnumber=11
T 3610 1490 9 8 1 1 0 0 1
pinlabel=Q9
T 4200 1500 5 8 0 1 0 0 1
pinseq=11
T 4200 1500 5 8 0 1 0 0 1
pintype=out
}
P 4200 1200 3900 1200 1 0 0
{
T 4000 1300 5 8 1 1 0 0 1
pinnumber=10
T 3610 1200 9 8 1 1 0 0 1
pinlabel=Q8
T 4200 1200 5 8 0 1 0 0 1
pinseq=10
T 4200 1200 5 8 0 1 0 0 1
pintype=out
}
T 1800 3400 8 8 1 1 0 0 1
refdes=U?
T 1000 100 8 8 0 1 0 0 1
footprint=DIP16
T 2550 3100 8 8 1 1 0 0 1
device=74LS147
T 650 4800 8 10 0 1 0 0 1
documentation=http://www.motorola.com
T 650 4400 8 10 0 0 0 0 1
description=74LS147 1-of-10 Decoder/Driver Open-Collector
T 3600 0 8 10 0 0 0 0 1
author=Lawrence Hallman
T 0 0 8 10 0 0 0 0 1
dist-license=GPL
T 1600 0 8 10 0 0 0 0 1
use-license=unlimited
T 600 4050 8 10 0 0 0 0 1
P 4200 2700 3900 2700 1 0 0
{
T 4200 2700 5 8 0 1 0 0 1
pinseq=15
T 4200 2700 5 8 0 1 0 0 1
pintype=out
}
P 4200 3000 3900 3000 1 0 0
{
T 4000 3100 5 8 1 1 0 0 1
pinnumber=16
T 3560 2990 9 8 1 1 0 0 1
pinlabel=Vcc
T 4200 3000 5 8 0 1 0 0 1
pinseq=16
T 4200 3000 5 8 0 1 0 0 1
pintype=pwr
}
P 4200 2710 3900 2710 1 0 0
{
T 4000 2810 5 8 1 1 0 0 1
pinnumber=15
T 3630 2710 9 8 1 1 0 0 1
pinlabel=P0
T 4200 2710 5 8 0 1 0 0 1
pinseq=15
T 4200 2710 5 8 0 1 0 0 1
pintype=in
}
