v 20140308 2
P 100 1800 200 1800 3 0 0
{
T 150 1815 5 7 1 1 0 3 1
pinnumber=1
T 215 1800 3 5 1 1 0 1 1
pinlabel=I2
T 150 1815 5 7 0 1 0 3 1
pinseq=1
T 150 1815 5 7 0 1 0 3 1
pintype=in
}
P 100 1600 200 1600 3 0 0
{
T 150 1615 5 7 1 1 0 3 1
pinnumber=2
T 215 1600 3 5 1 1 0 1 1
pinlabel=TX
T 150 1615 5 7 0 1 0 3 1
pinseq=2
T 150 1615 5 7 0 1 0 3 1
pintype=out
}
P 100 1400 200 1400 3 0 0
{
T 150 1415 5 7 1 1 0 3 1
pinnumber=3
T 215 1400 3 5 1 1 0 1 1
pinlabel=RX
T 150 1415 5 7 0 1 0 3 1
pinseq=3
T 150 1415 5 7 0 1 0 3 1
pintype=in
}
P 100 1200 200 1200 3 0 0
{
T 150 1215 5 7 1 1 0 3 1
pinnumber=4
T 215 1200 3 5 1 1 0 1 1
pinlabel=RESET
T 150 1215 5 7 0 1 0 3 1
pinseq=4
T 150 1215 5 7 0 1 0 3 1
pintype=in
}
P 1100 200 1000 200 3 0 0
{
T 1050 215 5 7 1 1 0 3 1
pinnumber=5
T 985 200 3 5 1 1 0 7 1
pinlabel=VSS
T 1050 215 5 7 0 1 0 3 1
pinseq=5
T 1050 215 5 7 0 1 0 3 1
pintype=pwr
}
P 1100 400 1000 400 3 0 0
{
T 1050 415 5 7 1 1 0 3 1
pinnumber=6
T 985 400 3 5 1 1 0 7 1
pinlabel=O0
T 1050 415 5 7 0 1 0 3 1
pinseq=6
T 1050 415 5 7 0 1 0 3 1
pintype=out
}
P 1100 600 1000 600 3 0 0
{
T 1050 615 5 7 1 1 0 3 1
pinnumber=7
T 985 600 3 5 1 1 0 7 1
pinlabel=SDA/O1
T 1050 615 5 7 0 1 0 3 1
pinseq=7
T 1050 615 5 7 0 1 0 3 1
pintype=out
}
P 1100 800 1000 800 3 0 0
{
T 1050 815 5 7 1 1 0 3 1
pinnumber=8
T 985 800 3 5 1 1 0 7 1
pinlabel=O2
T 1050 815 5 7 0 1 0 3 1
pinseq=8
T 1050 815 5 7 0 1 0 3 1
pintype=out
}
P 1100 1000 1000 1000 3 0 0
{
T 1050 1015 5 7 1 1 0 3 1
pinnumber=9
T 985 1000 3 5 1 1 0 7 1
pinlabel=PWM/O3
T 1050 1015 5 7 0 1 0 3 1
pinseq=9
T 1050 1015 5 7 0 1 0 3 1
pintype=out
}
P 1100 1200 1000 1200 3 0 0
{
T 1050 1215 5 7 1 1 0 3 1
pinnumber=10
T 985 1200 3 5 1 1 0 7 1
pinlabel=SCL/O4
T 1050 1215 5 7 0 1 0 3 1
pinseq=10
T 1050 1215 5 7 0 1 0 3 1
pintype=out
}
P 1100 1400 1000 1400 3 0 0
{
T 1050 1415 5 7 1 1 0 3 1
pinnumber=11
T 985 1400 3 5 1 1 0 7 1
pinlabel=O5
T 1050 1415 5 7 0 1 0 3 1
pinseq=11
T 1050 1415 5 7 0 1 0 3 1
pintype=out
}
P 1100 1600 1000 1600 3 0 0
{
T 1050 1615 5 7 1 1 0 3 1
pinnumber=12
T 985 1600 3 5 1 1 0 7 1
pinlabel=O6
T 1050 1615 5 7 0 1 0 3 1
pinseq=12
T 1050 1615 5 7 0 1 0 3 1
pintype=out
}
P 1100 1800 1000 1800 3 0 0
{
T 1050 1815 5 7 1 1 0 3 1
pinnumber=13
T 985 1800 3 5 1 1 0 7 1
pinlabel=O7
T 1050 1815 5 7 0 1 0 3 1
pinseq=13
T 1050 1815 5 7 0 1 0 3 1
pintype=out
}
P 100 1000 200 1000 3 0 0
{
T 150 1015 5 7 1 1 0 3 1
pinnumber=14
T 215 1000 3 5 1 1 0 1 1
pinlabel=VDD
T 150 1015 5 7 0 1 0 3 1
pinseq=14
T 150 1015 5 7 0 1 0 3 1
pintype=pwr
}
P 100 800 200 800 3 0 0
{
T 150 815 5 7 1 1 0 3 1
pinnumber=15
T 215 800 3 5 1 1 0 1 1
pinlabel=I6
T 150 815 5 7 0 1 0 3 1
pinseq=15
T 150 815 5 7 0 1 0 3 1
pintype=in
}
P 100 600 200 600 3 0 0
{
T 150 615 5 7 1 1 0 3 1
pinnumber=16
T 215 600 3 5 1 1 0 1 1
pinlabel=I7
T 150 615 5 7 0 1 0 3 1
pinseq=16
T 150 615 5 7 0 1 0 3 1
pintype=in
}
P 100 400 200 400 3 0 0
{
T 150 415 5 7 1 1 0 3 1
pinnumber=17
T 215 400 3 5 1 1 0 1 1
pinlabel=I0
T 150 415 5 7 0 1 0 3 1
pinseq=17
T 150 415 5 7 0 1 0 3 1
pintype=in
}
P 100 200 200 200 3 0 0
{
T 150 215 5 7 1 1 0 3 1
pinnumber=18
T 215 200 3 5 1 1 0 1 1
pinlabel=I1
T 150 215 5 7 0 1 0 3 1
pinseq=18
T 150 215 5 7 0 1 0 3 1
pintype=in
}
T 1900 320 3 7 0 0 0 0 1
numslots=0
B 200 0 800 2000 3 0 0 0 -1 -1 0 -1 -1 -1 -1 -1
T 1900 430 3 7 0 0 0 0 1
footprint=unknown
T 1900 540 3 7 0 0 0 0 1
dist-licence=GPL 3, see http://www.gnu.org/licenses/gpl-3.0.txt
T 1900 650 3 7 0 0 0 0 1
use-licence=free, no restrictions
T 1900 760 3 7 0 0 0 0 1
source=picaxe-3.lib
