v 20150930 2
P 0 500 200 500 1 0 0
{
T -200 450 5 10 0 0 0 8 1
pintype=pas
T 105 450 5 10 0 1 0 8 1
pinlabel=G
T 105 550 5 10 1 1 0 6 1
pinnumber=1
T -200 550 5 10 0 0 0 6 1
pinseq=1
}
P 500 1000 500 750 1 0 0
{
T 550 1200 5 10 0 0 90 2 1
pintype=pas
T 545 895 5 10 0 1 90 2 1
pinlabel=D
T 455 895 5 10 1 1 90 0 1
pinnumber=3
T 450 1200 5 10 0 0 90 0 1
pinseq=3
}
P 500 0 500 500 1 0 0
{
T 550 -200 5 10 0 0 90 8 1
pintype=pas
T 545 105 5 10 0 1 90 8 1
pinlabel=S
T 445 95 5 10 1 1 90 6 1
pinnumber=2
T 450 -200 5 10 0 0 90 6 1
pinseq=2
}
T 895 295 8 10 1 1 0 1 1
package=$(Package)
T 895 495 8 10 1 1 0 1 1
value=$(PartNumber)
T 895 695 8 10 1 1 0 1 1
refdes=Q?
L 250 825 250 675 3 30 1 0 -1 -1
L 250 575 250 425 3 30 1 0 -1 -1
L 250 325 250 175 3 30 1 0 -1 -1
L 500 750 250 750 3 10 1 0 -1 -1
L 500 500 250 500 3 10 1 0 -1 -1
L 500 250 250 250 3 10 1 0 -1 -1
L 500 800 700 800 3 10 1 0 -1 -1
L 700 800 700 200 3 10 1 0 -1 -1
L 700 200 500 200 3 10 1 0 -1 -1
L 775 550 625 550 3 10 1 0 -1 -1
V 500 800 25 3 0 1 0 -1 -1 1 -1 -1 -1 -1 -1
V 500 200 25 3 0 1 0 -1 -1 1 -1 -1 -1 -1 -1
V 500 250 25 3 0 1 0 -1 -1 1 -1 -1 -1 -1 -1
H 3 0 0 0 -1 -1 1 -1 -1 -1 -1 -1 4
M 250,500
L 400,550
L 400,450
z
H 3 0 0 0 -1 -1 1 -1 -1 -1 -1 -1 4
M 700,550
L 775,450
L 625,450
z
L 200 825 200 175 3 30 1 0 -1 -1
T 900 1300 8 10 0 0 0 1 1
device=MOSFET
T 895 2300 8 10 0 0 0 1 1
author=Edward Hennessy
T 895 2100 8 10 0 0 0 1 1
copyright=(C) 2015 Edward Hennessy
T 895 1900 8 10 0 0 0 1 1
dist-license=GPL
T 895 1700 8 10 0 0 0 1 1
use-license=Unlimited
T 895 1100 8 10 0 0 0 1 1
footprint=$(Footprint)
